angle,pieceIndex,inPieceDistance,startLaneIndex,endLaneIndex,lap,throttle
0.0,0,0.0,0,0,0,0.6
0.0,0,0.0,0,0,0,0.6
0.0,0,0.0,0,0,0,0.6
0.0,0,0.12,0,0,0,0.6
0.0,0,0.3576,0,0,0,0.6
0.0,0,0.710448,0,0,0,0.6
0.0,0,1.17623904,0,0,0,0.6
0.0,0,1.7527142591999998,0,0,0,0.6
0.0,0,2.4376599740159994,0,0,0,0.6
0.0,0,3.2289067745356794,0,0,0,0.6
0.0,0,4.124328639044966,0,0,0,0.6
0.0,0,5.121842066264066,0,0,0,0.6
0.0,0,6.219405224938785,0,0,0,0.6
0.0,0,7.415017120440009,0,0,0,0.6
0.0,0,8.70671677803121,0,0,0,0.6
0.0,0,10.092582442470585,0,0,0,0.6
0.0,0,11.570730793621173,0,0,0,0.6
0.0,0,13.13931617774875,0,0,0,0.6
0.0,0,14.796529854193775,0,0,0,0.6
0.0,0,16.5405992571099,0,0,0,0.6
0.0,0,18.369787271967702,0,0,0,0.6
0.0,0,20.282391526528347,0,0,0,0.6
0.0,0,22.27674369599778,0,0,0,0.6
0.0,0,24.351208822077822,0,0,0,0.6
0.0,0,26.504184645636265,0,0,0,0.6
0.0,0,28.73410095272354,0,0,0,0.6
0.0,0,31.03941893366907,0,0,0,0.6
0.0,0,33.41863055499569,0,0,0,0.6
0.0,0,35.87025794389577,0,0,0,0.6
0.0,0,38.39285278501786,0,0,0,0.6
0.0,0,40.984995729317504,0,0,0,0.6
0.0,0,43.645295814731156,0,0,0,0.6
0.0,0,46.37238989843653,0,0,0,0.6
0.0,0,49.1649421004678,0,0,0,0.6
0.0,0,52.02164325845844,0,0,0,0.6
0.0,0,54.94121039328927,0,0,0,0.6
0.0,0,57.922386185423484,0,0,0,0.6
0.0,0,60.96393846171502,0,0,0,0.6
0.0,0,64.06465969248072,0,0,0,0.6
0.0,0,67.22336649863111,0,0,0,0.6
0.0,0,70.43889916865848,0,0,0,0.6
0.0,0,73.71012118528532,0,0,0,0.6
0.0,0,77.03591876157961,0,0,0,0.6
0.0,0,80.41520038634802,0,0,0,0.6
0.0,0,83.84689637862105,0,0,0,0.6
0.0,0,87.32995845104864,0,0,0,0.6
0.0,0,90.86335928202767,0,0,0,0.6
0.0,0,94.44609209638712,0,0,0,0.6
0.0,0,98.07717025445938,0,0,0,0.6
0.0,1,1.7556268493701879,0,0,0,0.6
0.0,1,5.480514312382784,0,0,0,0.6
0.0,1,9.250904026135128,0,0,0,0.6
0.0,1,13.065885945612425,0,0,0,0.6
0.0,1,16.924568226700178,0,0,0,0.6
0.0,1,20.826076862166175,0,0,0,0.6
0.0,1,24.76955532492285,0,0,0,0.6
0.0,1,28.754164218424393,0,0,0,0.6
0.0,1,32.779080934055905,0,0,0,0.6
0.0,1,36.843499315374785,0,0,0,0.6
0.0,1,40.94662932906729,0,0,0,0.6
0.0,1,45.087696742485946,0,0,0,0.6
0.0,1,49.26594280763623,0,0,0,0.6
0.0,1,53.4806239514835,0,0,0,0.6
0.0,1,57.73101147245383,0,0,0,0.6
0.0,1,62.016391243004755,0,0,0,0.6
0.0,1,66.33606341814466,0,0,0,0.6
0.0,1,70.68934214978177,0,0,0,0.6
0.0,1,75.07555530678613,0,0,0,0.6
0.0,1,79.49404420065041,0,0,0,0.6
0.0,1,83.9441633166374,0,0,0,0.6
0.0,1,88.42528005030465,0,0,0,0.6
0.0,1,92.93677444929855,0,0,0,0.6
0.0,1,97.47803896031259,0,0,0,0.6
0.0,2,2.048478181106333,0,0,0,0.6
0.0,2,6.647508617484207,0,0,0,0.6
0.0,2,11.274558445134524,0,0,0,0.6
0.0,2,15.929067276231834,0,0,0,0.6
0.0,2,20.6104859307072,0,0,0,0.6
0.0,2,25.318276212093053,0,0,0,0.6
0.0,2,30.05191068785119,0,0,0,0.6
0.0,2,34.81087247409417,0,0,0,0.6
0.0,2,39.59465502461229,0,0,0,0.6
0.0,2,44.40276192412004,0,0,0,0.6
0.0,2,49.23470668563764,0,0,0,0.6
0.0,2,54.090012551924886,0,0,0,0.6
0.0,2,58.968212300886385,0,0,0,0.6
0.0,2,63.86884805486866,0,0,0,0.6
0.0,2,68.79147109377128,0,0,0,0.6
0.0,2,73.73564167189585,0,0,0,0.6
0.0,2,78.70092883845793,0,0,0,0.6
0.0,2,83.68691026168877,0,0,0,0.6
0.0,2,88.69317205645498,0,0,0,0.6
0.0,2,93.71930861532589,0,0,0,0.6
0.0,2,98.76492244301937,0,0,0,0.6
0.0,3,3.829623994158979,0,0,0,0.6
0.0,3,8.913031514275797,0,0,0,0.6
0.0,3,14.01477088399028,0,0,0,0.6
0.0,3,19.134475466310473,0,0,0,0.6
0.0,3,24.27178595698426,0,0,0,0.6
0.0,3,29.426350237844574,0,0,0,0.6
0.0,3,34.59782323308768,0,0,0,0.6
0.0,3,39.785866768425926,0,0,0,0.6
0.0,3,44.990149433057404,0,0,0,0.6
0.0,3,50.21034644439626,0,0,0,0.6
0.0,3,55.446139515508335,0,0,0,0.6
0.0,3,60.69721672519817,0,0,0,0.6
0.0,3,65.9632723906942,0,0,0,0.6
0.0,3,71.24400694288032,0,0,0,0.6
0.0,3,76.53912680402271,0,0,0,0.6
0.0,3,81.84834426794227,0,0,0,0.6
0.0,3,87.17137738258342,0,0,0,0.6
0.0,3,92.50794983493175,0,0,0,0.6
0.0,3,97.85779083823311,0,0,0,0.6
0.0,4,3.2206350214684534,0,0,0,0.6
0.0,4,8.596222321039084,0,0,0,0.6
0.0,4,13.984297874618303,0,0,0,0.6
0.0,4,19.384611917125937,0,0,0,0.6
0.0,4,24.796919678783418,0,0,0,0.6
0.0,4,30.22098128520775,0,0,0,0.6
0.0,4,35.656561659503595,0,0,0,0.6
0.0,4,41.10343042631352,0,0,0,0.6
0.0,4,46.56136181778725,0,0,0,0.6
0.0,4,52.030134581431504,0,0,0,0.6
0.0,4,57.50953188980287,0,0,0,0.6
0.0,4,62.999341252006815,0,0,0,0.6
0.0,4,68.49935442696668,0,0,0,0.6
0.0,4,74.00936733842734,0,0,0,0.6
0.0,4,79.5291799916588,0,0,0,0.6
0.0,4,85.05859639182562,0,0,0,0.6
0.0,5,4.203626490269784,0,0,0,0.6
0.0,5,9.751678000990001,0,0,0,0.6
0.0,5,15.308768481495814,0,0,0,0.6
0.0,5,20.87471715239151,0,0,0,0.6
0.0,5,26.449346849869293,0,0,0,0.6
0.0,5,32.032483953397524,0,0,0,0.6
0.0,5,37.62395831485519,0,0,0,0.6
0.0,5,43.2236031890837,0,0,0,0.6
0.0,5,48.831255165827635,0,0,0,0.6
0.0,5,54.446754103036696,0,0,0,0.6
0.0,5,60.069943061501576,0,0,0,0.6
0.0,5,65.70066824079716,0,0,0,0.6
0.0,5,71.33877891650683,0,0,0,0.6
0.0,5,76.9841273787023,0,0,0,0.6
0.0,5,82.63656887165386,0,0,0,0.6
0.0,6,1.9021635610270806,0,0,0,0.6
0.0,6,7.568368370857766,0,0,0,0.6
0.0,6,13.241249084491837,0,0,0,0.6
0.0,6,18.920672183853227,0,0,0,0.6
0.0,6,24.60650682122739,0,0,0,0.6
0.0,6,30.298624765854072,0,0,0,0.6
0.0,6,35.996900351588216,0,0,0,0.6
0.0,6,41.70121042560768,0,0,0,0.6
0.0,6,47.41143429814675,0,0,0,0.6
0.0,6,53.12745369323504,0,0,0,0.6
0.0,6,58.84915270042156,0,0,0,0.6
0.0,6,64.57641772746436,0,0,0,0.6
0.0,6,70.3091374539663,0,0,0,0.6
0.0,6,76.0472027859382,0,0,0,0.6
0.0,6,81.79050681127066,0,0,0,0.6
0.0,7,1.1451467823771537,0,0,0,0.6
0.0,7,6.8986159683064505,0,0,0,0.6
0.0,7,12.657015770517162,0,0,0,0.6
0.0,7,18.420247576683657,0,0,0,0.6
0.0,7,24.188214746726825,0,0,0,0.6
0.0,7,29.96082257336913,0,0,0,0.6
0.0,7,35.73797824347859,0,0,0,0.6
0.0,7,41.51959080018585,0,0,0,0.6
0.0,7,47.30557110575897,0,0,0,0.6
0.0,7,53.095831805220634,0,0,0,0.6
0.0,7,58.89028729069306,0,0,0,0.6
0.0,7,64.68885366645604,0,0,0,0.6
0.0,7,70.49144871470376,0,0,0,0.6
0.0,7,76.29799186198653,0,0,0,0.6
0.0,7,82.10840414632364,0,0,0,0.6
0.0,8,1.5288102112546795,0,0,0,0.6
0.0,8,7.346730169132039,0,0,0,0.6
0.0,8,13.168291727851852,0,0,0,0.6
0.0,8,18.993422055397268,0,0,0,0.6
0.0,8,24.822049776391776,0,0,0,0.6
0.0,8,30.65410494296639,0,0,0,0.6
0.0,8,36.48951900620952,0,0,0,0.6
0.0,8,42.32822478818778,0,0,0,0.6
0.0,8,48.17015645452648,0,0,0,0.6
0.0,8,54.0152494875384,0,0,0,0.6
0.0,8,59.86344065989008,0,0,0,0.6
0.0,8,65.71466800879473,0,0,0,0.6
0.0,8,71.5688708107213,0,0,0,0.6
0.0,8,77.42598955660932,0,0,0,0.6
0.0,9,0.8191587708475225,0,0,0,0.6
0.0,9,6.681935614398386,0,0,0,0.6
0.0,9,12.547456921078233,0,0,0,0.6
0.0,9,18.415667801624483,0,0,0,0.6
0.0,9,24.286514464559808,0,0,0,0.6
0.0,9,30.159944194236427,0,0,0,0.6
0.0,9,36.03590532931951,0,0,0,0.6
0.0,9,41.91434724170094,0,0,0,0.6
0.0,9,47.79522031583473,0,0,0,0.6
0.0,9,53.67847592848585,0,0,0,0.6
0.0,9,59.56406642888395,0,0,0,0.6
0.0,9,65.45194511927409,0,0,0,0.6
0.0,9,71.34206623585642,0,0,0,0.6
0.0,9,77.23438493010711,0,0,0,0.6
0.0,9,83.12885725047278,0,0,0,0.6
0.0,9,89.02544012443113,0,0,0,0.6
0.0,9,94.92409134091032,0,0,0,0.6
0.0,10,0.8247695330599356,0,0,0,0.6
0.0,10,6.72743416136655,0,0,0,0.6
0.0,10,12.632045497107033,0,0,0,0.6
0.0,10,18.538564606132706,0,0,0,0.6
0.0,10,24.446953332977863,0,0,0,0.6
0.0,10,30.357174285286117,0,0,0,0.6
0.0,10,36.26919081854821,0,0,0,0.6
0.0,10,42.18296702114506,0,0,0,0.6
0.0,10,48.09846769968997,0,0,0,0.6
0.0,10,54.015658364663985,0,0,0,0.6
0.0,10,59.934505216338515,0,0,0,0.6
0.0,10,65.85497513097955,0,0,0,0.6
0.0,10,71.77703564732778,0,0,0,0.6
0.0,10,77.70065495334903,0,0,0,0.6
0.0,10,83.62580187324986,0,0,0,0.6
0.0,10,89.55244585475268,0,0,0,0.6
0.0,10,95.48055695662543,0,0,0,0.6
0.0,11,1.410105836460744,0,0,0,0.6
0.0,11,7.341063738699344,0,0,0,0.6
0.0,11,13.273402482893172,0,0,0,0.6
0.0,11,19.207094452203123,0,0,0,0.6
0.0,11,25.142112582126874,0,0,0,0.6
0.0,11,31.07843034945215,0,0,0,0.6
0.0,11,37.01602176143092,0,0,0,0.6
0.0,11,42.954861345170116,0,0,0,0.6
0.0,11,48.894924137234526,0,0,0,0.6
0.0,11,54.83618567345765,0,0,0,0.6
0.0,11,60.77862197895631,0,0,0,0.6
0.0,11,66.722209558345,0,0,0,0.6
0.0,11,72.66692538614592,0,0,0,0.6
0.0,12,3.9999213746332316,0,0,0,0.6
0.0,12,9.94682645565323,0,0,0,0.6
0.0,12,15.89479343505283,0,0,0,0.6
0.0,12,21.843801074864437,0,0,0,0.6
0.0,12,27.793828561879813,0,0,0,0.6
0.0,12,33.74485549915488,0,0,0,0.6
0.0,12,39.69686189768444,0,0,0,0.6
0.0,12,45.64982816824342,0,0,0,0.6
0.0,12,51.60373511339121,0,0,0,0.6
0.0,12,57.55856391963605,0,0,0,0.6
0.0,12,63.51429614975599,0,0,0,0.6
0.0,12,69.47091373527354,0,0,0,0.6
0.0,12,75.42839896908073,0,0,0,0.6
0.0,12,81.38673449821178,0,0,0,0.6
0.0,12,87.3459033167602,0,0,0,0.6
0.0,12,93.30588875893766,0,0,0,0.6
0.0,12,99.26667449227156,0,0,0,0.6
0.0,13,5.228244510938794,0,0,0,0.6
0.0,13,11.190583129232682,0,0,0,0.6
0.0,13,17.15367497516069,0,0,0,0.6
0.0,13,23.11750498417014,0,0,0,0.6
0.0,13,29.0820583929994,0,0,0,0.6
0.0,13,35.04732073365207,0,0,0,0.6
0.0,13,41.01327782749169,0,0,0,0.6
0.0,13,46.97991577945452,0,0,0,0.6
0.0,13,52.9472209723781,0,0,0,0.6
0.0,13,58.9151800614432,0,0,0,0.6
0.0,13,64.883779968727,0,0,0,0.6
0.0,13,70.85300787786512,0,0,0,0.6
0.0,13,76.82285122882048,0,0,0,0.6
0.0,13,82.79329771275674,0,0,0,0.6
0.0,13,88.76433526701427,0,0,0,0.6
0.0,13,94.73595207018666,0,0,0,0.6
0.0,14,0.7081365372955872,0,0,0,0.6
-0.20218986426588273,14,6.6808773150623395,0,0,0,0.6
-0.5850456503951192,14,12.654163277273756,0,0,0,0.6
-1.1278425151281821,14,18.627983520240946,0,0,0,0.6
-1.8107292886687412,14,24.60232735834879,0,0,0,0.6
-2.614789134011404,14,30.577184319694478,0,0,0,0.6
-3.5220872237746645,14,36.55254414181325,0,0,0,0.6
-4.515706370817523,14,42.528396767489646,0,0,0,0.6
-5.5797715453870556,14,48.50473234065252,0,0,0,0.6
-6.699464201449289,14,54.48154120235213,0,0,0,0.6
-7.861027318920094,14,60.45881388681775,0,0,0,0.6
-9.051762047431655,14,66.43654111759406,0,0,0,0.6
-10.26001681170814,15,1.7288790979845032,0,0,0,0.6
-11.475169709213958,15,7.707488330422071,0,0,0,0.6
-12.687604998078045,15,13.686525378210888,0,0,0,0.6
-13.888684437951616,15,19.665981685043928,0,0,0,0.6
-15.07071420895283,15,25.645848865740305,0,0,0,0.6
-16.226908094681548,15,31.626118702822758,0,0,0,0.6
-17.3513475749066,15,37.60678314316356,0,0,0,0.6
-18.438939432356424,15,43.58783429469755,0,0,0,0.6
-19.485371436465442,15,49.569264423200856,0,0,0,0.6
-20.48706662529258,15,55.5510659491341,0,0,0,0.6
-21.441136665449545,15,61.533231444548676,0,0,0,0.6
-22.345334729037283,15,67.51575363005496,0,0,0,0.6
-23.198008286539267,16,2.8127906660807724,0,0,0,0.6
-23.99805217557935,16,8.796004973041008,0,0,0,0.6
-24.744862267610497,16,14.779554993862039,0,0,0,0.6
-25.438290018120853,16,20.76343401426665,0,0,0,0.6
-26.07859815096196,16,26.74763545426317,0,0,0,0.6
-26.666417694032013,16,32.73215286545975,0,0,0,0.6
-27.202706551873504,16,38.71697992843241,0,0,0,0.6
-27.688709770836674,16,44.70211045014561,0,0,0,0.6
-28.125921624365382,16,50.68753836142455,0,0,0,0.6
-28.516049619709257,16,56.67325771447791,0,0,0,0.6
-28.860980502968296,16,62.659262680470206,0,0,0,0.6
-29.1627483168307,16,68.64554754714266,0,0,0,0.6
-29.42350454465574,17,3.9462720107113114,0,0,0,0.6
-29.64549035565283,17,9.933099996663529,0,0,0,0.6
-29.831010948776893,17,15.920191422896703,0,0,0,0.6
-29.982411977550285,17,21.907541020605215,0,0,0,0.6
-30.102058024277177,17,27.895143626359555,0,0,0,0.6
-30.192313079973992,17,33.88299417999881,0,0,0,0.6
-30.255522975730784,17,39.87108772256528,0,0,0,0.6
-30.293999702069907,17,45.859419394280415,0,0,0,0.6
-30.310007545103172,17,51.847984432561255,0,0,0,0.6
-30.305750961827084,17,57.83677817007647,0,0,0,0.6
-30.28336411165658,17,63.82579603284139,0,0,0,0.6
-30.244901957198216,17,69.815033538351,0,0,0,0.6
-30.19233284422141,18,5.118651587980082,0,0,0,0.6
-29.91897620361009,18,11.108315288271518,0,0,0,0.6
-29.44894946991409,18,17.098185714557125,0,0,0,0.6
-28.80543117019392,18,23.08825873231702,0,0,0,0.6
-28.010581405423867,18,29.078530289721716,0,0,0,0.6
-27.08547788075672,18,35.06899641597832,0,0,0,0.6
-26.050066411358607,18,41.05965321970979,0,0,0,0.6
-24.923124829419226,18,47.05049688736663,0,0,0,0.6
-23.7222392249706,18,53.041523681670334,0,0,0,0.6
-22.463791467444736,18,59.03272994008797,0,0,0,0.6
-21.16295697563703,18,65.02411207333725,0,0,0,0.6
-19.833711730121898,18,71.01566656392154,0,0,0,0.6
-18.488847553431324,18,77.00738996469416,0,0,0,0.6
-17.139994718735792,18,82.9992788974513,0,0,0,0.6
-15.797650986681427,18,88.99133005155332,0,0,0,0.6
-14.471216211798941,18,94.9835401825733,0,0,0,0.6
-13.169031703914051,19,0.9759061109728719,0,0,0,0.6
-11.8804229797123,19,6.968424720804453,0,0,0,0.6
-10.613635739298429,19,12.961092958439403,0,0,0,0.6
-9.375929116092252,19,18.953907831321654,0,0,0,0.6
-8.173619909175443,19,24.94686640674626,0,0,0,0.6
-7.012129447654369,19,30.939965810662372,0,0,0,0.6
-5.896032473815815,19,36.93320322650016,0,0,0,0.6
-4.829107477943073,19,42.9265758940212,0,0,0,0.6
-3.8143879633938607,19,48.920081108191816,0,0,0,0.6
-2.854214165612591,19,54.91371621807902,0,0,0,0.6
-1.9502847928868705,19,60.907478625768476,0,0,0,0.6
-1.1037083996247605,19,66.90136578530415,0,0,0,0.6
-0.31505404452081676,19,72.8953752016491,0,0,0,0.6
0.41559907397868234,19,78.88950442966716,0,0,0,0.6
1.088613274152573,19,84.88375107312486,0,0,0,0.6
1.704745572128544,20,4.484314809994075,0,0,0,0.6
2.265102585726691,20,10.478789286370844,0,0,0,0.6
2.7710973264374648,20,16.47337427322008,0,0,0,0.6
3.224408014311316,20,22.46806756033233,0,0,0,0.6
3.6269390219487065,20,28.462866981702334,0,0,0,0.6
3.980784027248718,20,34.45777041464494,0,0,0,0.6
4.288191430095431,20,40.4527757789287,0,0,0,0.6
4.551532065712072,20,46.44788103592678,0,0,0,0.6
4.773269226959141,20,52.44308418778489,0,0,0,0.6
4.95593098934827,20,58.43838327660585,0,0,0,0.6
5.10208481593251,20,64.43377638365038,0,0,0,0.6
5.214314404451381,20,70.42926162855403,0,0,0,0.6
5.29519872608366,20,76.4248371685596,0,0,0,0.6
5.347293193814541,20,82.42050119776506,0,0,0,0.6
5.373112888674053,21,2.022453972667094,0,0,0,0.6
5.375117763863939,21,8.018289706316018,0,0,0,0.6
5.355699739971701,21,14.014208725291965,0,0,0,0.6
5.317171598982386,21,20.010209363888393,0,0,0,0.6
5.26175758054917,21,26.00628998971289,0,0,0,0.6
5.191585580881258,21,32.0024490030209,0,0,0,0.6
5.108680852560601,21,37.99868483606275,0,0,0,0.6
5.014961102517616,21,43.99499595244376,0,0,0,0.6
4.912232885192035,21,49.99138084649715,0,0,0,0.6
4.802189188492301,21,55.98783804266947,0,0,0,0.6
4.686408111462077,21,61.98436609491835,0,0,0,0.6
4.566352534485154,21,67.98096358612224,0,0,0,0.6
4.443370685333303,21,73.97762912750207,0,0,0,0.6
4.318697507311863,21,79.9743613580543,0,0,0,0.6
4.193456739115496,21,85.97115894399548,0,0,0,0.6
4.068663619705631,22,5.574222604498516,0,0,0,0.6
3.945228135500018,22,11.571147006036426,0,0,0,0.6
3.823958731365665,22,17.56813291954358,0,0,0,0.6
3.705566411275668,22,23.565179114780587,0,0,0,0.6
3.5906691589785837,22,29.562284386112857,0,0,0,0.6
3.4797966135904503,22,35.55944755201848,0,0,0,0.6
3.373394939612939,22,41.55666745460599,0,0,0,0.6
3.2718318354687925,22,47.55394295914175,0,0,0,0.6
3.175401629193895,22,53.551272953586796,0,0,0,0.6
3.0843304144038806,22,59.54865634814294,0,0,0,0.6
2.9987811840355834,22,65.54609207480796,0,0,0,0.6
2.918858923626572,22,71.54357908693969,0,0,0,0.6
2.844615630019553,22,77.54111635882877,0,0,0,0.6
2.7760552253455844,22,83.53870288528007,0,0,0,0.6
2.7131383399366844,23,3.1425397074830386,0,0,0,0.6
2.6361726269264807,23,9.140221807486872,0,0,0,0.6
2.5471398284960007,23,15.13795026549063,0,0,0,0.6
2.4479139936137124,23,21.135724154334312,0,0,0,0.6
2.3402581989283635,23,27.13354256540112,0,0,0,0.6
2.2258224290713216,23,33.13140460824659,0,0,0,0.6
2.106142516373182,23,39.12930941023515,0,0,0,0.6
1.982640042054073,23,45.12725611618394,0,0,0,0.6
1.8566231035302245,23,51.125243888013756,0,0,0,0.6
1.729287855518922,23,57.12327190440698,0,0,0,0.6
1.6017207360514858,23,63.121339360472334,0,0,0,0.6
1.474901292255024,23,69.11944546741638,0,0,0,0.6
1.3497055247779401,23,75.11758945222155,0,0,0,0.6
1.2269096739551832,23,81.11577055733062,0,0,0,0.6
1.1071943751847102,24,4.647180883605429,0,0,0,0.6
0.9911491154683848,24,10.645434016952173,0,0,0,0.6
0.8792769276143518,24,16.643722087631982,0,0,0,0.6
0.7719992631635557,24,22.642044396898193,0,0,0,0.6
0.6696609896541253,24,28.64040025997908,0,0,0,0.6
0.5725354623411776,24,34.63878900579835,0,0,0,0.6
0.4808296249171624,24,40.637209976701236,0,0,0,0.6
0.3946890981036306,24,46.63566252818606,0,0,0,0.6
0.31420321918699834,24,52.63414602864119,0,0,0,0.6
0.23940999962942539,24,58.63265985908722,0,0,0,0.6
0.17030097178520448,24,64.63120341292432,0,0,0,0.6
0.10682589947976276,24,70.62977609568469,0,0,0,0.6
0.04889733075182695,25,2.015551802032263,0,0,0,0.6
-0.003605025588750116,25,8.014181006555319,0,0,0,0.6
-0.05083011478054481,25,14.012837626987913,0,0,0,0.6
-0.09295155454747796,25,20.011521115011856,0,0,0,0.6
-0.13016386664340515,25,26.01023093327532,0,0,0,0.6
-0.16267892844871845,25,32.008966555173515,0,0,0,0.6
-0.19072264921972848,25,38.007727464633746,0,0,0,0.6
-0.21453187344777752,25,44.00651315590477,0,0,0,0.6
-0.23435151183707154,25,50.00532313335037,0,0,0,0.6
-0.25043189865313903,25,56.004156911247065,0,0,0,0.6
-0.26302637262172074,25,62.003014013585826,0,0,0,0.6
-0.272389077164064,25,68.00189397387781,0,0,0,0.6
-0.27877297453167055,25,74.00079633496395,0,0,0,0.6
-0.2824280673436101,25,79.99972064882837,0,0,0,0.6
-0.283599820124224,25,85.99866647641551,0,0,0,0.6
-0.28252777267972823,25,91.9976333874509,0,0,0,0.6
-0.27944433652998923,25,97.99662096026559,0,0,0,0.6
-0.2745737651175531,26,3.995628781623978,0,0,0,0.6
-0.24809599015375605,26,9.9946564465552,0,0,0,0.6
-0.20236419067607703,26,15.993703558187798,0,0,0,0.6
-0.1396407331660256,26,21.992769727587742,0,0,0,0.6
-0.062089286599687,26,27.99185457359969,0,0,0,0.6
0.028231534105045517,26,33.9909577226914,0,0,0,0.6
0.12937310139450808,26,39.99007880880127,0,0,0,0.6
0.23950039044660063,26,45.989217473188944,0,0,0,0.6
0.3568943812602444,26,51.98837336428887,0,0,0,0.6
0.4799533507606589,26,57.987546137566795,0,0,0,0.6
0.6071931562093025,26,63.98673545537916,0,0,0,0.6
0.7372466086435316,26,69.98594098683527,0,0,0,0.6
0.868862032023388,26,75.98516240766227,0,0,0,0.6
1.0009011003026353,26,81.98439940007273,0,0,0,0.6
1.132336040835444,27,1.5898536789156594,0,0,0,0.6
1.2622462884419927,27,7.589120886426661,0,0,0,0.6
1.3898146701446394,27,13.588402749787443,0,0,0,0.6
1.5143231961058377,27,19.58769897588101,0,0,0,0.6
1.6351485277001383,27,25.587009277452708,0,0,0,0.6
1.7517571889817136,27,31.586333372992968,0,0,0,0.6
1.8637005831081053,27,37.585670986622425,0,0,0,0.6
1.9706098705885464,27,43.58502184797929,0,0,0,0.6
2.072190761575592,27,49.584385692109024,0,0,0,0.6
2.1682182698424928,27,55.583762259356156,0,0,0,0.6
2.2585314716127542,27,61.58315129525835,0,0,0,0.6
2.343028308056157,27,67.5825525504425,0,0,0,0.6
2.421660466057439,27,73.58196578052296,0,0,0,0.6
2.4944283678170014,27,79.58139074600182,0,0,0,0.6
2.5613762959716015,27,85.5808272121711,0,0,0,0.6
2.6225876772385637,28,5.18647697529768,0,0,0,0.6
2.6580103232477184,28,11.185935757406655,0,0,0,0.6
2.6699574254350265,28,17.18540536387345,0,0,0,0.6
2.6606869068730314,28,23.18488557821091,0,0,0,0.6
2.632390017099322,28,29.18437618826162,0,0,0,0.6
2.58718156731601,28,35.183876986111315,0,0,0,0.6
2.5270917151644112,28,41.18338776800402,0,0,0,0.6
2.4540592057380217,28,47.18290833425887,0,0,0,0.6
2.3699259739097305,28,53.18243848918862,0,0,0,0.6
2.27643301233249,28,59.181978041019775,0,0,0,0.6
2.175217409544745,29,3.1815268018143144,0,0,0,0.6
1.855516600960693,29,9.181084587392956,0,0,0,0.6
1.3415733158421306,29,15.180651217260024,0,0,0,0.6
0.6566627983482919,29,21.180226514529753,0,0,0,0.6
-0.17698499117515187,29,27.179810305854087,0,0,0,0.6
-1.1382475571596569,29,33.17940242135193,0,0,0,0.6
-2.2071575273676105,29,39.17900269453982,0,0,0,0.6
-3.364936883752775,29,45.17861096226395,0,0,0,0.6
-4.5940188515758305,29,51.1782270646336,0,0,0,0.6
-5.878058516689153,29,57.177850844955856,0,0,0,0.6
-7.201933218450933,29,63.17748214967167,0,0,0,0.6
-8.551733737665275,29,69.17712082829317,0,0,0,0.6
-9.914747266043257,30,4.490932027571887,0,0,0,0.6
-11.279433106670542,30,10.490585014519969,0,0,0,0.6
-12.635392014538212,30,16.490244941729088,0,0,0,0.6
-13.973330042990128,30,22.489911670394026,0,0,0,0.6
-15.28501771656365,30,28.489585064485667,0,0,0,0.6
-16.56324530370851,30,34.489264990695474,0,0,0,0.6
-17.801774914774985,30,40.48895131838108,0,0,0,0.6
-18.995290101937943,30,46.48864391951298,0,0,0,0.6
-20.139343588796454,30,52.48834266862224,0,0,0,0.6
-21.23030370864637,30,58.48804744274931,0,0,0,0.6
-22.265300082212942,30,64.48775812139385,0,0,0,0.6
-23.242169018260114,30,70.4874745864655,0,0,0,0.6
-24.159399074234255,31,5.801362016465362,0,0,0,0.6
-24.783464633444463,31,11.801089709520166,0,0,0,0.6
-25.13899999376049,31,17.800822848713878,0,0,0,0.6
-25.250189939132365,31,23.800561325123713,0,0,0,0.6
-25.14063331788946,31,29.80030503200535,0,0,0,0.6
-24.833224656699766,31,35.80005386474936,0,0,0,0.6
-24.35005289453897,31,41.79980772083849,0,0,0,0.6
-23.712316284190955,31,47.799566499805834,0,0,0,0.6
-22.940252482798616,31,53.79933010319383,0,0,0,0.6
-22.05308283691885,31,59.79909843451407,0,0,0,0.6
-21.06896986053521,31,65.79887139920791,0,0,0,0.6
-20.00498690569194,31,71.79864890460787,0,0,0,0.6
-18.877099034004203,31,77.79843085989982,0,0,0,0.6
-17.700154112468397,31,83.79821717608594,0,0,0,0.6
-16.487883177972588,32,3.4042097922290253,0,0,0,0.6
-15.252909140951855,32,9.404004570294171,0,0,0,0.6
-14.006762929044886,32,15.403803452798016,0,0,0,0.6
-12.759906205721695,32,21.403606357651782,0,0,0,0.6
-11.521759836041923,32,27.403413204408473,0,0,0,0.6
-10.300737311382248,32,33.40322391423003,0,0,0,0.6
-9.104282386593653,32,39.40303840985516,0,0,0,0.6
-7.938910226108103,32,45.40285661556778,0,0,0,0.6
-6.810251399543049,32,51.40267845716615,0,0,0,0.6
-5.723098111924,32,57.40250386193255,0,0,0,0.6
-4.68145209837149,32,63.40233275860363,0,0,0,0.6
-3.6885736576284476,32,69.40216507734128,0,0,0,0.6
-2.7470313428227717,32,75.40200074970419,0,0,0,0.6
-1.858751871088934,32,81.40183970861983,0,0,0,0.6
-1.025069855866391,33,1.0078839146378442,0,0,0,0.6
-0.24677700663855573,33,7.007729250780428,0,0,0,0.6
0.4758295196082113,33,13.00757768020016,0,0,0,0.6
1.1428998929939982,33,19.007429141031498,0,0,0,0.6
1.7549857529891393,33,25.00728357264621,0,0,0,0.6
2.3129959254464136,33,31.007140915628625,0,0,0,0.6
2.8181538890510955,33,37.00700111175139,0,0,0,0.6
3.2719571352363768,33,43.006864103951706,0,0,0,0.6
3.6761385370075037,33,49.00672983630801,0,0,0,0.6
4.032629815508253,33,55.00659825401719,0,0,0,0.6
4.343527168548293,33,61.006469303372185,0,0,0,0.6
4.611059102674653,33,67.00634293174008,0,0,0,0.6
4.83755648968676,33,73.00621908754061,0,0,0,0.6
5.025424849722252,33,79.00609772022514,0,0,0,0.6
5.1771188461297415,33,85.00597878025599,0,0,0,0.6
5.295118962235519,34,4.612064245366895,0,0,0,0.6
5.381910316737048,34,10.611950015420511,0,0,0,0.6
5.439963562743792,34,16.611838070073055,0,0,0,0.6
5.471717805357134,34,22.61172836363255,0,0,0,0.6
5.479565464053408,34,28.611620851320854,0,0,0,0.6
5.465838998922147,34,34.61151548925539,0,0,0,0.6
5.432799413927888,34,40.611412234431235,0,0,0,0.6
5.382626445719713,34,46.61131104470356,0,0,0,0.6
5.317410343018966,34,52.61121187877045,0,0,0,0.6
5.2391451391834165,34,58.611114696155994,0,0,0,0.6
5.149723319087704,34,64.61101945719383,0,0,0,0.6
5.050931780888662,34,70.61092612301091,0,0,0,0.6
4.944448993475753,34,76.61083465551165,0,0,0,0.6
4.831843251359241,34,82.61074501736238,0,0,0,0.6
4.714571930342748,35,2.2168591982567705,0,0,0,0.6
4.573668969642074,35,8.216773109778202,0,0,0,0.6
4.4125542799144055,35,14.216688743069206,0,0,0,0.6
4.234457367400999,35,20.21660606369439,0,0,0,0.6
4.042412153511286,35,26.21652503790707,0,0,0,0.6
3.839253779283744,35,32.2164456326355,0,0,0,0.6
3.6276172202055643,35,38.216367815469354,0,0,0,0.6
3.4099375407472756,35,44.21629155464653,0,0,0,0.6
3.1884516227350144,35,50.21621681904017,0,0,0,0.6
2.9652012072170484,35,56.21614357814593,0,0,0,0.6
2.7420370956642364,35,62.21607180206958,0,0,0,0.6
2.5206243630650538,35,68.21600146151475,0,0,0,0.6
2.3024484426304466,35,74.21593252777102,0,0,0,0.6
2.0888219493150606,35,80.21586497270216,0,0,0,0.6
1.8808921170994883,35,86.21579876873469,0,0,0,0.6
1.6796487328803777,35,92.21573388884656,0,0,0,0.6
1.4859324578058528,35,98.21567030655619,0,0,0,0.6
1.3004434349039726,36,4.21560799591164,0,0,0,0.6
1.1237500898198365,36,10.215546931479974,0,0,0,0.6
0.9562980393469159,36,16.215487088336943,0,0,0,0.6
0.798419030161036,36,22.21542844205677,0,0,0,0.6
0.6503398376979189,36,28.215370968702203,0,0,0,0.6
0.5121910624198943,36,34.215314644814725,0,0,0,0.6
0.38401576776226265,36,40.215259447404996,0,0,0,0.6
0.26577791080802177,36,46.21520535394346,0,0,0,0.6
0.1573705231892038,36,52.21515234235116,0,0,0,0.6
0.05862360583642612,36,58.215100390990706,0,0,0,0.6
-0.0306882930178769,36,64.21504947865746,0,0,0,0.6
-0.1108388417421313,36,70.21499958457088,0,0,0,0.6
-0.1821430511936477,36,76.21495068836603,0,0,0,0.6
-0.24495077794869008,36,82.21490277008527,0,0,0,0.6
-0.2996406158656382,36,88.21485581017014,0,0,0,0.6
-0.3466141829607716,36,94.2148097894533,0,0,0,0.6
-0.38629080691347734,37,0.2147646891507975,0,0,0,0.6
-0.4191026091963517,37,6.21472049085435,0,0,0,0.6
-0.4454899848364927,37,12.214677176523832,0,0,0,0.6
-0.4658974721464715,37,18.214634728479922,0,0,0,0.6
-0.48077000440489925,37,24.214593129396892,0,0,0,0.6
-0.4905495334039367,37,30.21455236229552,0,0,0,0.6
-0.49567201300039404,37,36.21451241053618,0,0,0,0.6
-0.49656472929341394,37,42.214473257812024,0,0,0,0.6
-0.4936439627897586,37,48.21443488814235,0,0,0,0.6
-0.4873129668917403,37,54.21439728586607,0,0,0,0.6
-0.47796024623693184,37,60.214360435635314,0,0,0,0.6
-0.4659581178170089,37,66.21432432240917,0,0,0,0.6
-0.4516615373895143,37,72.21428893144756,0,0,0,0.6
-0.43540717345526797,37,78.21425424830517,0,0,0,0.6
-0.417512710990143,37,84.21422025882563,0,0,0,0.6
-0.3982763671779041,37,90.2141869491357,0,0,0,0.6
-0.3779766015761327,37,96.21415430563955,0,0,0,0.6
-0.35687200344581466,38,2.214122315013327,0,0,0,0.6
-0.33520133937338337,38,8.21409096419963,0,0,0,0.6
-0.3131837447989383,38,14.214060240402205,0,0,0,0.6
-0.2910190436236881,38,20.21403013108073,0,0,0,0.6
-0.2688881806917677,38,26.214000623945683,0,0,0,0.6
-0.24695375261550084,38,32.21397170695334,0,0,0,0.6
-0.22536062312869418,38,38.21394336830084,0,0,0,0.6
-0.20423660990012343,38,44.21391559642139,0,0,0,0.6
-0.18369323051020198,38,50.21388837997953,0,0,0,0.6
-0.16382649607979133,38,56.213861707866506,0,0,0,0.6
-0.14471774183382183,38,62.213835569195744,0,0,0,0.6
-0.12643448467710736,38,68.2138099532984,0,0,0,0.6
-0.109031298649402,38,74.21378484971899,0,0,0,0.6
-0.0925506999059415,38,80.21376024821117,0,0,0,0.6
-0.07702403363364094,38,86.21373613873352,0,0,0,0.6
-0.06247235605757965,38,92.21371251144542,0,0,0,0.6
-0.04890730541375809,38,98.21368935670309,0,0,0,0.6
-0.036331956459260566,39,4.213666665055598,0,0,0,0.6
-0.024741653757308277,39,10.213644427241054,0,0,0,0.6
-0.01412481961012179,39,16.2136226341828,0,0,0,0.6
-0.004463733115356808,39,22.213601276985713,0,0,0,0.6
0.004264722609130817,39,28.213580346932567,0,0,0,0.6
0.012088347453177288,39,34.21355983548048,0,0,0,0.6
0.01903894751685723,39,40.21353973425744,0,0,0,0.6
0.025151695946175414,39,46.213520035058856,0,0,0,0.6
0.03046453243230078,39,52.21350072984425,0,0,0,0.6
0.035017602011726774,39,58.21348181073393,0,0,0,0.6
0.03885273344624956,39,64.21346327000582,0,0,0,0.6
0.04201295713692065,39,70.21344510009227,0,0,0,0.6
0.04454206223421248,39,76.213427293577,0,0,0,0.6
0.046484192346442174,39,82.21340984319203,0,0,0,0.6
0.0478834790188094,39,88.21339274181476,0,0,0,0.6
0.048783711954890625,0,4.213375982465038,0,0,1,0.6
0.049228044779681165,0,10.213359558302306,0,0,1,0.6
0.049258734996806816,0,16.21334346262283,0,0,1,0.6
0.048916916670809864,0,22.213327688856943,0,0,1,0.6
0.04824240426688652,0,28.213312230566373,0,0,1,0.6
0.047273526003535245,0,34.21329708144162,0,0,1,0.6
0.04604698501668326,0,40.21328223529935,0,0,1,0.6
0.04459774659541646,0,46.21326768607993,0,0,1,0.6
0.04295894972788872,0,52.213253427844904,0,0,1,0.6
0.04116184118980309,0,58.21323945477457,0,0,1,0.6
0.039235730415549126,0,64.21322576116565,0,0,1,0.6
0.03720796341220237,0,70.2132123414289,0,0,1,0.6
0.03510391400775012,0,76.2131991900869,0,0,1,0.6
0.03294699076576444,0,82.21318630177173,0,0,1,0.6
0.030758657948023096,0,88.21317367122286,0,0,1,0.6
0.028558468963069128,0,94.21316129328497,0,0,1,0.6
0.02636411080125623,1,0.21314916290583596,0,0,1,0.6
0.024191458024373527,1,6.213137275134288,0,0,1,0.6
0.02205463494947445,1,12.213125625118172,0,0,1,0.6
0.01996608474111529,1,18.21311420810238,0,0,1,0.6
0.017936644202975062,1,24.2131030194269,0,0,1,0.6
0.01597562313798566,1,30.21309205452493,0,0,1,0.6
0.014090887224924228,1,36.213081308921005,0,0,1,0.6
0.012288943438250877,1,42.21307077822915,0,0,1,0.6
0.010575027116221825,1,48.21306045815114,0,0,1,0.6
0.008953189859442894,1,54.21305034447469,0,0,1,0.6
0.0074263875175831166,1,60.21304043307176,0,0,1,0.6
0.005996567595534842,1,66.21303071989689,0,0,1,0.6
0.004664755481532021,1,72.21302120098552,0,0,1,0.6
0.0034311389683222343,1,78.21301187245238,0,0,1,0.6
0.002295150604180376,1,84.2130027304899,0,0,1,0.6
0.0012555474731490766,1,90.21299377136667,0,0,1,0.6
0.0003104880632330448,1,96.2129849914259,0,0,1,0.6
-0.0005423940627580482,2,2.2129763870839554,0,0,1,0.6
-0.0013059200265130265,2,8.212967954828844,0,0,1,0.6
-0.001983299007458473,2,14.212959691218837,0,0,1,0.6
-0.002578065368239948,2,20.21295159288103,0,0,1,0.6
-0.0030940196287790314,2,26.212943656509978,0,0,1,0.6
-0.0035351733467424732,2,32.21293587886635,0,0,1,0.6
-0.0039056979271781507,2,38.21292825677559,0,0,1,0.6
-0.004209877352328404,2,44.21292078712665,0,0,1,0.6
-0.004452064794129052,2,50.21291346687069,0,0,1,0.6
-0.004636643046531485,2,56.21290629301984,0,0,1,0.6
-0.004767988692422919,2,62.21289926264601,0,0,1,0.6
-0.0048504399004329676,2,68.21289237287967,0,0,1,0.6
-0.004888267730161761,2,74.21288562090864,0,0,1,0.6
-0.0048856508101982644,2,80.21287900397704,0,0,1,0.6
-0.004846653241564652,2,86.21287251938406,0,0,1,0.6
-0.004775205569768383,2,92.21286616448295,0,0,1,0.6
-0.004675088661310927,2,98.21285993667986,0,0,1,0.6
-0.004549920315133799,3,4.212853833432831,0,0,1,0.6
-0.00440314443592249,3,10.212847852250743,0,0,1,0.6
-0.004238022594282904,3,16.212841990692297,0,0,1,0.6
-0.0040576277984019265,3,22.21283624636502,0,0,1,0.6
-0.0038648403027564593,3,28.212830616924286,0,0,1,0.6
-0.0036623452816009774,3,34.212825100072365,0,0,1,0.6
-0.003452632198204807,3,40.212819693557485,0,0,1,0.6
-0.003237995704995102,3,46.212814395172906,0,0,1,0.6
-0.003020537914764087,3,52.21280920275601,0,0,1,0.6
-0.002802171888800308,3,58.21280411418746,0,0,1,0.6
-0.0025846261940907092,3,64.21279912739028,0,0,1,0.6
-0.0023694503885076483,3,70.21279424032905,0,0,1,0.6
-0.0021580213000436475,3,76.21278945100903,0,0,1,0.6
-0.0019515499735950378,3,82.21278475747542,0,0,1,0.6
-0.0017510891664389082,3,88.21278015781247,0,0,1,0.6
-0.0015575412813181246,3,94.21277565014279,0,0,1,0.6
-0.0013716666338756353,4,0.2127712326264941,0,0,1,0.6
0.019144181487642808,4,6.212766903460532,0,0,1,0.6
0.0578031640901534,4,12.212762660877889,0,0,1,0.6
0.11250105212096596,4,18.2127585031469,0,0,1,0.6
0.18122374718590573,4,24.21275442857053,0,0,1,0.6
0.26205337421702846,4,30.212750435485688,0,0,1,0.6
0.35317304319989906,4,36.21274652226254,0,0,1,0.6
0.4528703773414552,4,42.21274268730386,0,0,1,0.6
0.5595399045730659,4,48.21273892904435,0,0,1,0.6
0.6716844081189184,4,54.21273524595003,0,0,1,0.6
0.7879153300938602,4,60.212731636517596,0,0,1,0.6
0.90695231980069,4,66.21272809927382,0,0,1,0.6
1.027622015644647,4,72.21272463277491,0,0,1,0.6
1.148856146438942,4,78.21272123560598,0,0,1,0.6
1.2696890344023615,4,84.21271790638043,0,0,1,0.6
1.3892545784071844,5,3.818916670020073,0,0,1,0.6
1.5067827920779473,5,9.818913472631854,0,0,1,0.6
1.6215959672201699,5,15.8189103391914,0,0,1,0.6
1.733104528820262,5,21.818907268419753,0,0,1,0.6
1.8408026435469382,5,27.81890425906354,0,0,1,0.6
1.9442636393401684,5,33.81890130989445,0,0,1,0.6
2.0431352893319428,5,39.818898419708745,0,0,1,0.6
2.137135009036213,5,45.81889558732675,0,0,1,0.6
2.226045011502125,5,51.8188928115924,0,0,1,0.6
2.3097074609705186,5,57.81889009137273,0,0,1,0.6
2.3880196615309086,5,63.818887425557456,0,0,1,0.6
2.4609293133639354,5,69.81888481305849,0,0,1,0.6
2.5284298653888877,5,75.8188822528095,0,0,1,0.6
2.5905559895309076,5,81.81887974376549,0,0,1,0.6
2.647379198388879,6,1.4250793111830404,0,0,1,0.6
2.6990036248313984,6,7.425076901497174,0,0,1,0.6
2.7455619789810344,6,13.425074540005024,0,0,1,0.6
2.787211695170644,6,19.425072225742717,0,0,1,0.6
2.8241312787723567,6,25.425069957765658,0,0,1,0.6
2.856516860310729,6,31.42506773514814,0,0,1,0.6
2.88457896197579,6,37.42506555698297,0,0,1,0.6
2.9085394795471404,6,43.42506342238111,0,0,1,0.6
2.9286288808235574,6,49.42506133047128,0,0,1,0.6
2.9450836199193273,6,55.42505928039965,0,0,1,0.6
2.95814376523341,6,61.42505727132945,0,0,1,0.6
2.968050837514383,6,67.42505530244065,0,0,1,0.6
2.975045853226092,6,73.42505337292964,0,0,1,0.6
2.9793675673587043,6,79.42505148200884,0,0,1,0.6
2.9812509089195363,6,85.42504962890646,0,0,1,0.6
2.9809256015695,7,5.03124983914681,0,0,1,0.6
2.978614961235839,7,11.03124805942728,0,0,1,0.6
2.974534862021426,7,17.03124631530214,0,0,1,0.6
2.9688928613366588,7,23.031244606059506,0,0,1,0.6
2.9618874748931985,7,29.031242931001724,0,0,1,0.6
2.9537075920109275,7,35.0312412894451,0,0,1,0.6
2.9445320215920003,7,41.03123968071961,0,0,1,0.6
2.934529159100482,7,47.03123810416862,0,0,1,0.6
2.923856764944669,7,53.03123655914866,0,0,1,0.6
2.9126618447839645,7,59.03123504502909,0,0,1,0.6
2.9010806224655554,7,65.03123356119193,0,0,1,0.6
2.88923859653089,7,71.0312321070315,0,0,1,0.6
2.8772506715111845,7,77.03123068195428,0,0,1,0.6
2.865221355548339,7,83.0312292853786,0,0,1,0.6
2.8532450162265772,8,2.637429943015121,0,0,1,0.6
2.821066978096639,8,8.637428601743842,0,0,1,0.6
2.77094874617374,8,14.637427287297989,0,0,1,0.6
2.705060226399655,8,20.63742599914105,0,0,1,0.6
2.6254726112606592,8,26.637424736747253,0,0,1,0.6
2.5341527171940834,8,32.63742349960133,0,0,1,0.6
2.4329586710741054,8,38.637422287198326,0,0,1,0.6
2.3236368432202275,8,44.63742109904338,0,0,1,0.6
2.207819925278636,8,50.63741993465153,0,0,1,0.6
2.0870260529050735,8,56.637418793547525,0,0,1,0.6
1.9626588753489715,8,62.637417675265596,0,0,1,0.6
1.8360084767268698,8,68.6374165793493,0,0,1,0.6
1.7082530569066663,8,74.63741550535134,0,0,1,0.6
1.5804612834350085,8,80.63741445283334,0,0,1,0.6
1.4535952297640837,9,4.170606264633619,0,0,1,0.6
1.3285138191111914,9,10.170605253795328,0,0,1,0.6
1.2059766975588952,9,16.170604263173804,0,0,1,0.6
1.08664846442347,9,22.17060329236471,0,0,1,0.6
0.9711031924370715,9,28.170602340971797,0,0,1,0.6
0.8598291748609108,9,34.17060140860674,0,0,1,0.6
0.7532338412330026,9,40.17060049488899,0,0,1,0.6
0.6516487880189417,9,46.17059959944559,0,0,1,0.6
0.555334874945538,9,52.170598721911055,0,0,1,0.6
0.4644873422265401,9,58.17059786192722,0,0,1,0.6
0.3792409082120574,9,64.17059701914306,0,0,1,0.6
0.2996748111869554,9,70.17059619321458,0,0,1,0.6
0.2258177630898488,9,76.17059538380467,0,0,1,0.6
0.15765278680775294,9,82.17059459058295,0,0,1,0.6
0.09512191240912553,9,88.17059381322568,0,0,1,0.6
0.038130711199722056,9,94.17059305141555,0,0,1,0.6
-0.01344735018642853,10,0.17059230484161958,0,0,1,0.6
-0.05976675032011514,10,6.170591573199169,0,0,1,0.6
-0.10100595986769209,10,12.170590856189566,0,0,1,0.6
-0.13736370385203145,10,18.170590153520155,0,0,1,0.6
-0.16905544577969825,10,24.170589464904133,0,0,1,0.6
-0.1963100978167685,10,30.17058879006043,0,0,1,0.6
-0.21936695908210424,10,36.170588128713604,0,0,1,0.6
-0.23847288220913768,10,42.17058748059371,0,0,1,0.6
-0.25387966660009803,10,48.17058684543622,0,0,1,0.6
-0.2658416752540286,10,54.170586222981875,0,0,1,0.6
-0.2746136706850037,10,60.170585612976616,0,0,1,0.6
-0.28044886425213855,10,66.17058501517147,0,0,1,0.6
-0.28359717219023606,10,72.17058442932242,0,0,1,0.6
-0.2843036707507785,10,78.17058385519034,0,0,1,0.6
-0.28280724212867064,10,84.17058329254093,0,0,1,0.6
-0.2793394022517102,10,90.17058274114449,0,0,1,0.6
-0.27412330103809146,10,96.17058220077598,0,0,1,0.6
-0.26737288537320836,11,2.1705816712148476,0,0,1,0.6
-0.2592922148115024,11,8.170581152244932,0,0,1,0.6
-0.25007491986308683,11,14.170580643654414,0,0,1,0.6
-0.23990379266952183,11,20.170580145235707,0,0,1,0.6
-0.2289504998997576,11,26.170579656785375,0,0,1,0.6
-0.2173754077975103,11,32.17057917810405,0,0,1,0.6
-0.20532750947707332,11,38.17057870899635,0,0,1,0.6
-0.19294444478800288,11,44.170578249270804,0,0,1,0.6
-0.18035260334280634,11,50.17057779873977,0,0,1,0.6
-0.16766730161862645,11,56.17057735721936,0,0,1,0.6
-0.1549930253972605,11,62.17057692452935,0,0,1,0.6
-0.14242372919138163,11,68.17057650049314,0,0,1,0.6
-0.1300431847126463,11,74.17057608493766,0,0,1,0.6
-0.11792537086398987,12,5.557750154935704,0,0,1,0.6
-0.1061348981787497,12,11.55774975583622,0,0,1,0.6
-0.09472746107864091,12,17.557749364718724,0,0,1,0.6
-0.08375031177676515,12,23.55774898142358,0,0,1,0.6
-0.07324275010687759,12,29.557748605794337,0,0,1,0.6
-0.06323662401256734,12,35.55774823767768,0,0,1,0.6
-0.05375683587669194,12,41.55774787692336,0,0,1,0.6
-0.044821850309570144,12,47.55774752338412,0,0,1,0.6
-0.036444199441646605,12,53.55774717691567,0,0,1,0.6
-0.02863098218048653,12,59.557746837376584,0,0,1,0.6
-0.021384354291240488,12,65.55774650462828,0,0,1,0.6
-0.014702006542629254,12,71.55774617853494,0,0,1,0.6
-0.008577628525802208,12,77.55774585896347,0,0,1,0.6
-0.0030013561001408055,12,83.55774554578343,0,0,1,0.6
0.0020397992525305565,12,89.557745238867,0,0,1,0.6
0.006561540576323363,12,95.55774493808889,0,0,1,0.6
0.010581896215881424,13,1.5577446433263447,0,0,1,0.6
0.014120852073763502,13,7.557744354459048,0,0,1,0.6
0.017200005960402963,13,13.557744071369097,0,0,1,0.6
0.01984224441976189,13,19.557743793940944,0,0,1,0.6
0.02207144220691771,13,25.557743522061354,0,0,1,0.6
0.02391218440630703,13,31.557743255619357,0,0,1,0.6
0.02538951101067413,13,37.5577429945062,0,0,1,0.6
0.02652868363031138,13,43.5577427386153,0,0,1,0.6
0.027354973869243134,13,49.557742487842226,0,0,1,0.6
0.02789347278883725,13,55.557742242084615,0,0,1,0.6
0.02816892077912447,13,61.557742001242154,0,0,1,0.6
0.028205557073019874,13,67.55774176521655,0,0,1,0.6
0.02802698806779963,13,73.55774153391145,0,0,1,0.6
0.027656073560696395,13,79.55774130723246,0,0,1,0.6
0.027114829960434576,13,85.55774108508705,0,0,1,0.6
0.026424349503024972,13,91.55774086738454,0,0,1,0.6
0.02560473447727445,13,97.55774065403608,0,0,1,0.6
0.024675045452347836,14,3.5577404449545895,0,0,1,0.6
-0.18880783972266219,14,9.557740240054729,0,0,1,0.6
-0.5919874813993755,14,15.557740039252867,0,0,1,0.6
-1.1628703582348994,14,21.55773984246704,0,0,1,0.6
-1.8804045267637701,14,27.55773964961693,0,0,1,0.6
-2.72454335317938,14,33.55773946062382,0,0,1,0.6
-3.676295332115548,14,39.557739275410576,0,0,1,0.6
-4.71776101008732,14,45.557739093901596,0,0,1,0.6
-5.8321580261992345,14,51.55773891602279,0,0,1,0.6
-7.0038352705889615,14,57.55773874170157,0,0,1,0.6
-8.218277142644393,14,63.55773857086677,0,0,1,0.6
-9.462098867080192,14,69.55773840344867,0,0,1,0.6
-10.723033797217232,15,4.871903533608574,0,0,1,0.6
-11.989913601970002,15,10.871903372820228,0,0,1,0.6
-13.252642196768733,15,16.87190321524765,0,0,1,0.6
-14.502164239540827,15,22.871903060826522,0,0,1,0.6
-15.730428971525765,15,28.87190290949382,0,0,1,0.6
-16.930350139633987,15,34.87190276118777,0,0,1,0.6
-18.095762692777626,15,40.87190261584784,0,0,1,0.6
-19.221376899553416,15,46.87190247341471,0,0,1,0.6
-20.30273048925988,15,52.871902333830235,0,0,1,0.6
-21.336139372857723,15,58.87190219703746,0,0,1,0.6
-22.318647455471897,15,64.87190206298054,0,0,1,0.6
-23.247976007687345,16,0.1860672258344067,0,0,1,0.6
-24.122473019474363,16,6.186067097086139,0,0,1,0.6
-24.941062918326107,16,12.186066970912837,0,0,1,0.6
-25.70319699230103,16,18.186066847263,0,0,1,0.6
-26.40880481930688,16,24.18606672608616,0,0,1,0.6
-27.05824696628248,16,30.186066607332858,0,0,1,0.6
-27.652269186043632,16,36.18606649095462,0,0,1,0.6
-28.191958305550386,16,42.18606637690395,0,0,1,0.6
-28.67869996729147,16,48.18606626513429,0,0,1,0.6
-29.114138355413868,16,54.18606615560003,0,0,1,0.6
-29.500138010176936,16,60.18606604825645,0,0,1,0.6
-29.838747808290307,16,66.18606594305975,0,0,1,0.6
-30.13216716269456,17,1.5002311341966248,0,0,1,0.6
-30.382714473342098,17,7.500231033165706,0,0,1,0.6
-30.592797840497294,17,13.500230934155406,0,0,1,0.6
-30.764888033954268,17,19.50023083712531,0,0,1,0.6
-30.90149369531136,17,25.500230742035818,0,0,1,0.6
-31.005138735979603,17,31.500230648848117,0,0,1,0.6
-31.07834188086671,17,37.50023055752417,0,0,1,0.6
-31.12359829659138,17,43.5002304680267,0,0,1,0.6
-31.143363233563324,17,49.50023038031918,0,0,1,0.6
-31.14003760322681,17,55.500230294365814,0,0,1,0.6
-31.11595540512203,17,61.50023021013151,0,0,1,0.6
-31.073372913079616,17,67.5002301275819,0,0,1,0.6
-31.014459525738445,18,2.814395340912924,0,0,1,0.6
-30.72882903382464,18,8.814395261632274,0,0,1,0.6
-30.24129537639378,18,14.814395183937236,0,0,1,0.6
-29.57570537232005,18,20.814395107796102,0,0,1,0.6
-28.754856581176206,18,26.81439503317779,0,0,1,0.6
-27.800431247469973,18,32.81439496005184,0,0,1,0.6
-26.732945215319504,18,38.814394888388414,0,0,1,0.6
-25.571710699663903,18,44.814394818158256,0,0,1,0.6
-24.334811807571263,18,50.8143947493327,0,0,1,0.6
-23.039091718224675,18,56.814394681883655,0,0,1,0.6
-21.700150451868517,18,62.81439461578359,0,0,1,0.6
-20.332352185551937,18,68.81439455100553,0,0,1,0.6
-18.948841106121737,18,74.81439448752303,0,0,1,0.6
-17.561564827842297,18,80.81439442531018,0,0,1,0.6
-16.181304442547674,18,86.8143943643416,0,0,1,0.6
-14.817710313696598,18,92.81439430459237,0,0,1,0.6
-13.479342771484587,18,98.81439424603813,0,0,1,0.6
-12.173716913694234,19,4.814394188654987,0,0,1,0.6
-10.88701115465666,19,10.814394132419498,0,0,1,0.6
-9.626983777229377,19,16.81439407730872,0,0,1,0.6
-8.400417148134915,19,22.814394023300153,0,0,1,0.6
-7.2131644418239915,19,28.81439397037176,0,0,1,0.6
-6.070198660894319,19,34.814393918501935,0,0,1,0.6
-4.975663355756347,19,40.81439386766951,0,0,1,0.6
-3.9329244932237684,19,46.81439381785373,0,0,1,0.6
-2.9446229701218964,19,52.81439376903426,0,0,1,0.6
-2.0127273135600667,19,58.81439372119119,0,0,1,0.6
-1.138586153949627,19,64.81439367430498,0,0,1,0.6
-0.32298009994533194,19,70.8143936283565,0,0,1,0.6
0.433827313944255,19,76.81439358332698,0,0,1,0.6
1.1320398964513236,19,82.81439353919805,0,0,1,0.6
1.7722805366596317,20,2.4205955222323894,0,0,1,0.6
2.3555446243016114,20,8.420595479850967,0,0,1,0.6
2.8831553342709064,20,14.420595438317171,0,0,1,0.6
3.356720924294947,20,20.420595397614054,0,0,1,0.6
3.7780941647190134,20,26.420595357725,0,0,1,0.6
4.149333991467255,20,32.42059531863372,0,0,1,0.6
4.47266944746576,20,38.42059528032427,0,0,1,0.6
4.750465954120789,20,44.42059524278101,0,0,1,0.6
4.9851939328105805,20,50.42059520598862,0,0,1,0.6
5.1793997767281725,20,56.42059516993207,0,0,1,0.6
5.335679155751314,20,62.42059513459665,0,0,1,0.6
5.456652621250238,20,68.42059509996794,0,0,1,0.6
5.544943463803452,20,74.42059506603181,0,0,1,0.6
5.603157764597866,20,80.4205950327744,0,0,1,0.6
5.633866570759338,21,0.02679702646281612,0,0,1,0.6
5.639590115905596,21,6.026796994522399,0,0,1,0.6
5.6227839997451765,21,12.02679696322079,0,0,1,0.6
5.585827234470763,21,18.026796932545214,0,0,1,0.6
5.531012060919549,21,24.02679690248315,0,0,1,0.6
5.460535433902719,21,30.026796873022327,0,0,1,0.6
5.3764920736471575,21,36.026796844150724,0,0,1,0.6
5.280868978852359,21,42.02679681585655,0,0,1,0.6
5.1755412963530905,21,48.02679678812826,0,0,1,0.6
5.062269442704759,21,54.02679676095453,0,0,1,0.6
4.942697374087327,21,60.02679673432428,0,0,1,0.6
4.818351902671644,21,66.02679670822664,0,0,1,0.6
4.690642959929198,21,72.02679668265095,0,0,1,0.6
4.560864710216132,21,78.02679665758677,0,0,1,0.6
4.4301974212522115,21,84.02679663302388,0,0,1,0.6
4.299710001776667,22,3.632998635232923,0,0,1,0.6
4.170363120630788,22,9.63299861164272,0,0,1,0.6
4.043012825731494,22,15.63299858852432,0,0,1,0.6
3.918414585804472,22,21.632998565868288,0,0,1,0.6
3.797227682287927,22,27.632998543665376,0,0,1,0.6
3.680019883450611,22,33.63299852190652,0,0,1,0.6
3.5672723374468136,22,39.63299850058284,0,0,1,0.6
3.459384625716708,22,45.63299847968564,0,0,1,0.6
3.356679922797014,22,51.632998459206384,0,0,1,0.6
3.2594102132023695,22,57.63299843913671,0,0,1,0.6
3.1677615205437224,22,63.632998419468436,0,0,1,0.6
3.0818591084416638,22,69.63299840019351,0,0,1,0.6
3.0017726170483496,22,75.6329983813041,0,0,1,0.6
2.9275211030932424,22,81.63299836279248,0,0,1,0.6
2.859077955299947,23,1.2392003709317692,0,0,1,0.6
2.7760360376860658,23,7.239200353153202,0,0,1,0.6
2.6804780416126195,23,13.239200335730207,0,0,1,0.6
2.574372259892801,23,19.23920031865567,0,0,1,0.6
2.4595692644507134,23,25.239200301922622,0,0,1,0.6
2.337799799120899,23,31.239200285524237,0,0,1,0.6
2.21067378187858,23,37.23920026945382,0,0,1,0.6
2.0796803130408112,23,43.23920025370481,0,0,1,0.6
1.9461885887799544,23,49.23920023827078,0,0,1,0.6
1.8114496225668806,23,55.23920022314544,0,0,1,0.6
1.676598680840111,23,61.2392002083226,0,0,1,0.6
1.5426583432107825,23,67.23920019379622,0,0,1,0.6
1.4105421017983175,23,73.23920017956037,0,0,1,0.6
1.281058418788712,23,79.23920016560923,0,0,1,0.6
1.154915165961492,24,2.7723929952050383,0,0,1,0.6
1.0327243746920205,24,8.772392981806366,0,0,1,0.6
0.9150072297566023,24,14.772392968675668,0,0,1,0.6
0.8021992451065698,24,20.772392955807582,0,0,1,0.6
0.6946555645961447,24,26.77239294319686,0,0,1,0.6
0.5926563354132413,24,32.77239293083835,0,0,1,0.6
0.49641210664218427,24,38.772392918727014,0,0,1,0.6
0.4060692099559319,24,44.7723929068579,0,0,1,0.6
0.3217150838696598,24,50.772392895226176,0,0,1,0.6
0.2433835072676701,24,56.77239288382708,0,0,1,0.6
0.1710597120248398,24,62.77239287265597,0,0,1,0.6
0.10468534846849488,24,68.77239286170828,0,0,1,0.6
0.04416328115570332,25,0.15956732822195363,0,0,1,0.6
-0.01063780403388459,25,6.159567317707792,0,0,1,0.6
-0.05987899717439938,25,12.159567307403913,0,0,1,0.6
-0.10374697852282593,25,18.15956729730611,0,0,1,0.6
-0.14245005939879815,25,24.159567287410265,0,0,1,0.6
-0.17621445674344424,25,30.159567277712338,0,0,1,0.6
-0.20528080593018602,25,36.15956726820837,0,0,1,0.6
-0.22990091415621597,25,42.159567258894484,0,0,1,0.6
-0.2503347547061479,25,48.15956724976687,0,0,1,0.6
-0.2668477005436467,25,54.159567240821815,0,0,1,0.6
-0.279707994046302,25,60.15956723205566,0,0,1,0.6
-0.28918444824640943,25,66.15956722346482,0,0,1,0.6
-0.2955443736677635,25,72.1595672150458,0,0,1,0.6
-0.29905172374758415,25,78.15956720679516,0,0,1,0.6
-0.2999654508944001,25,84.15956719870954,0,0,1,0.6
-0.2985380644478582,25,90.15956719078562,0,0,1,0.6
-0.29501438116556855,25,96.15956718302019,0,0,1,0.6
-0.2896304583556297,26,2.1595671754100607,0,0,1,0.6
-0.2622730730756529,26,8.159567167952137,0,0,1,0.6
-0.2153447519152388,26,14.159567160643372,0,0,1,0.6
-0.1511545508248977,26,20.159567153480783,0,0,1,0.6
-0.0719100842603421,26,26.159567146461445,0,0,1,0.6
0.0202888877764415,26,32.15956713958249,0,0,1,0.6
0.12345542249182752,26,38.15956713284112,0,0,1,0.6
0.2357190146506626,26,44.15956712623457,0,0,1,0.6
0.3553279816096792,26,50.159567119760155,0,0,1,0.6
0.48065071867813064,26,56.15956711341523,0,0,1,0.6
0.6101759283577209,26,62.1595671071972,0,0,1,0.6
0.7425119243545997,26,68.15956710110353,0,0,1,0.6
0.876385108106126,26,74.15956709513173,0,0,1,0.6
1.0106377119969732,26,80.15956708927938,0,0,1,0.6
1.1442248995215196,26,86.15956708354406,0,0,1,0.6
1.2762113084466786,27,5.765769104204139,0,0,1,0.6
1.4057671186014034,27,11.765769098695948,0,0,1,0.6
1.5321637213217751,27,17.76576909329792,0,0,1,0.6
1.6547690628652818,27,23.76576908800785,0,0,1,0.6
1.7730427293217577,27,29.765769082823585,0,0,1,0.6
1.8865308357344877,27,35.765769077743,0,0,1,0.6
1.9948607773420504,27,41.76576907276403,0,0,1,0.6
2.097735896094513,27,47.76576906788464,0,0,1,0.6
2.1949301109176695,27,53.76576906310284,0,0,1,0.6
2.2862825556235404,27,59.76576905841667,0,0,1,0.6
2.371692263918172,27,65.76576905382423,0,0,1,0.6
2.4511129366594537,27,71.76576904932364,0,0,1,0.6
2.5245478223855127,27,77.76576904491306,0,0,1,0.6
2.592044738182669,27,83.76576904059068,0,0,1,0.6
2.653691254202481,28,3.3719710626354384,0,0,1,0.6
2.6892704342278444,28,9.371971058484235,0,0,1,0.6
2.701122168007917,28,15.371971054416054,0,0,1,0.6
2.691530312163659,28,21.371971050429238,0,0,1,0.6
2.6627111645760126,28,27.371971046522155,0,0,1,0.6
2.616803598025815,28,33.37197104269322,0,0,1,0.6
2.5558607611579682,28,39.371971038940856,0,0,1,0.6
2.481843252280209,28,45.37197103526354,0,0,1,0.6
2.3966136699095326,28,51.371971031659776,0,0,1,0.6
2.301932443262398,28,57.37197102812809,0,0,1,0.6
2.1994548459656715,29,1.3719710246670331,0,0,1,0.6
1.8782679185970104,29,7.371971021275198,0,0,1,0.6
1.3626514960916523,29,13.3719710179512,0,0,1,0.6
0.6759156511046004,29,19.37197101469368,0,0,1,0.6
-0.1596771553061347,29,25.371971011501312,0,0,1,0.6
-1.1229742809776528,29,31.371971008372793,0,0,1,0.6
-2.1939805655687694,29,37.37197100530684,0,0,1,0.6
-3.353892546080311,29,43.37197100230221,0,0,1,0.6
-4.585120313093324,29,49.37197099935767,0,0,1,0.6
-5.871298079731627,29,55.37197099647202,0,0,1,0.6
-7.197284512809045,29,61.371970993644084,0,0,1,0.6
-8.54915384745925,29,67.37197099087271,0,0,1,0.6
-9.914178773540232,30,2.686136282386414,0,0,1,0.6
-11.280806044987905,30,8.686136279724785,0,0,1,0.6
-12.638625722753757,30,14.686136277116388,0,0,1,0.6
-13.97833491864614,30,20.68613627456016,0,0,1,0.6
-15.291696861906015,30,26.686136272055055,0,0,1,0.6
-16.571496063244357,30,32.686136269600055,0,0,1,0.6
-17.811490302864833,30,38.68613626719415,0,0,1,0.6
-19.00636012016299,30,44.686136264836364,0,0,1,0.6
-20.151656433761623,30,50.686136262525736,0,0,1,0.6
-21.243746871698367,30,56.68613626026132,0,0,1,0.6
-22.279761343273947,30,62.6861362580422,0,0,1,0.6
-23.25753733660613,30,68.68613625586745,0,0,1,0.6
-24.175565379587145,31,4.0003015479658615,0,0,1,0.6
-24.80013424999063,31,10.000301545877235,0,0,1,0.6
-25.15590559853358,31,16.000301543830382,0,0,1,0.6
-25.267090892274773,31,22.000301541824467,0,0,1,0.6
-25.157314846977762,31,28.00030153985867,0,0,1,0.6
-24.84949691687225,31,34.00030153793219,0,0,1,0.6
-24.365749924900843,31,40.00030153604423,0,0,1,0.6
-23.727294879675753,31,46.000301534194044,0,0,1,0.6
-22.954390999347325,31,52.00030153238086,0,0,1,0.6
-22.066279946514157,31,58.000301530603934,0,0,1,0.6
-21.081143271308836,31,64.00030152886255,0,0,1,0.6
-20.016072061018587,31,70.000301527156,0,0,1,0.6
-18.887047803215204,31,76.00030152548356,0,0,1,0.6
-17.708933484569844,31,82.00030152384458,0,0,1,0.6
-16.495473968543077,32,1.606503548519072,0,0,1,0.6
-15.259304721230029,32,7.606503546944998,0,0,1,0.6
-14.011967985101224,32,13.606503545402404,0,0,1,0.6
-12.763935534546542,32,19.606503543890664,0,0,1,0.6
-11.524637184375367,32,25.606503542409158,0,0,1,0.6
-10.302494262163579,32,31.60650354095728,0,0,1,0.6
-9.104957297020094,32,37.606503539534444,0,0,1,0.6
-7.938547220465245,32,43.60650353814006,0,0,1,0.6
-6.808899419203243,32,49.606503536773566,0,0,1,0.6
-5.720810024203507,32,55.6065035354344,0,0,1,0.6
-4.678283865291869,32,61.60650353412202,0,0,1,0.6
-3.684583565041239,32,67.60650353283589,0,0,1,0.6
-2.742279289827593,32,73.60650353157547,0,0,1,0.6
-1.8532987192018404,32,79.60650353034026,0,0,1,0.6
-1.0189768369756926,32,85.60650352912977,0,0,1,0.6
-0.24010518841698691,33,5.212705554224158,0,0,1,0.6
0.4830197124854435,33,11.212705553061594,0,0,1,0.6
1.1505491037487947,33,17.212705551922284,0,0,1,0.6
1.763036065910569,33,23.212705550805758,0,0,1,0.6
2.3213911896725232,33,29.212705549711565,0,0,1,0.6
2.82683999545399,33,35.212705548639256,0,0,1,0.6
3.280882249016984,33,41.21270554758839,0,0,1,0.6
3.68525328868873,33,47.212705546558546,0,0,1,0.6
4.041887453067697,33,53.2127055455493,0,0,1,0.6
4.3528836734569945,33,59.21270554456023,0,0,1,0.6
4.620473272609144,33,65.21270554359094,0,0,1,0.6
4.8469899906605045,33,71.21270554264105,0,0,1,0.6
5.034842240341874,33,77.21270554171015,0,0,1,0.6
5.1864875766235725,33,83.21270554079787,0,0,1,0.6
5.304409350829222,34,2.818907566184521,0,0,1,0.6
5.391095505865497,34,8.818907565308365,0,0,1,0.6
5.449019457492024,34,14.81890756444973,0,0,1,0.6
5.480622996417898,34,20.81890756360827,0,0,1,0.6
5.488301137376425,34,26.81890756278364,0,0,1,0.6
5.474388834112206,34,32.8189075619755,0,0,1,0.6
5.441149473326931,34,38.81890756118352,0,0,1,0.6
5.390765055983409,34,44.81890756040738,0,0,1,0.6
5.3253279708722445,34,50.81890755964677,0,0,1,0.6
5.24683426291313,34,56.818907558901365,0,0,1,0.6
5.157178297205046,34,62.81890755817087,0,0,1,0.6
5.058148719270095,34,68.81890755745499,0,0,1,0.6
4.951425612169775,34,74.81890755675343,0,0,1,0.6
4.838578752128082,34,80.8189075560659,0,0,1,0.6
4.7210668658935875,35,0.42510958167279966,0,0,1,0.6
4.579898166792317,35,6.4251095810124905,0,0,1,0.6
4.418497101354011,35,12.425109580365387,0,0,1,0.6
4.240097414202955,35,18.425109579731227,0,0,1,0.6
4.0477369651638435,35,24.42510957910975,0,0,1,0.6
3.844254533793059,35,30.425109578500702,0,0,1,0.6
3.6322884365588313,35,36.42510957790383,0,0,1,0.6
3.4142767857765453,35,42.4251095773189,0,0,1,0.6
3.1924592241816603,35,48.42510957674567,0,0,1,0.6
2.9688799745671886,35,54.4251095761839,0,0,1,0.6
2.745392050106995,35,60.42510957563337,0,0,1,0.6
2.5236624777189074,35,66.42510957509386,0,0,1,0.6
2.305178393988439,35,72.42510957456513,0,0,1,0.6
2.0912538806776277,35,78.42510957404697,0,0,1,0.6
1.8830374145941697,35,84.42510957353917,0,0,1,0.6
1.6815198145107966,35,90.42510957304154,0,0,1,0.6
1.4875425758279757,35,96.42510957255385,0,0,1,0.6
1.301806491695634,36,2.4251095720759253,0,0,1,0.6
1.124880467289587,36,8.425109571607553,0,0,1,0.6
0.9572104418201312,36,14.42510957114855,0,0,1,0.6
0.7991283405845192,36,20.425109570698726,0,0,1,0.6
0.6508609869185338,36,26.4251095702579,0,0,1,0.6
0.5125389112176166,36,32.425109569825885,0,0,1,0.6
0.3842050012529358,36,38.425109569402515,0,0,1,0.6
0.2658229447755293,36,44.42510956898761,0,0,1,0.6
0.1572854218601849,36,50.425109568581,0,0,1,0.6
0.058422010572503486,36,56.42510956818253,0,0,1,0.6
-0.030993224665674474,36,62.42510956779202,0,0,1,0.6
-0.1112344871950572,36,68.42510956740932,0,0,1,0.6
-0.18261736481759194,36,74.42510956703428,0,0,1,0.6
-0.2454923244418269,36,80.42510956666675,0,0,1,0.6
-0.3002385956704374,36,86.42510956630656,0,0,1,0.6
-0.34725845030879376,36,92.42510956595358,0,0,1,0.6
-0.38697188110615177,36,98.42510956560766,0,0,1,0.6
-0.41981167971564515,37,4.425109565268656,0,0,1,0.6
-0.4462189108664998,37,10.425109564936431,0,0,1,0.6
-0.4666387770709555,37,16.42510956461085,0,0,1,0.6
-0.4815168658271234,37,22.42510956429178,0,0,1,0.6
-0.4912957692141631,37,28.425109563979092,0,0,1,0.6
-0.4964120639935847,37,34.425109563672656,0,0,1,0.6
-0.49729363881530236,37,40.42510956337235,0,0,1,0.6
-0.49435735386392016,37,46.42510956307805,0,0,1,0.6
-0.4880070172538786,37,52.425109562789636,0,0,1,0.6
-0.4786316616756131,37,58.42510956250699,0,0,1,0.6
-0.46660410419277615,37,64.42510956222999,0,0,1,0.6
-0.4522797716769386,37,70.42510956195854,0,0,1,0.6
-0.43599577412526125,37,76.42510956169251,0,0,1,0.6
-0.41807020802295713,37,82.42510956143181,0,0,1,0.6
-0.39880167197084754,37,88.42510956117633,0,0,1,0.6
-0.3784689769842949,37,94.42510956092595,0,0,1,0.6
-0.35733103416913375,38,0.4251095606805677,0,0,1,0.6
-0.33562690287932984,38,6.425109560440103,0,0,1,0.6
-0.3135759829470122,38,12.425109560204447,0,0,1,0.6
-0.29137833513591616,38,18.425109559973507,0,0,1,0.6
-0.2692151145924944,38,24.425109559747185,0,0,1,0.6
-0.24724910274404732,38,30.42510955952539,0,0,1,0.6
-0.2256253238099331,38,36.42510955930803,0,0,1,0.6
-0.20447173284071712,38,42.42510955909501,0,0,1,0.6
-0.18389996297217182,38,48.42510955888626,0,0,1,0.6
-0.16400612036823772,38,54.42510955868168,0,0,1,0.6
-0.1448716161219772,38,60.425109558481196,0,0,1,0.6
-0.1265640251794642,38,66.42510955828472,0,0,1,0.6
-0.10913796314238759,38,72.42510955809217,0,0,1,0.6
-0.09263597258547701,38,78.42510955790348,0,0,1,0.6
-0.07708941128988826,38,84.42510955771856,0,0,1,0.6
-0.06251933553920205,38,90.42510955753733,0,0,1,0.6
-0.04893737234705461,38,96.42510955735973,0,0,1,0.6
-0.03634657518152986,39,2.425109557185692,0,0,1,0.6
-0.02474225841870402,39,8.425109557015126,0,0,1,0.6
-0.01411280639402576,39,14.425109556847971,0,0,1,0.6
-0.004440453523863084,39,20.42510955668416,0,0,1,0.6
0.004297967460711389,39,26.425109556523623,0,0,1,0.6
0.012130311590873941,39,32.425109556366294,0,0,1,0.6
0.01908844397109107,39,38.425109556212114,0,0,1,0.6
0.02520759978350698,39,44.42510955606102,0,0,1,0.6
0.030525783016309756,39,50.42510955591295,0,0,1,0.6
0.035083204553215584,39,56.42510955576783,0,0,1,0.6
0.03892175990228808,39,62.425109555625625,0,0,1,0.6
0.04208454651719308,39,68.42510955548626,0,0,1,0.6
0.044615420371735964,39,74.42510955534968,0,0,1,0.6
0.04655859118804416,39,80.42510955521583,0,0,1,0.6
0.04795825548881899,39,86.42510955508466,0,0,1,0.6
0.04885826644335806,0,2.4251095549561086,0,0,2,0.6
0.04930183930412589,0,8.425109554830133,0,0,2,0.6
0.04933129108404376,0,14.425109554706678,0,0,2,0.6
0.04898781300284712,0,20.425109554585692,0,0,2,0.6
0.04831127413225621,0,26.425109554467127,0,0,2,0.6
0.04734005459273962,0,32.42510955435093,0,0,2,0.6
0.04611090659773602,0,38.42510955423706,0,0,2,0.6
0.04465884160275632,0,44.42510955412547,0,0,2,0.6
0.04301704179526015,0,50.42510955401611,0,0,2,0.6
0.041216794155055025,0,56.42510955390894,0,0,2,0.6
0.03928744532271302,0,62.42510955380391,0,0,2,0.6
0.03725637553369003,0,68.42510955370098,0,0,2,0.6
0.03514898990707146,0,74.42510955360011,0,0,2,0.6
0.03298872541881614,0,80.42510955350126,0,0,2,0.6
0.030797071938749303,0,86.42510955340438,0,0,2,0.6
0.028593605767152263,0,92.42510955330944,0,0,2,0.6
0.026396034169464677,0,98.4251095532164,0,0,2,0.6
0.024220249475277934,1,4.425109553125225,0,0,2,0.6
0.022080391379448044,1,10.425109553035867,0,0,2,0.6
0.019988916157857747,1,16.425109552948296,0,0,2,0.6
0.017956671587244736,1,22.425109552862477,0,0,2,0.6
0.015992976436790617,1,28.425109552778373,0,0,2,0.6
0.01410570347810766,1,34.42510955269595,0,0,2,0.6
0.012301365039208645,1,40.425109552615176,0,0,2,0.6
0.010585200206406709,1,46.42510955253602,0,0,2,0.6
0.008961262855337963,1,52.425109552458444,0,0,2,0.6
0.007432509767961926,1,58.42510955238242,0,0,2,0.6
0.0060008881660644844,1,64.42510955230792,0,0,2,0.6
0.004667422063111862,1,70.4251095522349,0,0,2,0.6
0.0034322969049815893,1,76.42510955216335,0,0,2,0.6
0.0022949420358772885,1,82.42510955209323,0,0,2,0.6
0.0012541105884145394,1,88.42510955202451,0,0,2,0.6
0.00030795645628506395,1,94.42510955195716,0,0,2,0.6
-0.0005458919360535761,2,0.4251095518911683,0,0,2,0.6
-0.0013102612996379953,2,6.42510955182649,0,0,2,0.6
-0.001988366767116794,2,12.425109551763105,0,0,2,0.6
-0.002583748937094494,2,18.425109551700988,0,0,2,0.6
-0.003100214773046416,2,24.425109551640112,0,0,2,0.6
-0.0035417824146055338,2,30.425109551580455,0,0,2,0.6
-0.003912629923899462,2,36.42510955152199,0,0,2,0.6
-0.004217047957835038,2,42.4251095514647,0,0,2,0.6
-0.004459396328693595,2,48.42510955140855,0,0,2,0.6
-0.004644064390001408,2,54.42510955135353,0,0,2,0.6
-0.004775435162253748,2,60.425109551299606,0,0,2,0.6
-0.004857853093564273,2,66.42510955124676,0,0,2,0.6
-0.004895595333542334,2,72.42510955119498,0,0,2,0.6
-0.004892846384521339,2,78.42510955114422,0,0,2,0.6
-0.004853675982518844,2,84.42510955109448,0,0,2,0.6
-0.004782020050848009,2,90.42510955104574,0,0,2,0.6
-0.004681664561963188,2,96.42510955099797,0,0,2,0.6
-0.004556232137752405,3,2.425109550951163,0,0,2,0.6
-0.004409171214929824,3,8.425109550905285,0,0,2,0.6
-0.00424374760027778,3,14.425109550860324,0,0,2,0.6
-0.004063038240089096,3,20.425109550816263,0,0,2,0.6
-0.003869927029118836,3,26.425109550773083,0,0,2,0.6
-0.0036671024865274193,3,32.42510955073077,0,0,2,0.6
-0.0034570571295463827,3,38.4251095506893,0,0,2,0.6
-0.003242088379792031,3,44.425109550648656,0,0,2,0.6
-0.003024300842164839,3,50.42510955060883,0,0,2,0.6
-0.0028056098019842803,3,56.4251095505698,0,0,2,0.6
-0.0025877457923070323,3,62.42510955053155,0,0,2,0.6
-0.00237226009015533,3,68.42510955049407,0,0,2,0.6
-0.0021605310075427445,3,74.42510955045734,0,0,2,0.6
-0.001953770850634946,3,80.42510955042134,0,0,2,0.6
-0.001753033428038253,3,86.42510955038605,0,0,2,0.6
-0.0015592219969910199,3,92.42510955035148,0,0,2,0.6
-0.0013730975440711447,3,98.4251095503176,0,0,2,0.6
-0.0011952873048627817,4,4.42510955028439,0,0,2,0.6
0.01931333520577743,4,10.425109550251847,0,0,2,0.6
0.057965874092081156,4,16.425109550219954,0,0,2,0.6
0.11265804367503601,4,22.4251095501887,0,0,2,0.6
0.18137568961330247,4,28.425109550158073,0,0,2,0.6
0.2622008819270067,4,34.425109550128056,0,0,2,0.6
0.3533166770364431,4,40.42510955009864,0,0,2,0.6
0.45301064619890496,4,46.42510955006981,0,0,2,0.6
0.559677267240555,4,52.42510955004156,0,0,2,0.6
0.6718192753158424,4,58.42510955001387,0,0,2,0.6
0.7880480666610155,4,64.42510954998674,0,0,2,0.6
0.9070832470141701,4,70.42510954996015,0,0,2,0.6
1.0277514136220294,4,76.42510954993409,0,0,2,0.6
1.1489842566097304,4,82.42510954990856,0,0,2,0.6
1.2698160620170442,5,2.0313115761642138,0,0,2,0.6
1.3893806950616148,5,8.03131157613969,0,0,2,0.6
1.5069081382320384,5,14.031311576115655,0,0,2,0.6
1.6217206546921048,5,20.0313115760921,0,0,2,0.6
1.733228643239549,5,26.031311576069015,0,0,2,0.6
1.840926246751674,5,32.03131157604639,0,0,2,0.6
1.9443867717058148,5,38.03131157602422,0,0,2,0.6
2.043257972020754,5,44.031311576002494,0,0,2,0.6
2.1372572461581876,5,50.0313115759812,0,0,2,0.6
2.2261667921799697,5,56.03131157596033,0,0,2,0.6
2.309828761302634,5,62.03131157593988,0,0,2,0.6
2.388140446447801,5,68.03131157591984,0,0,2,0.6
2.461049538374758,5,74.0313115759002,0,0,2,0.6
2.528549478215998,5,80.03131157588096,0,0,2,0.6
2.590674931631403,5,86.0313115758621,0,0,2,0.6
2.64749740636306,6,5.637513602124301,0,0,2,0.6
2.699121031718972,6,11.637513602106186,0,0,2,0.6
2.7456785154466576,6,17.637513602088433,0,0,2,0.6
2.787327290581093,6,23.637513602071035,0,0,2,0.6
2.824245862168203,6,29.637513602053986,0,0,2,0.6
2.8566303612759234,6,35.637513602037274,0,0,2,0.6
2.88469131140899,6,41.637513602020896,0,0,2,0.6
2.908650610338971,6,47.637513602004844,0,0,2,0.6
2.928738728444301,6,53.63751360198912,0,0,2,0.6
2.945192122921752,6,59.63751360197371,0,0,2,0.6
2.958250865675627,6,65.6375136019586,0,0,2,0.6
2.9681564813077226,6,71.6375136019438,0,0,2,0.6
2.975149990413068,6,77.63751360192929,0,0,2,0.6
2.9794701523261384,6,83.63751360191507,0,0,2,0.6
2.981351900551901,7,3.243715628181832,0,0,2,0.6
2.9810249633474797,7,9.243715628168179,0,0,2,0.6
2.97871266128501,7,15.2437156281548,0,0,2,0.6
2.9746308731158484,7,21.243715628141686,0,0,2,0.6
2.9689871608620138,7,27.243715628128836,0,0,2,0.6
2.961980044773956,7,33.24371562811624,0,0,2,0.6
2.953798418605836,7,39.2437156281039,0,0,2,0.6
2.944621095561997,7,45.243715628091806,0,0,2,0.6
2.9346164752529145,7,51.243715628079954,0,0,2,0.6
2.923942322057504,7,57.24371562806834,0,0,2,0.6
2.9127456454134357,7,63.243715628056954,0,0,2,0.6
2.901162672740476,7,69.24371562804579,0,0,2,0.6
2.8893189059366304,7,75.24371562803486,0,0,2,0.6
2.877329252666083,7,81.24371562802415,0,0,2,0.6
2.8652982239751004,8,0.8499176542943303,0,0,2,0.6
2.8329805614734402,8,6.849917654284039,0,0,2,0.6
2.7826473110109315,8,12.849917654273954,0,0,2,0.6
2.716477530762127,8,18.84991765426407,0,0,2,0.6
2.6365511470575203,8,24.849917654254384,0,0,2,0.6
2.544843268120475,8,30.84991765424489,0,0,2,0.6
2.4432198525662607,8,36.84991765423559,0,0,2,0.6
2.333434629673249,8,42.84991765422647,0,0,2,0.6
2.217127169347016,8,48.84991765421754,0,0,2,0.6
2.0958220012833286,8,54.84991765420879,0,0,2,0.6
1.9709286850164078,8,60.849917654200205,0,0,2,0.6
1.8437427352385771,8,66.8499176541918,0,0,2,0.6
1.7154473099242595,8,72.84991765418356,0,0,2,0.6
1.5871155723169594,8,78.84991765417548,0,0,2,0.6
1.459713641678028,9,2.3831104974354957,0,0,2,0.6
1.3341040517904192,9,8.38311049742774,0,0,2,0.6
1.2110496405031559,9,14.38311049742014,0,0,2,0.6
1.0912177980408568,9,20.38311049741269,0,0,2,0.6
0.9751850063394913,9,26.38311049740539,0,0,2,0.6
0.8634416062607252,9,32.383110497398235,0,0,2,0.6
0.7563967341428879,9,38.38311049739122,0,0,2,0.6
0.6543833737307693,9,44.38311049738435,0,0,2,0.6
0.5576634740568873,9,50.383110497377615,0,0,2,0.6
0.46643308829497165,9,56.383110497371014,0,0,2,0.6
0.3808274929470391,9,62.38311049736455,0,0,2,0.6
0.3009262509368001,9,68.38311049735822,0,0,2,0.6
0.22675818624556135,9,74.383110497352,0,0,2,0.6
0.15830624162660653,9,80.38311049734592,0,0,2,0.6
0.09551219465734885,9,86.38311049733996,0,0,2,0.6
0.03828121092508754,9,92.38311049733412,0,0,2,0.6
-0.013513783515885523,9,98.38311049732839,0,0,2,0.6
-0.060027925136392234,10,4.383110497322775,0,0,2,0.6
-0.10144044315632575,10,10.383110497317276,0,0,2,0.6
-0.13795090605059418,10,16.383110497311886,0,0,2,0.6
-0.16977569086005723,10,22.383110497306603,0,0,2,0.6
-0.19714467950712466,10,28.383110497301427,0,0,2,0.6
-0.2202981841931832,10,34.38311049729636,0,0,2,0.6
-0.2394841020291884,10,40.38311049729138,0,0,2,0.6
-0.2549552973163757,10,46.38311049728651,0,0,2,0.6
-0.26696720834497295,10,52.383110497281734,0,0,2,0.6
-0.27577567420812477,10,58.38311049727706,0,0,2,0.6
-0.2816349759284021,10,64.38311049727247,0,0,2,0.6
-0.2847960851571903,10,70.38311049726798,0,0,2,0.6
-0.28550511282442237,10,76.38311049726357,0,0,2,0.6
-0.2840019493787496,10,82.38311049725925,0,0,2,0.6
-0.28051908765730504,10,88.38311049725502,0,0,2,0.6
-0.27528061895057665,10,94.38311049725087,0,0,2,0.6
-0.2685013924723932,11,0.383110497246804,0,0,2,0.6
-0.2603863281984865,11,6.383110497242821,0,0,2,0.6
-0.2511298728904831,11,12.383110497238919,0,0,2,0.6
-0.24091558906660265,11,18.383110497235094,0,0,2,0.6
-0.2299158667071119,11,24.383110497231346,0,0,2,0.6
-0.21829174758326794,11,30.383110497227673,0,0,2,0.6
-0.20619285226493486,11,36.383110497224074,0,0,2,0.6
-0.193757400086449,11,42.38311049722054,0,0,2,0.6
-0.18111231262516422,11,48.38311049721708,0,0,2,0.6
-0.16837339156531997,11,54.38311049721369,0,0,2,0.6
-0.15564556217472095,11,60.383110497210374,0,0,2,0.6
-0.1430231740068721,11,66.38311049720713,0,0,2,0.6
-0.13059035085075715,11,72.38311049720394,0,0,2,0.6
-0.11842138237887355,12,3.7702849744432285,0,0,2,0.6
-0.10658115038633721,12,9.770284974440166,0,0,2,0.6
-0.09512558296515738,12,15.770284974437164,0,0,2,0.6
-0.08410213041385722,12,21.770284974434222,0,0,2,0.6
-0.07355025713958345,12,27.77028497443134,0,0,2,0.6
-0.06350194426419045,12,33.77028497442851,0,0,2,0.6
-0.053982198094355546,12,39.77028497442574,0,0,2,0.6
-0.04500956005579665,12,45.77028497442303,0,0,2,0.6
-0.036596614120675316,12,51.77028497442037,0,0,2,0.6
-0.028750488173161177,12,57.77028497441776,0,0,2,0.6
-0.021473346159099835,12,63.77028497441521,0,0,2,0.6
-0.014762868250251446,12,69.7702849744127,0,0,2,0.6
-0.008612716620411059,12,75.77028497441025,0,0,2,0.6
-0.003012984778901652,12,81.77028497440784,0,0,2,0.6
0.002049371264298567,12,87.77028497440548,0,0,2,0.6
0.0065901214186965314,12,93.77028497440318,0,0,2,0.6
0.010627370647014495,12,99.77028497440092,0,0,2,0.6
0.014181189672648083,13,5.770284974398706,0,0,2,0.6
0.017273267873173494,13,11.770284974396532,0,0,2,0.6
0.019926588744597608,13,17.7702849743944,0,0,2,0.6
0.02216512811329488,13,23.77028497439231,0,0,2,0.6
0.02401357508427277,13,29.770284974390265,0,0,2,0.6
0.02549707554502089,13,35.77028497438826,0,0,2,0.6
0.026640997893106606,13,41.7702849743863,0,0,2,0.6
0.027470720522185514,13,47.770284974384374,0,0,2,0.6
0.028011440484440205,13,53.770284974382484,0,0,2,0.6
0.028288002646836192,13,59.77028497438064,0,0,2,0.6
0.028324748573141375,13,65.77028497437882,0,0,2,0.6
0.028145384292517544,13,71.77028497437705,0,0,2,0.6
0.027772866057762278,13,77.77028497437531,0,0,2,0.6
0.02722930315104938,13,83.77028497437361,0,0,2,0.6
0.026535876761374963,13,89.77028497437193,0,0,2,0.6
0.025712773934957727,13,95.7702849743703,0,0,2,0.6
0.024779135586670085,14,1.7702849743686926,0,0,2,0.6
-0.18870816219290415,14,7.77028497436712,0,0,2,0.6
-0.5918925987273018,14,13.770284974365577,0,0,2,0.6
-1.162780576867045,14,19.770284974364067,0,0,2,0.6
-1.8803200826155633,14,25.770284974362585,0,0,2,0.6
-2.7244644169188783,14,31.770284974361132,0,0,2,0.6
-3.6762220144142472,14,37.77028497435971,0,0,2,0.6
-4.717693366801262,14,43.77028497435832,0,0,2,0.6
-5.832096063447867,14,49.770284974356954,0,0,2,0.6
-7.003778949703268,14,55.77028497435562,0,0,2,0.6
-8.21822638495968,14,61.770284974354304,0,0,2,0.6
-9.46205355855259,14,67.77028497435302,0,0,2,0.6
-10.722993792846413,15,3.0844502685814064,0,0,2,0.6
-11.989878730013867,15,9.084450268580172,0,0,2,0.6
-13.252612262738843,15,15.084450268578962,0,0,2,0.6
-14.502139029970163,15,21.084450268577775,0,0,2,0.6
-15.730408257502965,15,27.084450268576614,0,0,2,0.6
-16.930333680100617,15,33.08445026857547,0,0,2,0.6
-18.09575023758716,15,39.08445026857436,0,0,2,0.6
-19.22136819229257,15,45.08445026857326,0,0,2,0.6
-20.302725269834674,15,51.08445026857219,0,0,2,0.6
-21.33613737984825,15,57.08445026857114,0,0,2,0.6
-22.318648428261056,15,63.08445026857011,0,0,2,0.6
-23.24797968837008,15,69.0844502685691,0,0,2,0.6
-24.122479154554892,16,4.398615562797758,0,0,2,0.6
-24.941071260211537,16,10.39861556279679,0,0,2,0.6
-25.70320730060041,16,16.39861556279584,0,0,2,0.6
-26.408816861945386,16,22.39861556279491,0,0,2,0.6
-27.05826052044077,16,28.398615562794,0,0,2,0.6
-27.65228403893281,16,34.398615562793104,0,0,2,0.6
-28.19197425503316,16,40.39861556279223,0,0,2,0.6
-28.678716822360244,16,46.39861556279137,0,0,2,0.6
-29.11415593653644,16,52.39861556279053,0,0,2,0.6
-29.500156149520524,16,58.39861556278971,0,0,2,0.6
-29.838766349834334,16,64.3986155627889,0,0,2,0.6
-30.132185962242545,16,70.39861556278811,0,0,2,0.6
-30.382733398442664,17,5.712780857016995,0,0,2,0.6
-30.592816770284003,17,11.712780857016234,0,0,2,0.6
-30.764906858913637,17,17.71278085701549,0,0,2,0.6
-30.90151231698802,17,23.71278085701476,0,0,2,0.6
-31.00515706662712,17,29.712780857014046,0,0,2,0.6
-31.07835984305218,17,35.71278085701334,0,0,2,0.6
-31.12361582276142,17,41.71278085701265,0,0,2,0.6
-31.143380265578607,17,47.71278085701198,0,0,2,0.6
-31.140054091871825,17,53.71278085701132,0,0,2,0.6
-31.115971309596272,17,59.71278085701067,0,0,2,0.6
-31.0733882004759,17,65.71278085701003,0,0,2,0.6
-31.014474170513594,18,1.0269461512390592,0,0,2,0.6
-30.728842987268692,18,7.026946151238451,0,0,2,0.6
-30.24130859994379,18,13.026946151237855,0,0,2,0.6
-29.57571783685182,18,19.02694615123727,0,0,2,0.6
-28.75486826629268,18,25.026946151236697,0,0,2,0.6
-27.800442140792278,18,31.026946151236135,0,0,2,0.6
-26.732955311785997,18,37.026946151235585,0,0,2,0.6
-25.571720000841964,18,43.026946151235045,0,0,2,0.6
-24.33482032098604,18,49.02694615123452,0,0,2,0.6
-23.03909945670833,18,55.026946151234,0,0,2,0.6
-21.70015743293309,18,61.026946151233496,0,0,2,0.6
-20.33235843078839,18,67.026946151233,0,0,2,0.6
-18.94884664062726,18,73.02694615123252,0,0,2,0.6
-17.56156967967755,18,79.02694615123204,0,0,2,0.6
-16.18130864222524,18,85.02694615123157,0,0,2,0.6
-14.81771389370148,18,91.02694615123112,0,0,2,0.6
-13.479345765827345,18,97.02694615123066,0,0,2,0.6
-12.173719357496925,19,3.02694615123022,0,0,2,0.6
-10.88701306616771,19,9.026946151229788,0,0,2,0.6
-9.626985177324542,19,15.026946151229366,0,0,2,0.6
-8.400418059885139,19,21.02694615122895,0,0,2,0.6
-7.213164890089915,19,27.026946151228547,0,0,2,0.6
-6.070198671947913,19,33.026946151228145,0,0,2,0.6
-4.975662956929874,19,39.026946151227754,0,0,2,0.6
-3.9329237125860326,19,45.02694615122737,0,0,2,0.6
-2.944621836181546,19,51.026946151226994,0,0,2,0.6
-2.0127258549955087,19,57.026946151226625,0,0,2,0.6
-1.138584399364969,19,63.02694615122626,0,0,2,0.6
-0.322978077651603,19,69.02694615122591,0,0,2,0.6
0.4338295761234585,19,75.02694615122557,0,0,2,0.6
1.1320423713507357,19,81.02694615122523,0,0,2,0.6
1.772283197920805,20,0.6331481775055892,0,0,2,0.6
2.355547446500114,20,6.633148177505264,0,0,2,0.6
2.8831582930233957,20,12.633148177504946,0,0,2,0.6
3.356723996347331,20,18.633148177504633,0,0,2,0.6
3.7780973280169268,20,24.633148177504328,0,0,2,0.6
4.149337225210097,20,30.633148177504026,0,0,2,0.6
4.472672732145537,20,36.633148177503735,0,0,2,0.6
4.750469271547007,20,42.63314817750344,0,0,2,0.6
4.985197266122395,20,48.63314817750316,0,0,2,0.6
5.179403110394994,20,54.63314817750288,0,0,2,0.6
5.335682475563042,20,60.63314817750261,0,0,2,0.6
5.456655914298233,20,66.63314817750235,0,0,2,0.6
5.5449467184533425,20,72.6331481775021,0,0,2,0.6
5.6031609704552165,20,78.63314817750184,0,0,2,0.6
5.633869718629166,20,84.63314817750158,0,0,2,0.6
5.63959319774668,21,4.239350203782024,0,0,2,0.6
5.622787008620023,21,10.239350203781784,0,0,2,0.6
5.585830164492062,21,16.239350203781548,0,0,2,0.6
5.5310149071938906,21,22.239350203781317,0,0,2,0.6
5.460538192472266,21,28.23935020378109,0,0,2,0.6
5.376494741429948,21,34.239350203780866,0,0,2,0.6
5.280871553581823,21,40.239350203780646,0,0,2,0.6
5.175543776517336,21,46.23935020378043,0,0,2,0.6
5.062271827486107,21,52.239350203780226,0,0,2,0.6
4.942699663302546,21,58.23935020378002,0,0,2,0.6
4.818354096713264,21,64.23935020377982,0,0,2,0.6
4.690645059708254,21,70.23935020377962,0,0,2,0.6
4.560866717106628,21,76.23935020377942,0,0,2,0.6
4.430199337037561,21,82.23935020377924,0,0,2,0.6
4.2997118285983165,22,1.845552230059738,0,0,2,0.6
4.170364860939206,22,7.845552230059557,0,0,2,0.6
4.043014482239662,22,13.84555223005938,0,0,2,0.6
3.9184161614439743,22,19.845552230059205,0,0,2,0.6
3.7972291801677267,22,25.845552230059035,0,0,2,0.6
3.6800213068185483,22,31.845552230058868,0,0,2,0.6
3.5672736896538515,22,37.8455522300587,0,0,2,0.6
3.459385910183925,22,43.845552230058544,0,0,2,0.6
3.3566811429853165,22,49.84555223005839,0,0,2,0.6
3.2594113725848852,22,55.84555223005823,0,0,2,0.6
3.1677626225808178,22,61.84555223005808,0,0,2,0.6
3.081860156558509,22,67.84555223005793,0,0,2,0.6
3.0017736146149514,22,73.84555223005779,0,0,2,0.6
2.927522053406847,22,79.84555223005765,0,0,2,0.6
2.8590788615697122,22,85.8455522300575,0,0,2,0.6
2.7963765261052296,23,5.451754256338049,0,0,2,0.6
2.718971600241406,23,11.451754256337914,0,0,2,0.6
2.628914879962155,23,17.451754256337782,0,0,2,0.6
2.5281469701111137,23,23.451754256337654,0,0,2,0.6
2.4184947489693434,23,29.45175425633753,0,0,2,0.6
2.30166903932448,23,35.45175425633741,0,0,2,0.6
2.17926338284917,23,41.45175425633729,0,0,2,0.6
2.0527538166500223,23,47.45175425633717,0,0,2,0.6
1.9234995534459147,23,53.451754256337054,0,0,2,0.6
1.7927444699113737,23,59.45175425633694,0,0,2,0.6
1.6616193112059519,23,65.45175425633683,0,0,2,0.6
1.5311445235370278,23,71.45175425633671,0,0,2,0.6
1.4022336307084686,23,77.45175425633661,0,0,2,0.6
1.2756970749324519,24,0.9849470996044403,0,0,2,0.6
1.1522464466720437,24,6.984947099604337,0,0,2,0.6
1.0324990328876362,24,12.984947099604236,0,0,2,0.6
0.9169826177350123,24,18.984947099604135,0,0,2,0.6
0.8061404744646383,24,24.984947099604035,0,0,2,0.6
0.700336491962817,24,30.98494709960394,0,0,2,0.6
0.5998603840214568,24,36.98494709960384,0,0,2,0.6
0.5049329339940718,24,42.98494709960375,0,0,2,0.6
0.4157112319644698,24,48.98494709960366,0,0,2,0.6
0.3322938658980945,24,54.98494709960357,0,0,2,0.6
0.25472603244412106,24,60.98494709960349,0,0,2,0.6
0.1830045370922141,24,66.9849470996034,0,0,2,0.6
0.11708265724730621,24,72.98494709960332,0,0,2,0.6
0.05687484545753434,25,4.372121576845643,0,0,2,0.6
0.00226125350580815,25,10.372121576845563,0,0,2,0.6
-0.046907938652038975,25,16.372121576845487,0,0,2,0.6
-0.0908084020542111,25,22.37212157684541,0,0,2,0.6
-0.12963775610075945,25,28.372121576845334,0,0,2,0.6
-0.16361189157189726,25,34.37212157684526,0,0,2,0.6
-0.19296152430913208,25,40.37212157684519,0,0,2,0.6
-0.21792898234032493,25,46.37212157684512,0,0,2,0.6
-0.2387652272008461,25,52.372121576845046,0,0,2,0.6
-0.2557271083713088,25,58.37212157684498,0,0,2,0.6
-0.26907484811194043,25,64.37212157684492,0,0,2,0.6
-0.2790697525176694,25,70.37212157684485,0,0,2,0.6
-0.285972143338943,25,76.37212157684479,0,0,2,0.6
-0.2900395040030472,25,82.37212157684473,0,0,2,0.6
-0.2915248323207181,25,88.37212157684468,0,0,2,0.6
-0.2906751915642165,25,94.37212157684462,0,0,2,0.6
-0.2877304509466335,26,0.37212157684456315,0,0,2,0.6
-0.26258257735797375,26,6.3721215768445045,0,0,2,0.6
-0.21764049314725958,26,12.372121576844446,0,0,2,0.6
-0.15522068500827654,26,18.37212157684439,0,0,2,0.6
-0.07753907389489362,26,24.372121576844332,0,0,2,0.6
0.013295547812099115,26,30.37212157684428,0,0,2,0.6
0.11528661939053851,26,36.37212157684422,0,0,2,0.6
0.2265535628164419,26,42.372121576844165,0,0,2,0.6
0.34533428882936884,26,48.372121576844116,0,0,2,0.6
0.4699865637255204,26,54.372121576844066,0,0,2,0.6
0.5989883405548532,26,60.372121576844016,0,0,2,0.6
0.7309371557978294,26,66.37212157684397,0,0,2,0.6
0.8645486894987626,26,72.37212157684392,0,0,2,0.6
0.9986545833091004,26,78.37212157684388,0,0,2,0.6
1.132199607014325,26,84.37212157684384,0,0,2,0.6
1.264238259947159,27,3.9783236031244797,0,0,2,0.6
1.3939308892878455,27,9.978323603124434,0,0,2,0.6
1.520539402675544,27,15.97832360312439,0,0,2,0.6
1.6434226478551464,27,21.978323603124345,0,0,2,0.6
1.7620315273086151,27,27.978323603124302,0,0,2,0.6
1.875903911012663,27,33.97832360312426,0,0,2,0.6
1.984659405664452,27,39.97832360312422,0,0,2,0.6
2.08799403395932,27,45.978323603124174,0,0,2,0.6
2.1856748728207473,27,51.97832360312414,0,0,2,0.6
2.277534694900618,27,57.9783236031241,0,0,2,0.6
2.363466653211489,27,63.97832360312407,0,0,2,0.6
2.4434190444429293,27,69.97832360312402,0,0,2,0.6
2.517390182368646,27,75.97832360312398,0,0,2,0.6
2.585423408784769,27,81.97832360312395,0,0,2,0.6
2.647602265644137,28,1.5845256294046095,0,0,2,0.6
2.683706219825237,28,7.584525629404577,0,0,2,0.6
2.696071981939538,28,13.584525629404546,0,0,2,0.6
2.6869806279778623,28,19.584525629404514,0,0,2,0.6
2.6586460547025204,28,25.58452562940448,0,0,2,0.6
2.613205093344444,28,31.584525629404453,0,0,2,0.6
2.552709189922092,28,37.584525629404425,0,0,2,0.6
2.4791175579175597,28,43.584525629404396,0,0,2,0.6
2.394291707429099,28,49.58452562940437,0,0,2,0.6
2.299991254183766,28,55.58452562940434,0,0,2,0.6
2.197870911856588,28,61.58452562940431,0,0,2,0.6
2.0894785719232036,29,5.584525629404283,0,0,2,0.6
1.7637931969439322,29,11.58452562940426,0,0,2,0.6
1.2449867307357065,29,17.584525629404236,0,0,2,0.6
0.5562623309179832,29,23.584525629404215,0,0,2,0.6
-0.2802227761496554,29,29.584525629404194,0,0,2,0.6
-1.2434188814392102,29,35.58452562940417,0,0,2,0.6
-2.3134309143388183,29,41.58452562940415,0,0,2,0.6
-3.4715521918407273,29,47.584525629404126,0,0,2,0.6
-4.700285879903443,29,53.584525629404105,0,0,2,0.6
-5.983355234810413,29,59.584525629404084,0,0,2,0.6
-7.305703669715411,29,65.58452562940406,0,0,2,0.6
-8.653485663356847,30,0.89869092363368,0,0,2,0.6
-10.014049494908765,30,6.898690923633659,0,0,2,0.6
-11.37591275184348,30,12.898690923633637,0,0,2,0.6
-12.7287315171957,30,18.898690923633616,0,0,2,0.6
-14.063264099383533,30,24.898690923633595,0,0,2,0.6
-15.371330122357008,30,30.898690923633573,0,0,2,0.6
-16.645765746865262,30,36.89869092363355,0,0,2,0.6
-17.880375745571005,30,42.89869092363353,0,0,2,0.6
-19.069883106064193,30,48.89869092363351,0,0,2,0.6
-20.209876786962383,30,54.89869092363349,0,0,2,0.6
-21.296758203618342,30,60.89869092363347,0,0,2,0.6
-22.32768697183137,30,66.89869092363344,0,0,2,0.6
-23.300526390684162,31,2.212856217863063,0,0,2,0.6
-23.980988291070798,31,8.212856217863042,0,0,2,0.6
-24.393206960584994,31,14.21285621786302,0,0,2,0.6
-24.560915082292635,31,20.212856217863,0,0,2,0.6
-24.50730590006157,31,26.212856217862978,0,0,2,0.6
-24.254913213152406,31,32.21285621786296,0,0,2,0.6
-23.825508317184767,31,38.212856217862935,0,0,2,0.6
-23.24001296978426,31,44.212856217862914,0,0,2,0.6
-22.518427431199676,31,50.21285621786289,0,0,2,0.6
-21.679772612088804,31,56.21285621786287,0,0,2,0.6
-20.742045351647608,31,62.21285621786285,0,0,2,0.6
-19.722185848462427,31,68.21285621786282,0,0,2,0.6
-18.63605627308155,31,74.2128562178628,0,0,2,0.6
-17.498429604539904,31,80.21285621786276,0,0,2,0.6
-16.322987752167627,31,86.21285621786274,0,0,2,0.6
-15.122328048240574,32,5.819058244143392,0,0,2,0.6
-13.907977225693674,32,11.81905824414337,0,0,2,0.6
-12.690412027558015,32,17.81905824414335,0,0,2,0.6
-11.47908563037849,32,23.819058244143328,0,0,2,0.6
-10.282459102038333,32,29.819058244143307,0,0,2,0.6
-9.108037154616156,32,35.819058244143285,0,0,2,0.6
-7.962407494625829,32,41.819058244143264,0,0,2,0.6
-6.851283115774095,32,47.81905824414324,0,0,2,0.6
-5.779546922788481,32,53.81905824414322,0,0,2,0.6
-4.7512981185297685,32,59.8190582441432,0,0,2,0.6
-3.7698998301572066,32,65.81905824414318,0,0,2,0.6
-2.838027493244975,32,71.81905824414315,0,0,2,0.6
-1.9577175551738824,32,77.81905824414312,0,0,2,0.6
-1.130416100595348,32,83.8190582441431,0,0,2,0.6
-0.3570270420694548,33,3.425260270423749,0,0,2,0.6
0.362040442070117,33,9.425260270423728,0,0,2,0.6
1.0268255031309528,33,15.425260270423706,0,0,2,0.6
1.63777049546297,33,21.425260270423685,0,0,2,0.6
2.1956773384965604,33,27.425260270423664,0,0,2,0.6
2.7016655458388144,33,33.42526027042364,0,0,2,0.6
3.157132069503799,33,39.42526027042362,0,0,2,0.6
3.563713078931754,33,45.4252602704236,0,0,2,0.6
3.9232477679756723,33,51.42526027042358,0,0,2,0.6
4.237744258506129,33,57.42526027042356,0,0,2,0.6
4.50934764669549,33,63.425260270423536,0,0,2,0.6
4.740310217366447,33,69.42526027042351,0,0,2,0.6
4.932963832990806,33,75.42526027042348,0,0,2,0.6
5.089694486956046,33,81.42526027042345,0,0,2,0.6
5.212918995523339,34,1.031462296704106,0,0,2,0.6
5.305063789418224,34,7.031462296704085,0,0,2,0.6
5.368545754153732,34,13.031462296704063,0,0,2,0.6
5.405755057910283,34,19.031462296704042,0,0,2,0.6
5.419039897007599,34,25.03146229670402,0,0,2,0.6
5.410693081618373,34,31.031462296704,0,0,2,0.6
5.382940378306679,34,37.03146229670398,0,0,2,0.6
5.337930521139602,34,43.03146229670396,0,0,2,0.6
5.2777267994314325,34,49.031462296703936,0,0,2,0.6
5.204300127549091,34,55.031462296703914,0,0,2,0.6
5.119523500549113,34,61.03146229670389,0,0,2,0.6
5.025167738645762,34,67.03146229670386,0,0,2,0.6
4.92289842354365,34,73.03146229670384,0,0,2,0.6
4.814273930425919,34,79.03146229670381,0,0,2,0.6
4.700744460792514,34,85.03146229670378,0,0,2,0.6
4.583651983317252,35,4.637664322984435,0,0,2,0.6
4.443891363714638,35,10.637664322984413,0,0,2,0.6
4.284777620844425,35,16.637664322984392,0,0,2,0.6
4.1094394201049,35,22.63766432298437,0,0,2,0.6
3.9208142437885414,35,28.63766432298435,0,0,2,0.6
3.7216454782754047,35,34.63766432298433,0,0,2,0.6
3.514481248226516,35,40.63766432298431,0,0,2,0.6
3.301674831820818,35,46.637664322984286,0,0,2,0.6
3.085386495817033,35,52.637664322984264,0,0,2,0.6
2.867586594694999,35,58.63766432298424,0,0,2,0.6
2.6500597842249562,35,64.63766432298422,0,0,2,0.6
2.4344102064202304,35,70.6376643229842,0,0,2,0.6
2.2220675098478253,35,76.63766432298416,0,0,2,0.6
2.0142935766088024,35,82.63766432298414,0,0,2,0.6
1.8121898348691157,35,88.63766432298411,0,0,2,0.6
1.6167050435418793,35,94.63766432298408,0,0,2,0.6
1.4286434435208024,36,0.6376643229840511,0,0,2,0.6
1.2486731776754274,36,6.63766432298403,0,0,2,0.6
1.077334889582024,36,12.637664322984008,0,0,2,0.6
0.9150504186260959,36,18.637664322983987,0,0,2,0.6
0.7621315166260649,36,24.637664322983966,0,0,2,0.6
0.6187885184513415,36,30.637664322983944,0,0,2,0.6
0.48513890620570543,36,36.63766432298392,0,0,2,0.6
0.3612157133880902,36,42.6376643229839,0,0,2,0.6
0.24697572200182583,36,48.63766432298388,0,0,2,0.6
0.1423074118391742,36,54.63766432298386,0,0,2,0.6
0.047038627103993924,36,60.63766432298384,0,0,2,0.6
-0.03905606886094827,36,66.63766432298382,0,0,2,0.6
-0.11624837471293914,36,72.6376643229838,0,0,2,0.6
-0.18484958716938388,36,78.63766432298377,0,0,2,0.6
-0.24520430647641378,36,84.63766432298374,0,0,2,0.6
-0.2976845215541676,36,90.63766432298371,0,0,2,0.6
-0.3426840812124897,36,96.63766432298368,0,0,2,0.6
-0.380613554295886,37,2.637664322983653,0,0,2,0.6
-0.41189547841372354,37,8.637664322983632,0,0,2,0.6
-0.4369599940316744,37,14.63766432298361,0,0,2,0.6
-0.45624085813259263,37,20.63766432298359,0,0,2,0.6
-0.4701718293874246,37,26.637664322983568,0,0,2,0.6
-0.47918341479636767,37,32.63766432298355,0,0,2,0.6
-0.48369996605344373,37,38.637664322983525,0,0,2,0.6
-0.4841371124394114,37,44.637664322983504,0,0,2,0.6
-0.48089951584348667,37,50.63766432298348,0,0,2,0.6
-0.4743789325383283,37,56.63766432298346,0,0,2,0.6
-0.4649525655696483,37,62.63766432298344,0,0,2,0.6
-0.45298169105606395,37,68.63766432298343,0,0,2,0.6
-0.43881054131091757,37,74.6376643229834,0,0,2,0.6
-0.422765427480454,37,80.63766432298337,0,0,2,0.6
-0.40515408432693334,37,86.63766432298334,0,0,2,0.6
-0.3862652198563128,37,92.63766432298331,0,0,2,0.6
-0.36636825268383194,37,98.63766432298328,0,0,2,0.6
-0.34571322033347046,38,4.637664322983255,0,0,2,0.6
-0.3245308420656441,38,10.637664322983234,0,0,2,0.6
-0.30303272030910805,38,16.637664322983213,0,0,2,0.6
-0.2814116653259073,38,22.63766432298319,0,0,2,0.6
-0.25984212835108234,38,28.63766432298317,0,0,2,0.6
-0.23848072911110674,38,34.63766432298315,0,0,2,0.6
-0.2174668643267954,38,40.63766432298313,0,0,2,0.6
-0.19692338453846425,38,46.637664322983106,0,0,2,0.6
-0.17695732734492775,38,52.637664322983085,0,0,2,0.6
-0.15766069591565793,38,58.63766432298306,0,0,2,0.6
-0.13911127240994767,38,64.63766432298304,0,0,2,0.6
-0.12137345671173383,38,70.63766432298303,0,0,2,0.6
-0.10449912165800337,38,76.637664322983,0,0,2,0.6
-0.08852847669721094,38,82.63766432298297,0,0,2,0.6
-0.07349093265726866,38,88.63766432298294,0,0,2,0.6
-0.059405961026391105,38,94.63766432298291,0,0,2,0.6
-0.04628394185090337,39,0.6376643229828858,0,0,2,0.6
-0.03412699502908263,39,6.6376643229828645,0,0,2,0.6
-0.02292979042672585,39,12.637664322982843,0,0,2,0.6
-0.012680332856404304,39,18.637664322982822,0,0,2,0.6
-0.0033607185466918797,39,24.6376643229828,0,0,2,0.6
0.005052139721149493,39,30.63766432298278,0,0,2,0.6
0.012585821114298108,39,36.63766432298276,0,0,2,0.6
0.019271740709774624,39,42.63766432298274,0,0,2,0.6
0.02514453029038018,39,48.637664322982715,0,0,2,0.6
0.03024145693574733,39,54.637664322982694,0,0,2,0.6
0.03460187998955966,39,60.63766432298267,0,0,2,0.6
0.03826674663806906,39,66.63766432298266,0,0,2,0.6
0.041278126021942,39,72.63766432298263,0,0,2,0.6
0.04367878152226309,39,78.6376643229826,0,0,2,0.6
0.04551178061113509,39,84.63766432298257,0,0,2,0.6
0.04682014143653638,0,0.6376643229825447,0,0,3,0.6
