angle,pieceIndex,inPieceDistance,startLaneIndex,endLaneIndex,lap,throttle
0.0,0,0.0,0,0,0,0.5
0.0,0,0.0,0,0,0,0.5
0.0,0,0.0,0,0,0,0.5
0.0,0,0.0,0,0,0,0.5
0.0,0,0.0,0,0,0,0.5
0.0,0,0.1,0,0,0,0.5
0.0,0,0.29800000000000004,0,0,0,0.5
0.0,0,0.5920400000000001,0,0,0,0.5
0.0,0,0.9801992000000002,0,0,0,0.5
0.0,0,1.4605952160000002,0,0,0,0.5
0.0,0,2.03138331168,0,0,0,0.5
0.0,0,2.6907556454464,0,0,0,0.5
0.0,0,3.4369405325374722,0,0,0,0.5
0.0,0,4.268201721886722,0,0,0,0.5
0.0,0,5.182837687448988,0,0,0,0.5
0.0,0,6.179180933700008,0,0,0,0.5
0.0,0,7.255597315026007,0,0,0,0.5
0.0,0,8.410485368725487,0,0,0,0.5
0.0,0,9.642275661350977,0,0,0,0.5
0.0,0,10.949430148123957,0,0,0,0.5
0.0,0,12.330441545161477,0,0,0,0.5
0.0,0,13.783832714258248,0,0,0,0.5
0.0,0,15.308156059973083,0,0,0,0.5
0.0,0,16.90199293877362,0,0,0,0.5
0.0,0,18.563953079998146,0,0,0,0.5
0.0,0,20.292674018398184,0,0,0,0.5
0.0,0,22.08682053803022,0,0,0,0.5
0.0,0,23.945084127269617,0,0,0,0.5
0.0,0,25.866182444724224,0,0,0,0.5
0.0,0,27.848858795829738,0,0,0,0.5
0.0,0,29.891881619913143,0,0,0,0.5
0.0,0,31.99404398751488,0,0,0,0.5
0.0,0,34.15416310776458,0,0,0,0.5
0.0,0,36.37107984560929,0,0,0,0.5
0.0,0,38.6436582486971,0,0,0,0.5
0.0,0,40.97078508372316,0,0,0,0.5
0.0,0,43.351369382048695,0,0,0,0.5
0.0,0,45.78434199440772,0,0,0,0.5
0.0,0,48.268655154519564,0,0,0,0.5
0.0,0,50.80328205142917,0,0,0,0.5
0.0,0,53.38721641040058,0,0,0,0.5
0.0,0,56.01947208219257,0,0,0,0.5
0.0,0,58.69908264054872,0,0,0,0.5
0.0,0,61.42510098773774,0,0,0,0.5
0.0,0,64.196598967983,0,0,0,0.5
0.0,0,67.01266698862334,0,0,0,0.5
0.0,0,69.87241364885087,0,0,0,0.5
0.0,0,72.77496537587385,0,0,0,0.5
0.0,0,75.71946606835637,0,0,0,0.5
0.0,0,78.70507674698923,0,0,0,0.5
0.0,0,81.73097521204944,0,0,0,0.5
0.0,0,84.79635570780846,0,0,0,0.5
0.0,0,87.9004285936523,0,0,0,0.5
0.0,0,91.04242002177925,0,0,0,0.5
0.0,0,94.22157162134367,0,0,0,0.5
0.0,0,97.4371401889168,0,0,0,0.5
0.0,1,0.6883973851384582,0,0,0,0.5
0.0,1,3.9746294374356883,0,0,0,0.5
0.0,1,7.295136848686974,0,0,0,0.5
0.0,1,10.649234111713234,0,0,0,0.5
0.0,1,14.036249429478968,0,0,0,0.5
0.0,1,17.455524440889388,0,0,0,0.5
0.0,1,20.9064139520716,0,0,0,0.5
0.0,1,24.38828567303017,0,0,0,0.5
0.0,1,27.900519959569564,0,0,0,0.5
0.0,1,31.442509560378173,0,0,0,0.5
0.0,1,35.01365936917061,0,0,0,0.5
0.0,1,38.6133861817872,0,0,0,0.5
0.0,1,42.241118458151455,0,0,0,0.5
0.0,1,45.89629608898842,0,0,0,0.5
0.0,1,49.578370167208654,0,0,0,0.5
0.0,1,53.28680276386448,0,0,0,0.5
0.0,1,57.02106670858719,0,0,0,0.5
0.0,1,60.78064537441545,0,0,0,0.5
0.0,1,64.56503246692714,0,0,0,0.5
0.0,1,68.37373181758859,0,0,0,0.5
0.0,1,72.20625718123682,0,0,0,0.5
0.0,1,76.06213203761209,0,0,0,0.5
0.0,1,79.94088939685984,0,0,0,0.5
0.0,1,83.84207160892265,0,0,0,0.5
0.0,1,87.7652301767442,0,0,0,0.5
0.0,1,91.70992557320932,0,0,0,0.5
0.0,1,95.67572706174514,0,0,0,0.5
0.0,1,99.66221252051024,0,0,0,0.5
0.0,2,3.668968270100038,0,0,0,0.5
0.0,2,7.695588904698036,0,0,0,0.5
0.0,2,11.741677126604074,0,0,0,0.5
0.0,2,15.806843584071991,0,0,0,0.5
0.0,2,19.89070671239055,0,0,0,0.5
0.0,2,23.992892578142737,0,0,0,0.5
0.0,2,28.113034726579883,0,0,0,0.5
0.0,2,32.250774032048284,0,0,0,0.5
0.0,2,36.40575855140732,0,0,0,0.5
0.0,2,40.57764338037917,0,0,0,0.5
0.0,2,44.76609051277159,0,0,0,0.5
0.0,2,48.97076870251616,0,0,0,0.5
0.0,2,53.19135332846584,0,0,0,0.5
0.0,2,57.42752626189652,0,0,0,0.5
0.0,2,61.678975736658586,0,0,0,0.5
0.0,2,65.94539622192542,0,0,0,0.5
0.0,2,70.22648829748691,0,0,0,0.5
0.0,2,74.52195853153717,0,0,0,0.5
0.0,2,78.83151936090643,0,0,0,0.5
0.0,2,83.1548889736883,0,0,0,0.5
0.0,2,87.49179119421453,0,0,0,0.5
0.0,2,91.84195537033024,0,0,0,0.5
0.0,2,96.20511626292364,0,0,0,0.5
0.0,3,0.581013937665162,0,0,0,0.5
0.0,3,4.969393658911859,0,0,0,0.5
0.0,3,9.370005785733621,0,0,0,0.5
0.0,3,13.782605670018949,0,0,0,0.5
0.0,3,18.206953556618572,0,0,0,0.5
0.0,3,22.642814485486202,0,0,0,0.5
0.0,3,27.08995819577648,0,0,0,0.5
0.0,3,31.548159031860948,0,0,0,0.5
0.0,3,36.01719585122373,0,0,0,0.5
0.0,3,40.496851934199256,0,0,0,0.5
0.0,3,44.98691489551527,0,0,0,0.5
0.0,3,49.487176597604964,0,0,0,0.5
0.0,3,53.997433065652864,0,0,0,0.5
0.0,3,58.517484404339804,0,0,0,0.5
0.0,3,63.047134716253005,0,0,0,0.5
0.0,3,67.58619202192794,0,0,0,0.5
0.0,3,72.13446818148938,0,0,0,0.5
0.0,3,76.6917788178596,0,0,0,0.5
0.0,3,81.2579432415024,0,0,0,0.5
0.0,3,85.83278437667235,0,0,0,0.5
0.0,3,90.4161286891389,0,0,0,0.5
0.0,3,95.00780611535612,0,0,0,0.5
0.0,3,99.607649993049,0,0,0,0.5
0.0,4,4.215496993188012,0,0,0,0.5
0.0,4,8.83118705332425,0,0,0,0.5
0.0,4,13.454563312257765,0,0,0,0.5
0.0,4,18.085472046012608,0,0,0,0.5
0.0,4,22.723762605092354,0,0,0,0.5
0.0,4,27.369287352990504,0,0,0,0.5
0.0,4,32.021901605930694,0,0,0,0.5
0.0,4,36.68146357381208,0,0,0,0.5
0.0,4,41.34783430233584,0,0,0,0.5
0.0,4,46.02087761628913,0,0,0,0.5
0.0,4,50.70046006396334,0,0,0,0.5
0.0,4,55.38645086268407,0,0,0,0.5
0.0,4,60.07872184543039,0,0,0,0.5
0.0,4,64.77714740852178,0,0,0,0.5
0.0,4,69.48160446035135,0,0,0,0.5
0.0,4,74.19197237114432,0,0,0,0.5
0.0,4,78.90813292372142,0,0,0,0.5
0.0,4,83.629970265247,0,0,0,0.5
0.0,5,1.9635728862227353,0,0,0,0.5
0.0,5,6.696425469023894,0,0,0,0.5
0.0,5,11.43462100016903,0,0,0,0.5
0.0,5,16.17805262069126,0,0,0,0.5
0.0,5,20.926615608803047,0,0,0,0.5
0.0,5,25.6802073371526,0,0,0,0.5
0.0,5,30.43872723093516,0,0,0,0.5
0.0,5,35.20207672684207,0,0,0,0.5
0.0,5,39.970159232830845,0,0,0,0.5
0.0,5,44.74288008869984,0,0,0,0.5
0.0,5,49.52014652745146,0,0,0,0.5
0.0,5,54.301867637428046,0,0,0,0.5
0.0,5,59.0879543252051,0,0,0,0.5
0.0,5,63.87831927922661,0,0,0,0.5
0.0,5,68.67287693416769,0,0,0,0.5
0.0,5,73.47154343600995,0,0,0,0.5
0.0,5,78.27423660781537,0,0,0,0.5
0.0,5,83.08087591618468,0,0,0,0.5
0.0,6,1.497584464667284,0,0,0,0.5
0.0,6,6.311880856425165,0,0,0,0.5
0.0,6,11.129891320347888,0,0,0,0.5
0.0,6,15.951541574992156,0,0,0,0.5
0.0,6,20.77675882454354,0,0,0,0.5
0.0,6,25.605471729103893,0,0,0,0.5
0.0,6,30.437610375573044,0,0,0,0.5
0.0,6,35.27310624911281,0,0,0,0.5
0.0,6,40.111892205181775,0,0,0,0.5
0.0,6,44.95390244212936,0,0,0,0.5
0.0,6,49.799072474338004,0,0,0,0.5
0.0,6,54.64733910590247,0,0,0,0.5
0.0,6,59.49864040483565,0,0,0,0.5
0.0,6,64.35291567779016,0,0,0,0.5
0.0,6,69.21010544528559,0,0,0,0.5
0.0,6,74.0701514174311,0,0,0,0.5
0.0,6,78.93299647013372,0,0,0,0.5
0.0,6,83.79858462178227,0,0,0,0.5
0.0,7,2.2730630366785363,0,0,0,0.5
0.0,7,7.143973897521807,0,0,0,0.5
0.0,7,12.017466541148213,0,0,0,0.5
0.0,7,16.89348933190209,0,0,0,0.5
0.0,7,21.77199166684089,0,0,0,0.5
0.0,7,26.652923955080915,0,0,0,0.5
0.0,7,31.536237597556138,0,0,0,0.5
0.0,7,36.42188496718185,0,0,0,0.5
0.0,7,41.309819389415054,0,0,0,0.5
0.0,7,46.19999512320359,0,0,0,0.5
0.0,7,51.092367342316365,0,0,0,0.5
0.0,7,55.98689211704688,0,0,0,0.5
0.0,7,60.88352639628278,0,0,0,0.5
0.0,7,65.78222798993397,0,0,0,0.5
0.0,7,70.68295555171213,0,0,0,0.5
0.0,7,75.58566856225472,0,0,0,0.5
0.0,7,80.49032731258647,0,0,0,0.5
0.0,7,85.39689288791158,0,0,0,0.5
0.0,8,3.9115291780108663,0,0,0,0.5
0.0,8,8.821794756553103,0,0,0,0.5
0.0,8,13.733855023524494,0,0,0,0.5
0.0,8,18.64767408515646,0,0,0,0.5
0.0,8,23.563216765555786,0,0,0,0.5
0.0,8,28.480448592347123,0,0,0,0.5
0.0,8,33.399335782602634,0,0,0,0.5
0.0,8,38.31984522905304,0,0,0,0.5
0.0,8,43.24194448657443,0,0,0,0.5
0.0,8,48.1656017589454,0,0,0,0.5
0.0,8,53.09078588586895,0,0,0,0.5
0.0,8,58.017466330254024,0,0,0,0.5
0.0,8,62.945613165751396,0,0,0,0.5
0.0,8,67.87519706453882,0,0,0,0.5
0.0,8,72.8061892853505,0,0,0,0.5
0.0,8,77.73856166174595,0,0,0,0.5
0.0,9,0.20547943388140766,0,0,0,0.5
0.0,9,5.140529864171593,0,0,0,0.5
0.0,9,10.076879285855973,0,0,0,0.5
0.0,9,15.014501719106669,0,0,0,0.5
0.0,9,19.953371703692348,0,0,0,0.5
0.0,9,24.893464288586316,0,0,0,0.5
0.0,9,29.834755021782403,0,0,0,0.5
0.0,9,34.777219940314566,0,0,0,0.5
0.0,9,39.72083556047609,0,0,0,0.5
0.0,9,44.66557886823438,0,0,0,0.5
0.0,9,49.6114273098375,0,0,0,0.5
0.0,9,54.558358782608565,0,0,0,0.5
0.0,9,59.506351625924204,0,0,0,0.5
0.0,9,64.45538461237354,0,0,0,0.5
0.0,9,69.40543693909387,0,0,0,0.5
0.0,9,74.35648821927981,0,0,0,0.5
0.0,9,79.30851847386202,0,0,0,0.5
0.0,9,84.2615081233526,0,0,0,0.5
0.0,9,89.21543797985336,0,0,0,0.5
0.0,9,94.1702892392241,0,0,0,0.5
0.0,9,99.12604347340744,0,0,0,0.5
0.0,10,4.0826826229071,0,0,0,0.5
0.0,10,9.04018898941677,0,0,0,0.5
0.0,10,13.998545228596246,0,0,0,0.5
0.0,10,18.957734342992133,0,0,0,0.5
0.0,10,23.9177396751001,0,0,0,0.5
0.0,10,28.87854490056591,0,0,0,0.5
0.0,10,33.8401340215224,0,0,0,0.5
0.0,10,38.80249136005977,0,0,0,0.5
0.0,10,43.765601551826386,0,0,0,0.5
0.0,10,48.72944953975767,0,0,0,0.5
0.0,10,53.69402056793032,0,0,0,0.5
0.0,10,58.65930017553953,0,0,0,0.5
0.0,10,63.62527419099655,0,0,0,0.5
0.0,10,68.59192872614443,0,0,0,0.5
0.0,10,73.55925017058935,0,0,0,0.5
0.0,10,78.52722518614537,0,0,0,0.5
0.0,10,83.49584070139028,0,0,0,0.5
0.0,10,88.46508390633028,0,0,0,0.5
0.0,10,93.43494224717148,0,0,0,0.5
0.0,10,98.40540342119586,0,0,0,0.5
0.0,11,3.376455371739752,0,0,0,0.5
0.0,11,8.348086283272767,0,0,0,0.5
0.0,11,13.320284576575123,0,0,0,0.5
0.0,11,18.293038904011432,0,0,0,0.5
0.0,11,23.266338144899017,0,0,0,0.5
0.0,11,28.240171400968848,0,0,0,0.5
0.0,11,33.21452799191728,0,0,0,0.5
0.0,11,38.189397451046744,0,0,0,0.5
0.0,11,43.16476952099362,0,0,0,0.5
0.0,11,48.14063414954156,0,0,0,0.5
0.0,11,53.116981485518544,0,0,0,0.5
0.0,11,58.093801874775984,0,0,0,0.5
0.0,11,63.071085856248274,0,0,0,0.5
0.0,11,68.04882415809112,0,0,0,0.5
0.0,11,73.02700769389712,0,0,0,0.5
0.0,12,3.392802036229398,0,0,0,0.5
0.0,12,8.37184950401747,0,0,0,0.5
0.0,12,13.351316022449783,0,0,0,0.5
0.0,12,18.331193210513447,0,0,0,0.5
0.0,12,23.31147285481584,0,0,0,0.5
0.0,12,28.292146906232183,0,0,0,0.5
0.0,12,33.2732074766202,0,0,0,0.5
0.0,12,38.25464683560046,0,0,0,0.5
0.0,12,43.23645740740111,0,0,0,0.5
0.0,12,48.21863176776575,0,0,0,0.5
0.0,12,53.201162640923094,0,0,0,0.5
0.0,12,58.18404289661729,0,0,0,0.5
0.0,12,63.16726554719761,0,0,0,0.5
0.0,12,68.15082374476631,0,0,0,0.5
0.0,12,73.13471077838365,0,0,0,0.5
0.0,12,78.11892007132863,0,0,0,0.5
0.0,12,83.10344517841472,0,0,0,0.5
0.0,12,88.08827978335908,0,0,0,0.5
0.0,12,93.07341769620456,0,0,0,0.5
0.0,12,98.05885285079313,0,0,0,0.5
0.0,13,3.0445793022899323,0,0,0,0.5
0.0,13,8.030591224756792,0,0,0,0.5
0.0,13,13.016882908774313,0,0,0,0.5
0.0,13,18.003448759111485,0,0,0,0.5
0.0,13,22.990283292441916,0,0,0,0.5
0.0,13,27.977381135105738,0,0,0,0.5
0.0,13,32.96473702091628,0,0,0,0.5
0.0,13,37.952345789010614,0,0,0,0.5
0.0,13,42.94020238174306,0,0,0,0.5
0.0,13,47.92830184262086,0,0,0,0.5
0.0,13,52.9166393142811,0,0,0,0.5
0.0,13,57.90521003650814,0,0,0,0.5
0.0,13,62.89400934429063,0,0,0,0.5
0.0,13,67.88303266591747,0,0,0,0.5
0.0,13,72.87227552111177,0,0,0,0.5
0.0,13,77.86173351920219,0,0,0,0.5
0.0,13,82.8514023573308,0,0,0,0.5
0.0,13,87.84127781869684,0,0,0,0.5
0.0,13,92.83135577083556,0,0,0,0.5
0.0,13,97.8216321639315,0,0,0,0.5
0.0,14,2.8121030291655273,0,0,0,0.5
0.0,14,7.802764477094874,0,0,0,0.5
0.0,14,12.793612696065633,0,0,0,0.5
0.0,14,17.784643950656978,0,0,0,0.5
0.0,14,22.775854580156494,0,0,0,0.5
0.0,14,27.767240997066022,0,0,0,0.5
0.0,14,32.758799685637356,0,0,0,0.5
0.0,14,37.75052720043727,0,0,0,0.5
0.0,14,42.74242016494118,0,0,0,0.5
0.0,14,47.734475270155016,0,0,0,0.5
0.0,14,52.72668927326457,0,0,0,0.5
0.0,14,57.71905899631194,0,0,0,0.5
0.0,14,62.711581324898354,0,0,0,0.5
0.0,14,67.70425320691304,0,0,0,0.5
0.0,15,2.0112369455170835,0,0,0,0.5
0.0,15,7.004199021003991,0,0,0,0.5
0.0,15,11.99730185498116,0,0,0,0.5
0.0,15,16.990542632278785,0,0,0,0.5
0.0,15,21.98391859403046,0,0,0,0.5
0.0,15,26.9774270365471,0,0,0,0.5
0.0,15,31.971065310213405,0,0,0,0.5
0.0,15,36.964830818406384,0,0,0,0.5
0.0,15,41.958721016435504,0,0,0,0.5
0.0,15,46.952733410504045,0,0,0,0.5
0.0,15,51.946865556691215,0,0,0,0.5
0.0,15,56.94111505995464,0,0,0,0.5
0.0,15,61.9354795731528,0,0,0,0.5
0.0,15,66.929956796087,0,0,0,0.5
0.0,16,1.2387097687921624,0,0,0,0.5
0.0,16,6.233405693698163,0,0,0,0.5
0.0,16,11.228207700106044,0,0,0,0.5
0.0,16,16.223113666385768,0,0,0,0.5
0.0,16,21.218121513339895,0,0,0,0.5
0.0,16,26.213229203354942,0,0,0,0.5
0.0,16,31.208434739569686,0,0,0,0.5
0.0,16,36.203736165060135,0,0,0,0.5
0.0,16,41.199131562040776,0,0,0,0.5
0.0,16,46.1946190510818,0,0,0,0.5
0.0,16,51.19019679034201,0,0,0,0.5
0.0,16,56.18586297481701,0,0,0,0.5
0.0,16,61.181615835602514,0,0,0,0.5
0.0,16,66.17745363917231,0,0,0,0.5
0.0,17,0.4875399809003653,0,0,0,0.5
0.0,17,5.483542607448795,0,0,0,0.5
0.0,17,10.479625181466258,0,0,0,0.5
0.0,17,15.475786104003369,0,0,0,0.5
0.0,17,20.472023808089737,0,0,0,0.5
0.0,17,25.46833675809438,0,0,0,0.5
0.0,17,30.46472344909893,0,0,0,0.5
0.0,17,35.461182406283385,0,0,0,0.5
0.0,17,40.45771218432415,0,0,0,0.5
0.0,17,45.454311366804106,0,0,0,0.5
0.0,17,50.45097856563446,0,0,0,0.5
0.0,17,55.4477124204882,0,0,0,0.5
0.0,17,60.44451159824487,0,0,0,0.5
0.0,17,65.44137479244641,0,0,0,0.5
0.0,17,70.43830072276391,0,0,0,0.5
0.0,18,4.749453428704726,0,0,0,0.5
0.0,18,9.74650109218166,0,0,0,0.5
0.0,18,14.743607802389057,0,0,0,0.5
0.0,18,19.740772378392307,0,0,0,0.5
0.0,18,24.73799366287549,0,0,0,0.5
0.0,18,29.73527052166901,0,0,0,0.5
0.0,18,34.73260184328666,0,0,0,0.5
0.0,18,39.729986538471955,0,0,0,0.5
0.0,18,44.727423539753545,0,0,0,0.5
0.0,18,49.724911801009505,0,0,0,0.5
0.0,18,54.722450297040346,0,0,0,0.5
0.0,18,59.72003802315057,0,0,0,0.5
0.0,18,64.71767399473859,0,0,0,0.5
0.0,18,69.71535724689485,0,0,0,0.5
0.0,18,74.71308683400798,0,0,0,0.5
0.0,18,79.71086182937886,0,0,0,0.5
0.0,18,84.7086813248423,0,0,0,0.5
0.0,18,89.70654443039649,0,0,0,0.5
0.0,18,94.7044502738396,0,0,0,0.5
0.0,18,99.70239800041384,0,0,0,0.5
0.0,19,4.700386772456596,0,0,0,0.5
0.0,19,9.698415769058496,0,0,0,0.5
0.0,19,14.696484185728357,0,0,0,0.5
0.0,19,19.69459123406482,0,0,0,0.5
0.0,19,24.692736141434555,0,0,0,0.5
0.0,19,29.690918150656895,0,0,0,0.5
0.0,19,34.689136519694785,0,0,0,0.5
0.0,19,39.68739052135192,0,0,0,0.5
0.0,19,44.68567944297592,0,0,0,0.5
0.0,19,49.68400258616743,0,0,0,0.5
0.0,19,54.68235926649511,0,0,0,0.5
0.0,19,59.68074881321624,0,0,0,0.5
0.0,19,64.67917056900295,0,0,0,0.5
0.0,19,69.67762388967392,0,0,0,0.5
0.0,19,74.67610814393147,0,0,0,0.5
0.0,19,79.67462271310387,0,0,0,0.5
0.0,19,84.67316699089282,0,0,0,0.5
0.0,20,3.277942409406677,0,0,0,0.5
0.0,20,8.276544333795187,0,0,0,0.5
0.0,20,13.275174219695925,0,0,0,0.5
0.0,20,18.273831507878647,0,0,0,0.5
0.0,20,23.272515650297716,0,0,0,0.5
0.0,20,28.271226109868405,0,0,0,0.5
0.0,20,33.26996236024768,0,0,0,0.5
0.0,20,38.26872388561937,0,0,0,0.5
0.0,20,43.267510180483626,0,0,0,0.5
0.0,20,48.2663207494506,0,0,0,0.5
0.0,20,53.26515510703823,0,0,0,0.5
0.0,20,58.26401277747411,0,0,0,0.5
0.0,20,63.26289329450127,0,0,0,0.5
0.0,20,68.26179620118789,0,0,0,0.5
0.0,20,73.26072104974078,0,0,0,0.5
0.0,20,78.25966740132262,0,0,0,0.5
0.0,20,83.2586348258728,0,0,0,0.5
0.0,21,1.8638249282126793,0,0,0,0.5
0.0,21,6.862833242750684,0,0,0,0.5
0.0,21,11.861861390997928,0,0,0,0.5
0.0,21,16.86090897628023,0,0,0,0.5
0.0,21,21.859975609856882,0,0,0,0.5
0.0,21,26.859060910762004,0,0,0,0.5
0.0,21,31.85816450564902,0,0,0,0.5
0.0,21,36.8572860286383,0,0,0,0.5
0.0,21,41.85642512116779,0,0,0,0.5
0.0,21,46.855581431846694,0,0,0,0.5
0.0,21,51.85475461631202,0,0,0,0.5
0.0,21,56.85394433708804,0,0,0,0.5
0.0,21,61.85315026344853,0,0,0,0.5
0.0,21,66.85237207128182,0,0,0,0.5
0.0,21,71.85160944295845,0,0,0,0.5
0.0,21,76.85086206720153,0,0,0,0.5
0.0,21,81.85012963895976,0,0,0,0.5
0.0,22,0.45561388556350835,0,0,0,0.5
0.0,22,5.454910461480112,0,0,0,0.5
0.0,22,10.454221105878382,0,0,0,0.5
0.0,22,15.453545537388688,0,0,0,0.5
0.0,22,20.452883480268788,0,0,0,0.5
0.0,22,25.452234664291286,0,0,0,0.5
0.0,22,30.451598824633333,0,0,0,0.5
0.0,22,35.45097570176854,0,0,0,0.5
0.0,22,40.450365041361046,0,0,0,0.5
0.0,22,45.449766594161694,0,0,0,0.5
0.0,22,50.44918011590633,0,0,0,0.5
0.0,22,55.448605367216075,0,0,0,0.5
0.0,22,60.448042113499625,0,0,0,0.5
0.0,22,65.44749012485751,0,0,0,0.5
0.0,22,70.44694917598824,0,0,0,0.5
0.0,22,75.44641904609635,0,0,0,0.5
0.0,22,80.44589951880229,0,0,0,0.5
0.0,22,85.44539038205411,0,0,0,0.5
0.0,23,4.051093454321588,0,0,0,0.5
0.0,23,9.050604479388644,0,0,0,0.5
0.0,23,14.050125283954358,0,0,0,0.5
0.0,23,19.04965567242876,0,0,0,0.5
0.0,23,24.04919545313367,0,0,0,0.5
0.0,23,29.048744438224485,0,0,0,0.5
0.0,23,34.04830244361348,0,0,0,0.5
0.0,23,39.047869288894695,0,0,0,0.5
0.0,23,44.04744479727029,0,0,0,0.5
0.0,23,49.04702879547837,0,0,0,0.5
0.0,23,54.04662111372229,0,0,0,0.5
0.0,23,59.04622158560133,0,0,0,0.5
0.0,23,64.04583004804279,0,0,0,0.5
0.0,23,69.04544634123542,0,0,0,0.5
0.0,23,74.04507030856419,0,0,0,0.5
0.0,23,79.04470179654639,0,0,0,0.5
0.0,24,1.5775334980368712,0,0,0,0.5
0.0,24,6.577179579094979,0,0,0,0.5
0.0,24,11.576832738531925,0,0,0,0.5
0.0,24,16.576492834780133,0,0,0,0.5
0.0,24,21.576159729103377,0,0,0,0.5
0.0,24,26.575833285540156,0,0,0,0.5
0.0,24,31.5755133708482,0,0,0,0.5
0.0,24,36.575199854450084,0,0,0,0.5
0.0,24,41.574892608379926,0,0,0,0.5
0.0,24,46.574591507231176,0,0,0,0.5
0.0,24,51.5742964281054,0,0,0,0.5
0.0,24,56.57400725056213,0,0,0,0.5
0.0,24,61.573723856569735,0,0,0,0.5
0.0,24,66.57344613045719,0,0,0,0.5
0.0,24,71.57317395886689,0,0,0,0.5
0.0,25,1.9600817079508062,0,0,0,0.5
0.0,25,6.9598203143554835,0,0,0,0.5
0.0,25,11.959564148632067,0,0,0,0.5
0.0,25,16.95931310622312,0,0,0,0.5
0.0,25,21.95906708466235,0,0,0,0.5
0.0,25,26.958825983532797,0,0,0,0.5
0.0,25,31.958589704425833,0,0,0,0.5
0.0,25,36.958358150901006,0,0,0,0.5
0.0,25,41.95813122844668,0,0,0,0.5
0.0,25,46.95790884444144,0,0,0,0.5
0.0,25,51.957690908116305,0,0,0,0.5
0.0,25,56.957477330517676,0,0,0,0.5
0.0,25,61.95726802447102,0,0,0,0.5
0.0,25,66.9570629045453,0,0,0,0.5
0.0,25,71.95686188701808,0,0,0,0.5
0.0,25,76.9566648898414,0,0,0,0.5
0.0,25,81.95647183260827,0,0,0,0.5
0.0,25,86.9562826365198,0,0,0,0.5
0.0,25,91.9560972243531,0,0,0,0.5
0.0,25,96.95591552042973,0,0,0,0.5
0.0,26,1.9557374505848202,0,0,0,0.5
0.0,26,6.955562942136817,0,0,0,0.5
0.0,26,11.955391923857775,0,0,0,0.5
0.0,26,16.955224325944315,0,0,0,0.5
0.0,26,21.95506007998912,0,0,0,0.5
0.0,26,26.95489911895303,0,0,0,0.5
0.0,26,31.954741377137662,0,0,0,0.5
0.0,26,36.9545867901586,0,0,0,0.5
0.0,26,41.95443529491912,0,0,0,0.5
0.0,26,46.95428682958443,0,0,0,0.5
0.0,26,51.954141333556436,0,0,0,0.5
0.0,26,56.953998747449,0,0,0,0.5
0.0,26,61.95385901306371,0,0,0,0.5
0.0,26,66.95372207336614,0,0,0,0.5
0.0,26,71.9535878724625,0,0,0,0.5
0.0,26,76.95345635557695,0,0,0,0.5
0.0,26,81.9533274690291,0,0,0,0.5
0.0,27,0.5594031864929008,0,0,0,0.5
0.0,27,5.55927940385235,0,0,0,0.5
0.0,27,10.55915809686461,0,0,0,0.5
0.0,27,15.559039216016625,0,0,0,0.5
0.0,27,20.5589227127856,0,0,0,0.5
0.0,27,25.558808539619193,0,0,0,0.5
0.0,27,30.558696649916115,0,0,0,0.5
0.0,27,35.5585869980071,0,0,0,0.5
0.0,27,40.558479539136265,0,0,0,0.5
0.0,27,45.55837422944285,0,0,0,0.5
0.0,27,50.5582710259433,0,0,0,0.5
0.0,27,55.55816988651374,0,0,0,0.5
0.0,27,60.55807076987277,0,0,0,0.5
0.0,27,65.55797363556462,0,0,0,0.5
0.0,27,70.55787844394264,0,0,0,0.5
0.0,27,75.5577851561531,0,0,0,0.5
0.0,27,80.55769373411934,0,0,0,0.5
0.0,27,85.55760414052627,0,0,0,0.5
0.0,28,4.163718365085728,0,0,0,0.5
0.0,28,9.163632319398934,0,0,0,0.5
0.0,28,14.163547994625876,0,0,0,0.5
0.0,28,19.16346535634828,0,0,0,0.5
0.0,28,24.163384370836233,0,0,0,0.5
0.0,28,29.16330500503443,0,0,0,0.5
0.0,28,34.16322722654866,0,0,0,0.5
0.0,28,39.16315100363261,0,0,0,0.5
0.0,28,44.16307630517488,0,0,0,0.5
0.0,28,49.1630031006863,0,0,0,0.5
0.0,28,54.1629313602875,0,0,0,0.5
0.0,28,59.16286105469667,0,0,0,0.5
0.0,29,2.1627921552176588,0,0,0,0.5
0.0,29,7.162724633728226,0,0,0,0.5
0.0,29,12.162658462668581,0,0,0,0.5
0.0,29,17.16259361503013,0,0,0,0.5
0.0,29,22.16253006434445,0,0,0,0.5
0.0,29,27.16246778467248,0,0,0,0.5
0.0,29,32.16240675059395,0,0,0,0.5
0.0,29,37.16234693719699,0,0,0,0.5
0.0,29,42.16228832006797,0,0,0,0.5
0.0,29,47.16223087528154,0,0,0,0.5
0.0,29,52.16217457939083,0,0,0,0.5
0.0,29,57.16211940941793,0,0,0,0.5
0.0,29,62.16206534284449,0,0,0,0.5
0.0,29,67.16201235760252,0,0,0,0.5
0.0,30,1.476125726295038,0,0,0,0.5
0.0,30,6.476074839268651,0,0,0,0.5
0.0,30,11.476024969982792,0,0,0,0.5
0.0,30,16.475976098082647,0,0,0,0.5
0.0,30,21.475928203620505,0,0,0,0.5
0.0,30,26.47588126704761,0,0,0,0.5
0.0,30,31.47583526920617,0,0,0,0.5
0.0,30,36.47579019132156,0,0,0,0.5
0.0,30,41.47574601499464,0,0,0,0.5
0.0,30,46.475702722194264,0,0,0,0.5
0.0,30,51.47566029524989,0,0,0,0.5
0.0,30,56.4756187168444,0,0,0,0.5
0.0,30,61.47557797000702,0,0,0,0.5
0.0,30,66.4755380381064,0,0,0,0.5
0.0,31,0.7896641990734281,0,0,0,0.5
0.0,31,5.7896258484760645,0,0,0,0.5
0.0,31,10.789588264890648,0,0,0,0.5
0.0,31,15.789551432976939,0,0,0,0.5
0.0,31,20.789515337701506,0,0,0,0.5
0.0,31,25.78947996433158,0,0,0,0.5
0.0,31,30.78944529842905,0,0,0,0.5
0.0,31,35.789411325844576,0,0,0,0.5
0.0,31,40.78937803271179,0,0,0,0.5
0.0,31,45.78934540544166,0,0,0,0.5
0.0,31,50.78931343071693,0,0,0,0.5
0.0,31,55.7892820954867,0,0,0,0.5
0.0,31,60.78925138696107,0,0,0,0.5
0.0,31,65.78922129260596,0,0,0,0.5
0.0,31,70.78919180013794,0,0,0,0.5
0.0,31,75.78916289751929,0,0,0,0.5
0.0,31,80.789134572953,0,0,0,0.5
0.0,31,85.78910681487805,0,0,0,0.5
0.0,32,4.3952816382452795,0,0,0,0.5
0.0,32,9.395254979390092,0,0,0,0.5
0.0,32,14.395228853712009,0,0,0,0.5
0.0,32,19.39520325054749,0,0,0,0.5
0.0,32,24.395178159446257,0,0,0,0.5
0.0,32,29.39515357016705,0,0,0,0.5
0.0,32,34.395129472673425,0,0,0,0.5
0.0,32,39.39510585712968,0,0,0,0.5
0.0,32,44.395082713896805,0,0,0,0.5
0.0,32,49.39506003352859,0,0,0,0.5
0.0,32,54.39503780676773,0,0,0,0.5
0.0,32,59.395016024542095,0,0,0,0.5
0.0,32,64.39499467796097,0,0,0,0.5
0.0,32,69.39497375831147,0,0,0,0.5
0.0,32,74.39495325705495,0,0,0,0.5
0.0,32,79.39493316582357,0,0,0,0.5
0.0,32,84.39491347641682,0,0,0,0.5
0.0,33,3.001096207078888,0,0,0,0.5
0.0,33,8.001077297372643,0,0,0,0.5
0.0,33,13.001058765860522,0,0,0,0.5
0.0,33,18.001040604978645,0,0,0,0.5
0.0,33,23.001022807314403,0,0,0,0.5
0.0,33,28.001005365603447,0,0,0,0.5
0.0,33,33.00098827272671,0,0,0,0.5
0.0,33,38.000971521707505,0,0,0,0.5
0.0,33,43.000955105708684,0,0,0,0.5
0.0,33,48.00093901802984,0,0,0,0.5
0.0,33,53.00092325210458,0,0,0,0.5
0.0,33,58.00090780149782,0,0,0,0.5
0.0,33,63.000892659903194,0,0,0,0.5
0.0,33,68.00087782114046,0,0,0,0.5
0.0,33,73.00086327915298,0,0,0,0.5
0.0,33,78.00084902800525,0,0,0,0.5
0.0,33,83.00083506188048,0,0,0,0.5
0.0,34,1.6070234013588873,0,0,0,0.5
0.0,34,6.607009988292656,0,0,0,0.5
0.0,34,11.60699684348775,0,0,0,0.5
0.0,34,16.60698396157894,0,0,0,0.5
0.0,34,21.60697133730831,0,0,0,0.5
0.0,34,26.60695896552309,0,0,0,0.5
0.0,34,31.606946841173578,0,0,0,0.5
0.0,34,36.606934959311054,0,0,0,0.5
0.0,34,41.60692331508578,0,0,0,0.5
0.0,34,46.606911903745015,0,0,0,0.5
0.0,34,51.60690072063106,0,0,0,0.5
0.0,34,56.60688976117939,0,0,0,0.5
0.0,34,61.60687902091675,0,0,0,0.5
0.0,34,66.60686849545937,0,0,0,0.5
0.0,34,71.60685818051113,0,0,0,0.5
0.0,34,76.60684807186185,0,0,0,0.5
0.0,34,81.60683816538555,0,0,0,0.5
0.0,35,0.2130304833194714,0,0,0,0.5
0.0,35,5.2130209691396425,0,0,0,0.5
0.0,35,10.21301164524341,0,0,0,0.5
0.0,35,15.213002507825102,0,0,0,0.5
0.0,35,20.21299355315516,0,0,0,0.5
0.0,35,25.21298477757862,0,0,0,0.5
0.0,35,30.212976177513607,0,0,0,0.5
0.0,35,35.212967749449895,0,0,0,0.5
0.0,35,40.21295948994746,0,0,0,0.5
0.0,35,45.21295139563507,0,0,0,0.5
0.0,35,50.21294346320893,0,0,0,0.5
0.0,35,55.21293568943131,0,0,0,0.5
0.0,35,60.21292807112925,0,0,0,0.5
0.0,35,65.21292060519322,0,0,0,0.5
0.0,35,70.21291328857592,0,0,0,0.5
0.0,35,75.21290611829096,0,0,0,0.5
0.0,35,80.2128990914117,0,0,0,0.5
0.0,35,85.21289220507002,0,0,0,0.5
0.0,35,90.21288545645518,0,0,0,0.5
0.0,35,95.21287884281264,0,0,0,0.5
0.0,36,0.21287236144294752,0,0,0,0.5
0.0,36,5.212866009700648,0,0,0,0.5
0.0,36,10.212859784993196,0,0,0,0.5
0.0,36,15.21285368477989,0,0,0,0.5
0.0,36,20.21284770657085,0,0,0,0.5
0.0,36,25.212841847925993,0,0,0,0.5
0.0,36,30.212836106454034,0,0,0,0.5
0.0,36,35.212830479811515,0,0,0,0.5
0.0,36,40.21282496570184,0,0,0,0.5
0.0,36,45.21281956187436,0,0,0,0.5
0.0,36,50.21281426612343,0,0,0,0.5
0.0,36,55.21280907628752,0,0,0,0.5
0.0,36,60.21280399024833,0,0,0,0.5
0.0,36,65.21279900592992,0,0,0,0.5
0.0,36,70.21279412129789,0,0,0,0.5
0.0,36,75.21278933435849,0,0,0,0.5
0.0,36,80.21278464315787,0,0,0,0.5
0.0,36,85.21278004578127,0,0,0,0.5
0.0,36,90.21277554035221,0,0,0,0.5
0.0,36,95.21277112503172,0,0,0,0.5
0.0,37,0.21276679801763976,0,0,0,0.5
0.0,37,5.212762557543846,0,0,0,0.5
0.0,37,10.21275840187953,0,0,0,0.5
0.0,37,15.212754329328497,0,0,0,0.5
0.0,37,20.21275033822849,0,0,0,0.5
0.0,37,25.212746426950478,0,0,0,0.5
0.0,37,30.212742593898028,0,0,0,0.5
0.0,37,35.21273883750663,0,0,0,0.5
0.0,37,40.212735156243056,0,0,0,0.5
0.0,37,45.21273154860476,0,0,0,0.5
0.0,37,50.212728013119225,0,0,0,0.5
0.0,37,55.2127245483434,0,0,0,0.5
0.0,37,60.2127211528631,0,0,0,0.5
0.0,37,65.2127178252924,0,0,0,0.5
0.0,37,70.21271456427311,0,0,0,0.5
0.0,37,75.21271136847422,0,0,0,0.5
0.0,37,80.2127082365913,0,0,0,0.5
0.0,37,85.21270516734603,0,0,0,0.5
0.0,37,90.21270215948567,0,0,0,0.5
0.0,37,95.21269921178252,0,0,0,0.5
0.0,38,0.2126963230334269,0,0,0,0.5
0.0,38,5.21269349205932,0,0,0,0.5
0.0,38,10.212690717704696,0,0,0,0.5
0.0,38,15.212687998837165,0,0,0,0.5
0.0,38,20.212685334346983,0,0,0,0.5
0.0,38,25.212682723146607,0,0,0,0.5
0.0,38,30.212680164170237,0,0,0,0.5
0.0,38,35.212677656373394,0,0,0,0.5
0.0,38,40.21267519873249,0,0,0,0.5
0.0,38,45.212672790244405,0,0,0,0.5
0.0,38,50.21267042992608,0,0,0,0.5
0.0,38,55.212668116814115,0,0,0,0.5
0.0,38,60.212665849964395,0,0,0,0.5
0.0,38,65.21266362845166,0,0,0,0.5
0.0,38,70.2126614513692,0,0,0,0.5
0.0,38,75.21265931782838,0,0,0,0.5
0.0,38,80.21265722695837,0,0,0,0.5
0.0,38,85.21265517790576,0,0,0,0.5
0.0,38,90.21265316983421,0,0,0,0.5
0.0,38,95.21265120192409,0,0,0,0.5
0.0,39,0.21264927337216477,0,0,0,0.5
0.0,39,5.212647383391283,0,0,0,0.5
0.0,39,10.212645531210018,0,0,0,0.5
0.0,39,15.212643716072378,0,0,0,0.5
0.0,39,20.212641937237493,0,0,0,0.5
0.0,39,25.212640193979304,0,0,0,0.5
0.0,39,30.21263848558628,0,0,0,0.5
0.0,39,35.212636811361115,0,0,0,0.5
0.0,39,40.21263517062045,0,0,0,0.5
0.0,39,45.212633562694606,0,0,0,0.5
0.0,39,50.21263198692728,0,0,0,0.5
0.0,39,55.21263044267529,0,0,0,0.5
0.0,39,60.212628929308345,0,0,0,0.5
0.0,39,65.21262744620874,0,0,0,0.5
0.0,39,70.21262599277112,0,0,0,0.5
0.0,39,75.21262456840226,0,0,0,0.5
0.0,39,80.21262317252078,0,0,0,0.5
0.0,39,85.21262180455692,0,0,0,0.5
0.0,0,0.2126204639523337,0,0,1,0.5
0.0,0,5.212619150159847,0,0,1,0.5
0.0,0,10.21261786264321,0,0,1,0.5
0.0,0,15.212616600876906,0,0,1,0.5
0.0,0,20.21261536434593,0,0,1,0.5
0.0,0,25.21261415254557,0,0,1,0.5
0.0,0,30.21261296498122,0,0,1,0.5
0.0,0,35.21261180116815,0,0,1,0.5
0.0,0,40.21261066063135,0,0,1,0.5
0.0,0,45.212609542905284,0,0,1,0.5
0.0,0,50.21260844753374,0,0,1,0.5
0.0,0,55.21260737406962,0,0,1,0.5
0.0,0,60.212606322074784,0,0,1,0.5
0.0,0,65.21260529111984,0,0,1,0.5
0.0,0,70.212604280784,0,0,1,0.5
0.0,0,75.21260329065488,0,0,1,0.5
0.0,0,80.21260232032834,0,0,1,0.5
0.0,0,85.21260136940833,0,0,1,0.5
0.0,0,90.21260043750672,0,0,1,0.5
0.0,0,95.21259952424315,0,0,1,0.5
0.0,1,0.2125986292448374,0,0,1,0.5
0.0,1,5.2125977521464995,0,0,1,0.5
0.0,1,10.212596892590128,0,0,1,0.5
0.0,1,15.212596050224885,0,0,1,0.5
0.0,1,20.212595224706945,0,0,1,0.5
0.0,1,25.212594415699364,0,0,1,0.5
0.0,1,30.212593622871935,0,0,1,0.5
0.0,1,35.21259284590106,0,0,1,0.5
0.0,1,40.21259208446959,0,0,1,0.5
0.0,1,45.21259133826676,0,0,1,0.5
0.0,1,50.21259060698799,0,0,1,0.5
0.0,1,55.21258989033478,0,0,1,0.5
0.0,1,60.21258918801465,0,0,1,0.5
0.0,1,65.21258849974092,0,0,1,0.5
0.0,1,70.21258782523266,0,0,1,0.5
0.0,1,75.21258716421457,0,0,1,0.5
0.0,1,80.21258651641683,0,0,1,0.5
0.0,1,85.21258588157505,0,0,1,0.5
0.0,1,90.21258525943011,0,0,1,0.5
0.0,1,95.21258464972807,0,0,1,0.5
0.0,2,0.21258405222006616,0,0,1,0.5
0.0,2,5.212583466662224,0,0,1,0.5
0.0,2,10.212582892815538,0,0,1,0.5
0.0,2,15.212582330445787,0,0,1,0.5
0.0,2,20.21258177932343,0,0,1,0.5
0.0,2,25.212581239223518,0,0,1,0.5
0.0,2,30.212580709925607,0,0,1,0.5
0.0,2,35.212580191213654,0,0,1,0.5
0.0,2,40.21257968287594,0,0,1,0.5
0.0,2,45.21257918470498,0,0,1,0.5
0.0,2,50.21257869649744,0,0,1,0.5
0.0,2,55.21257821805405,0,0,1,0.5
0.0,2,60.21257774917952,0,0,1,0.5
0.0,2,65.21257728968249,0,0,1,0.5
0.0,2,70.2125768393754,0,0,1,0.5
0.0,2,75.21257639807445,0,0,1,0.5
0.0,2,80.21257596559951,0,0,1,0.5
0.0,2,85.21257554177409,0,0,1,0.5
0.0,2,90.21257512642516,0,0,1,0.5
0.0,2,95.21257471938321,0,0,1,0.5
0.0,3,0.2125743204821049,0,0,1,0.5
0.0,3,5.212573929559021,0,0,1,0.5
0.0,3,10.212573546454397,0,0,1,0.5
0.0,3,15.212573171011867,0,0,1,0.5
0.0,3,20.21257280307819,0,0,1,0.5
0.0,3,25.21257244250318,0,0,1,0.5
0.0,3,30.212572089139673,0,0,1,0.5
0.0,3,35.21257174284344,0,0,1,0.5
0.0,3,40.21257140347313,0,0,1,0.5
0.0,3,45.21257107089022,0,0,1,0.5
0.0,3,50.212570744958974,0,0,1,0.5
0.0,3,55.21257042554635,0,0,1,0.5
0.0,3,60.21257011252198,0,0,1,0.5
0.0,3,65.2125698057581,0,0,1,0.5
0.0,3,70.2125695051295,0,0,1,0.5
0.0,3,75.21256921051346,0,0,1,0.5
0.0,3,80.21256892178975,0,0,1,0.5
0.0,3,85.21256863884051,0,0,1,0.5
0.0,3,90.21256836155025,0,0,1,0.5
0.0,3,95.2125680898058,0,0,1,0.5
0.0,4,0.2125678234962436,0,0,1,0.5
0.0,4,5.2125675625128745,0,0,1,0.5
0.0,4,10.212567306749172,0,0,1,0.5
0.0,4,15.212567056100745,0,0,1,0.5
0.0,4,20.212566810465287,0,0,1,0.5
0.0,4,25.21256656974254,0,0,1,0.5
0.0,4,30.212566333834243,0,0,1,0.5
0.0,4,35.21256610264412,0,0,1,0.5
0.0,4,40.21256587607779,0,0,1,0.5
0.0,4,45.21256565404279,0,0,1,0.5
0.0,4,50.21256543644849,0,0,1,0.5
0.0,4,55.21256522320608,0,0,1,0.5
0.0,4,60.21256501422851,0,0,1,0.5
0.0,4,65.21256480943049,0,0,1,0.5
0.0,4,70.21256460872843,0,0,1,0.5
0.0,4,75.21256441204042,0,0,1,0.5
0.0,4,80.21256421928616,0,0,1,0.5
0.0,4,85.212564030387,0,0,1,0.5
0.0,5,3.8187658715465034,0,0,1,0.5
0.0,5,8.818765690127742,0,0,1,0.5
0.0,5,13.818765512337357,0,0,1,0.5
0.0,5,18.81876533810278,0,0,1,0.5
0.0,5,23.818765167352893,0,0,1,0.5
0.0,5,28.818765000018004,0,0,1,0.5
0.0,5,33.818764836029814,0,0,1,0.5
0.0,5,38.81876467532139,0,0,1,0.5
0.0,5,43.818764517827134,0,0,1,0.5
0.0,5,48.818764363482764,0,0,1,0.5
0.0,5,53.818764212225275,0,0,1,0.5
0.0,5,58.81876406399294,0,0,1,0.5
0.0,5,63.818763918725246,0,0,1,0.5
0.0,5,68.81876377636291,0,0,1,0.5
0.0,5,73.81876363684782,0,0,1,0.5
0.0,5,78.81876350012303,0,0,1,0.5
0.0,5,83.81876336613274,0,0,1,0.5
0.0,6,2.4249652611029404,0,0,1,0.5
0.0,6,7.424965132418665,0,0,1,0.5
0.0,6,12.424965006308074,0,0,1,0.5
0.0,6,17.424964882719696,0,0,1,0.5
0.0,6,22.424964761603086,0,0,1,0.5
0.0,6,27.424964642908808,0,0,1,0.5
0.0,6,32.42496452658842,0,0,1,0.5
0.0,6,37.424964412594434,0,0,1,0.5
0.0,6,42.424964300880326,0,0,1,0.5
0.0,6,47.424964191400505,0,0,1,0.5
0.0,6,52.42496408411028,0,0,1,0.5
0.0,6,57.424963978965856,0,0,1,0.5
0.0,6,62.42496387592432,0,0,1,0.5
0.0,6,67.42496377494362,0,0,1,0.5
0.0,6,72.42496367598253,0,0,1,0.5
0.0,6,77.42496357900066,0,0,1,0.5
0.0,6,82.42496348395844,0,0,1,0.5
0.0,7,1.0311654170977391,0,0,1,0.5
0.0,7,6.031165325819182,0,0,1,0.5
0.0,7,11.031165236366196,0,0,1,0.5
0.0,7,16.031165148702268,0,0,1,0.5
0.0,7,21.03116506279162,0,0,1,0.5
0.0,7,26.031164978599183,0,0,1,0.5
0.0,7,31.031164896090594,0,0,1,0.5
0.0,7,36.03116481523218,0,0,1,0.5
0.0,7,41.031164735990934,0,0,1,0.5
0.0,7,46.03116465833451,0,0,1,0.5
0.0,7,51.03116458223122,0,0,1,0.5
0.0,7,56.03116450764999,0,0,1,0.5
0.0,7,61.03116443456039,0,0,1,0.5
0.0,7,66.03116436293257,0,0,1,0.5
0.0,7,71.03116429273732,0,0,1,0.5
0.0,7,76.03116422394596,0,0,1,0.5
0.0,7,81.03116415653044,0,0,1,0.5
0.0,7,86.03116409046322,0,0,1,0.5
0.0,8,4.637366051998043,0,0,1,0.5
0.0,8,9.637365988547092,0,0,1,0.5
0.0,8,14.63736592636516,0,0,1,0.5
0.0,8,19.637365865426865,0,0,1,0.5
0.0,8,24.63736580570734,0,0,1,0.5
0.0,8,29.6373657471822,0,0,1,0.5
0.0,8,34.63736568982757,0,0,1,0.5
0.0,8,39.63736563362003,0,0,1,0.5
0.0,8,44.63736557853664,0,0,1,0.5
0.0,8,49.637365524554916,0,0,1,0.5
0.0,8,54.63736547165283,0,0,1,0.5
0.0,8,59.63736541980878,0,0,1,0.5
0.0,8,64.63736536900161,0,0,1,0.5
0.0,8,69.63736531921059,0,0,1,0.5
0.0,8,74.63736527041539,0,0,1,0.5
0.0,8,79.63736522259609,0,0,1,0.5
0.0,9,2.1705580190011062,0,0,1,0.5
0.0,9,7.170557973075453,0,0,1,0.5
0.0,9,12.170557928068312,0,0,1,0.5
0.0,9,17.170557883961315,0,0,1,0.5
0.0,9,22.170557840736457,0,0,1,0.5
0.0,9,27.170557798376095,0,0,1,0.5
0.0,9,32.17055775686294,0,0,1,0.5
0.0,9,37.17055771618005,0,0,1,0.5
0.0,9,42.170557676310814,0,0,1,0.5
0.0,9,47.170557637238964,0,0,1,0.5
0.0,9,52.170557598948555,0,0,1,0.5
0.0,9,57.170557561423955,0,0,1,0.5
0.0,9,62.170557524649844,0,0,1,0.5
0.0,9,67.17055748861121,0,0,1,0.5
0.0,9,72.17055745329336,0,0,1,0.5
0.0,9,77.17055741868185,0,0,1,0.5
0.0,9,82.17055738476259,0,0,1,0.5
0.0,9,87.17055735152171,0,0,1,0.5
0.0,9,92.17055731894564,0,0,1,0.5
0.0,9,97.1705572870211,0,0,1,0.5
0.0,10,2.170557255735048,0,0,1,0.5
0.0,10,7.170557225074715,0,0,1,0.5
0.0,10,12.170557195027587,0,0,1,0.5
0.0,10,17.170557165581403,0,0,1,0.5
0.0,10,22.170557136724142,0,0,1,0.5
0.0,10,27.170557108444026,0,0,1,0.5
0.0,10,32.170557080729516,0,0,1,0.5
0.0,10,37.1705570535693,0,0,1,0.5
0.0,10,42.17055702695228,0,0,1,0.5
0.0,10,47.1705570008676,0,0,1,0.5
0.0,10,52.17055697530462,0,0,1,0.5
0.0,10,57.170556950252895,0,0,1,0.5
0.0,10,62.17055692570221,0,0,1,0.5
0.0,10,67.17055690164253,0,0,1,0.5
0.0,10,72.17055687806405,0,0,1,0.5
0.0,10,77.17055685495714,0,0,1,0.5
0.0,10,82.17055683231237,0,0,1,0.5
0.0,10,87.17055681012049,0,0,1,0.5
0.0,10,92.17055678837245,0,0,1,0.5
0.0,10,97.17055676705937,0,0,1,0.5
0.0,11,2.170556746172551,0,0,1,0.5
0.0,11,7.1705567257034675,0,0,1,0.5
0.0,11,12.170556705643765,0,0,1,0.5
0.0,11,17.170556685985257,0,0,1,0.5
0.0,11,22.170556666719918,0,0,1,0.5
0.0,11,27.170556647839888,0,0,1,0.5
0.0,11,32.170556629337455,0,0,1,0.5
0.0,11,37.17055661120507,0,0,1,0.5
0.0,11,42.170556593435336,0,0,1,0.5
0.0,11,47.170556576021,0,0,1,0.5
0.0,11,52.17055655895495,0,0,1,0.5
0.0,11,57.170556542230216,0,0,1,0.5
0.0,11,62.17055652583998,0,0,1,0.5
0.0,11,67.17055650977754,0,0,1,0.5
0.0,11,72.17055649403636,0,0,1,0.5
0.0,12,2.5577309558524064,0,0,1,0.5
0.0,12,7.557730940734574,0,0,1,0.5
0.0,12,12.557730925919099,0,0,1,0.5
0.0,12,17.557730911399933,0,0,1,0.5
0.0,12,22.55773089717115,0,0,1,0.5
0.0,12,27.557730883226945,0,0,1,0.5
0.0,12,32.557730869561624,0,0,1,0.5
0.0,12,37.557730856169606,0,0,1,0.5
0.0,12,42.557730843045434,0,0,1,0.5
0.0,12,47.55773083018374,0,0,1,0.5
0.0,12,52.557730817579284,0,0,1,0.5
0.0,12,57.55773080522692,0,0,1,0.5
0.0,12,62.55773079312159,0,0,1,0.5
0.0,12,67.55773078125839,0,0,1,0.5
0.0,12,72.55773076963243,0,0,1,0.5
0.0,12,77.557730758239,0,0,1,0.5
0.0,12,82.55773074707344,0,0,1,0.5
0.0,12,87.55773073613119,0,0,1,0.5
0.0,12,92.55773072540778,0,0,1,0.5
0.0,12,97.55773071489884,0,0,1,0.5
0.0,13,2.5577307046000755,0,0,1,0.5
0.0,13,7.557730694507291,0,0,1,0.5
0.0,13,12.557730684616363,0,0,1,0.5
0.0,13,17.557730674923253,0,0,1,0.5
0.0,13,22.557730665424003,0,0,1,0.5
0.0,13,27.55773065611474,0,0,1,0.5
0.0,13,32.55773064699166,0,0,1,0.5
0.0,13,37.55773063805104,0,0,1,0.5
0.0,13,42.55773062928924,0,0,1,0.5
0.0,13,47.55773062070267,0,0,1,0.5
0.0,13,52.557730612287834,0,0,1,0.5
0.0,13,57.557730604041296,0,0,1,0.5
0.0,13,62.55773059595968,0,0,1,0.5
0.0,13,67.5577305880397,0,0,1,0.5
0.0,13,72.55773058027813,0,0,1,0.5
0.0,13,77.55773057267179,0,0,1,0.5
0.0,13,82.55773056521757,0,0,1,0.5
0.0,13,87.55773055791244,0,0,1,0.5
0.0,13,92.5577305507534,0,0,1,0.5
0.0,13,97.55773054373755,0,0,1,0.5
0.0,14,2.5577305368620102,0,0,1,0.5
0.0,14,7.557730530123986,0,0,1,0.5
0.0,14,12.557730523520721,0,0,1,0.5
0.0,14,17.55773051704952,0,0,1,0.5
0.0,14,22.557730510707746,0,0,1,0.5
0.0,14,27.557730504492806,0,0,1,0.5
0.0,14,32.557730498402165,0,0,1,0.5
0.0,14,37.557730492433336,0,0,1,0.5
0.0,14,42.557730486583885,0,0,1,0.5
0.0,14,47.557730480851426,0,0,1,0.5
0.0,14,52.55773047523361,0,0,1,0.5
0.0,14,57.557730469728156,0,0,1,0.5
0.0,14,62.557730464332806,0,0,1,0.5
0.0,14,67.55773045904536,0,0,1,0.5
0.0,15,1.8718957480933227,0,0,1,0.5
0.0,15,6.871895743015265,0,0,1,0.5
0.0,15,11.871895738038768,0,0,1,0.5
0.0,15,16.8718957331618,0,0,1,0.5
0.0,15,21.871895728382373,0,0,1,0.5
0.0,15,26.871895723698536,0,0,1,0.5
0.0,15,31.871895719108373,0,0,1,0.5
0.0,15,36.87189571461001,0,0,1,0.5
0.0,15,41.87189571020162,0,0,1,0.5
0.0,15,46.8718957058814,0,0,1,0.5
0.0,15,51.87189570164758,0,0,1,0.5
0.0,15,56.87189569749844,0,0,1,0.5
0.0,15,61.87189569343228,0,0,1,0.5
0.0,15,66.87189568944744,0,0,1,0.5
0.0,16,1.186060979771952,0,0,1,0.5
0.0,16,6.186060975944915,0,0,1,0.5
0.0,16,11.186060972194419,0,0,1,0.5
0.0,16,16.186060968518934,0,0,1,0.5
0.0,16,21.18606096491696,0,0,1,0.5
0.0,16,26.18606096138702,0,0,1,0.5
0.0,16,31.186060957927683,0,0,1,0.5
0.0,16,36.18606095453753,0,0,1,0.5
0.0,16,41.18606095121518,0,0,1,0.5
0.0,16,46.186060947959284,0,0,1,0.5
0.0,16,51.1860609447685,0,0,1,0.5
0.0,16,56.18606094164153,0,0,1,0.5
0.0,16,61.1860609385771,0,0,1,0.5
0.0,16,66.18606093557396,0,0,1,0.5
0.0,17,0.5002262268605335,0,0,1,0.5
0.0,17,5.500226223976318,0,0,1,0.5
0.0,17,10.500226221149788,0,0,1,0.5
0.0,17,15.500226218379787,0,0,1,0.5
0.0,17,20.500226215665187,0,0,1,0.5
0.0,17,25.50022621300488,0,0,1,0.5
0.0,17,30.500226210397777,0,0,1,0.5
0.0,17,35.500226207842815,0,0,1,0.5
0.0,17,40.500226205338954,0,0,1,0.5
0.0,17,45.50022620288517,0,0,1,0.5
0.0,17,50.50022620048047,0,0,1,0.5
0.0,17,55.500226198123855,0,0,1,0.5
0.0,17,60.50022619581437,0,0,1,0.5
0.0,17,65.50022619355107,0,0,1,0.5
0.0,17,70.50022619133304,0,0,1,0.5
0.0,18,4.814391483389031,0,0,1,0.5
0.0,18,9.814391481258838,0,0,1,0.5
0.0,18,14.814391479171249,0,0,1,0.5
0.0,18,19.81439147712541,0,0,1,0.5
0.0,18,24.81439147512049,0,0,1,0.5
0.0,18,29.81439147315567,0,0,1,0.5
0.0,18,34.814391471230145,0,0,1,0.5
0.0,18,39.81439146934313,0,0,1,0.5
0.0,18,44.814391467493856,0,0,1,0.5
0.0,18,49.81439146568157,0,0,1,0.5
0.0,18,54.81439146390552,0,0,1,0.5
0.0,18,59.814391462165,0,0,1,0.5
0.0,18,64.81439146045929,0,0,1,0.5
0.0,18,69.8143914587877,0,0,1,0.5
0.0,18,74.81439145714953,0,0,1,0.5
0.0,18,79.81439145554413,0,0,1,0.5
0.0,18,84.81439145397083,0,0,1,0.5
0.0,18,89.81439145242899,0,0,1,0.5
0.0,18,94.814391450918,0,0,1,0.5
0.0,18,99.81439144943722,0,0,1,0.5
0.0,19,4.814391447986068,0,0,1,0.5
0.0,19,9.814391446563935,0,0,1,0.5
0.0,19,14.814391445170244,0,0,1,0.5
0.0,19,19.81439144380443,0,0,1,0.5
0.0,19,24.814391442465926,0,0,1,0.5
0.0,19,29.814391441154193,0,0,1,0.5
0.0,19,34.8143914398687,0,0,1,0.5
0.0,19,39.814391438608915,0,0,1,0.5
0.0,19,44.814391437374326,0,0,1,0.5
0.0,19,49.81439143616443,0,0,1,0.5
0.0,19,54.81439143497873,0,0,1,0.5
0.0,19,59.814391433816745,0,0,1,0.5
0.0,19,64.814391432678,0,0,1,0.5
0.0,19,69.81439143156203,0,0,1,0.5
0.0,19,74.81439143046838,0,0,1,0.5
0.0,19,79.8143914293966,0,0,1,0.5
0.0,19,84.81439142834625,0,0,1,0.5
0.0,20,3.420593453597604,0,0,1,0.5
0.0,20,8.420593452588854,0,0,1,0.5
0.0,20,13.42059345160028,0,0,1,0.5
0.0,20,18.420593450631475,0,0,1,0.5
0.0,20,23.42059344968205,0,0,1,0.5
0.0,20,28.42059344875161,0,0,1,0.5
0.0,20,33.42059344783978,0,0,1,0.5
0.0,20,38.420593446946185,0,0,1,0.5
0.0,20,43.42059344607046,0,0,1,0.5
0.0,20,48.420593445212255,0,0,1,0.5
0.0,20,53.420593444371214,0,0,1,0.5
0.0,20,58.42059344354699,0,0,1,0.5
0.0,20,63.42059344273925,0,0,1,0.5
0.0,20,68.42059344194767,0,0,1,0.5
0.0,20,73.42059344117192,0,0,1,0.5
0.0,20,78.42059344041168,0,0,1,0.5
0.0,20,83.42059343966665,0,0,1,0.5
0.0,21,2.026795465217205,0,0,1,0.5
0.0,21,7.026795464501678,0,0,1,0.5
0.0,21,12.026795463800461,0,0,1,0.5
0.0,21,17.026795463113267,0,0,1,0.5
0.0,21,22.026795462439818,0,0,1,0.5
0.0,21,27.026795461779837,0,0,1,0.5
0.0,21,32.026795461133055,0,0,1,0.5
0.0,21,37.02679546049921,0,0,1,0.5
0.0,21,42.02679545987804,0,0,1,0.5
0.0,21,47.026795459269294,0,0,1,0.5
0.0,21,52.02679545867272,0,0,1,0.5
0.0,21,57.02679545808809,0,0,1,0.5
0.0,21,62.02679545751514,0,0,1,0.5
0.0,21,67.02679545695365,0,0,1,0.5
0.0,21,72.02679545640339,0,0,1,0.5
0.0,21,77.02679545586415,0,0,1,0.5
0.0,21,82.02679545533569,0,0,1,0.5
0.0,22,0.6329974810984709,0,0,1,0.5
0.0,22,5.632997480590933,0,0,1,0.5
0.0,22,10.632997480093547,0,0,1,0.5
0.0,22,15.632997479606107,0,0,1,0.5
0.0,22,20.632997479128417,0,0,1,0.5
0.0,22,25.63299747866028,0,0,1,0.5
0.0,22,30.632997478201503,0,0,1,0.5
0.0,22,35.63299747775191,0,0,1,0.5
0.0,22,40.6329974773113,0,0,1,0.5
0.0,22,45.6329974768795,0,0,1,0.5
0.0,22,50.632997476456346,0,0,1,0.5
0.0,22,55.63299747604165,0,0,1,0.5
0.0,22,60.63299747563525,0,0,1,0.5
0.0,22,65.63299747523698,0,0,1,0.5
0.0,22,70.63299747484666,0,0,1,0.5
0.0,22,75.63299747446416,0,0,1,0.5
0.0,22,80.63299747408931,0,0,1,0.5
0.0,22,85.63299747372196,0,0,1,0.5
0.0,23,4.239199499642638,0,0,1,0.5
0.0,23,9.23919949928983,0,0,1,0.5
0.0,23,14.239199498944078,0,0,1,0.5
0.0,23,19.23919949860524,0,0,1,0.5
0.0,23,24.239199498273184,0,0,1,0.5
0.0,23,29.239199497947766,0,0,1,0.5
0.0,23,34.23919949762886,0,0,1,0.5
0.0,23,39.23919949731633,0,0,1,0.5
0.0,23,44.23919949701005,0,0,1,0.5
0.0,23,49.239199496709894,0,0,1,0.5
0.0,23,54.23919949641574,0,0,1,0.5
0.0,23,59.239199496127476,0,0,1,0.5
0.0,23,64.23919949584497,0,0,1,0.5
0.0,23,69.23919949556812,0,0,1,0.5
0.0,23,74.2391994952968,0,0,1,0.5
0.0,23,79.23919949503092,0,0,1,0.5
0.0,24,1.772392338038273,0,0,1,0.5
0.0,24,6.772392337782912,0,0,1,0.5
0.0,24,11.772392337532658,0,0,1,0.5
0.0,24,16.772392337287407,0,0,1,0.5
0.0,24,21.772392337047062,0,0,1,0.5
0.0,24,26.772392336811524,0,0,1,0.5
0.0,24,31.772392336580698,0,0,1,0.5
0.0,24,36.772392336354486,0,0,1,0.5
0.0,24,41.7723923361328,0,0,1,0.5
0.0,24,46.772392335915555,0,0,1,0.5
0.0,24,51.77239233570265,0,0,1,0.5
0.0,24,56.772392335494,0,0,1,0.5
0.0,24,61.772392335289524,0,0,1,0.5
0.0,24,66.77239233508914,0,0,1,0.5
0.0,24,71.77239233489276,0,0,1,0.5
0.0,25,2.1595668119427103,0,0,1,0.5
0.0,25,7.159566811754108,0,0,1,0.5
0.0,25,12.159566811569277,0,0,1,0.5
0.0,25,17.159566811388146,0,0,1,0.5
0.0,25,22.159566811210635,0,0,1,0.5
0.0,25,27.159566811036676,0,0,1,0.5
0.0,25,32.159566810866195,0,0,1,0.5
0.0,25,37.159566810699125,0,0,1,0.5
0.0,25,42.159566810535395,0,0,1,0.5
0.0,25,47.15956681037494,0,0,1,0.5
0.0,25,52.1595668102177,0,0,1,0.5
0.0,25,57.159566810063595,0,0,1,0.5
0.0,25,62.159566809912576,0,0,1,0.5
0.0,25,67.15956680976458,0,0,1,0.5
0.0,25,72.15956680961955,0,0,1,0.5
0.0,25,77.15956680947741,0,0,1,0.5
0.0,25,82.15956680933812,0,0,1,0.5
0.0,25,87.1595668092016,0,0,1,0.5
0.0,25,92.15956680906783,0,0,1,0.5
0.0,25,97.15956680893672,0,0,1,0.5
0.0,26,2.1595668088082363,0,0,1,0.5
0.0,26,7.1595668086823245,0,0,1,0.5
0.0,26,12.159566808558932,0,0,1,0.5
0.0,26,17.159566808438008,0,0,1,0.5
0.0,26,22.1595668083195,0,0,1,0.5
0.0,26,27.159566808203365,0,0,1,0.5
0.0,26,32.15956680808955,0,0,1,0.5
0.0,26,37.15956680797801,0,0,1,0.5
0.0,26,42.1595668078687,0,0,1,0.5
0.0,26,47.15956680776158,0,0,1,0.5
0.0,26,52.1595668076566,0,0,1,0.5
0.0,26,57.15956680755372,0,0,1,0.5
0.0,26,62.159566807452904,0,0,1,0.5
0.0,26,67.1595668073541,0,0,1,0.5
0.0,26,72.15956680725726,0,0,1,0.5
0.0,26,77.15956680716238,0,0,1,0.5
0.0,26,82.15956680706938,0,0,1,0.5
0.0,27,0.7657688332589316,0,0,1,0.5
0.0,27,5.76576883316962,0,0,1,0.5
0.0,27,10.765768833082095,0,0,1,0.5
0.0,27,15.76576883299632,0,0,1,0.5
0.0,27,20.76576883291226,0,0,1,0.5
0.0,27,25.765768832829885,0,0,1,0.5
0.0,27,30.765768832749153,0,0,1,0.5
0.0,27,35.765768832670034,0,0,1,0.5
0.0,27,40.7657688325925,0,0,1,0.5
0.0,27,45.765768832516514,0,0,1,0.5
0.0,27,50.76576883244205,0,0,1,0.5
0.0,27,55.765768832369076,0,0,1,0.5
0.0,27,60.76576883229756,0,0,1,0.5
0.0,27,65.76576883222748,0,0,1,0.5
0.0,27,70.7657688321588,0,0,1,0.5
0.0,27,75.7657688320915,0,0,1,0.5
0.0,27,80.76576883202553,0,0,1,0.5
0.0,27,85.76576883196088,0,0,1,0.5
0.0,28,4.371970858178216,0,0,1,0.5
0.0,28,9.371970858116132,0,0,1,0.5
0.0,28,14.371970858055292,0,0,1,0.5
0.0,28,19.371970857995667,0,0,1,0.5
0.0,28,24.371970857937235,0,0,1,0.5
0.0,28,29.371970857879973,0,0,1,0.5
0.0,28,34.371970857823854,0,0,1,0.5
0.0,28,39.37197085776886,0,0,1,0.5
0.0,28,44.37197085771496,0,0,1,0.5
0.0,28,49.37197085766215,0,0,1,0.5
0.0,28,54.371970857610386,0,0,1,0.5
0.0,28,59.37197085755966,0,0,1,0.5
0.0,29,2.3719708575099503,0,0,1,0.5
0.0,29,7.371970857461233,0,0,1,0.5
0.0,29,12.37197085741349,0,0,1,0.5
0.0,29,17.3719708573667,0,0,1,0.5
0.0,29,22.37197085732085,0,0,1,0.5
0.0,29,27.371970857275915,0,0,1,0.5
0.0,29,32.37197085723188,0,0,1,0.5
0.0,29,37.37197085718873,0,0,1,0.5
0.0,29,42.37197085714644,0,0,1,0.5
0.0,29,47.37197085710499,0,0,1,0.5
0.0,29,52.371970857064376,0,0,1,0.5
0.0,29,57.37197085702457,0,0,1,0.5
0.0,29,62.37197085698556,0,0,1,0.5
0.0,29,67.37197085694733,0,0,1,0.5
0.0,30,1.6861361511395216,0,0,1,0.5
0.0,30,6.686136151102807,0,0,1,0.5
0.0,30,11.686136151066826,0,0,1,0.5
0.0,30,16.686136151031565,0,0,1,0.5
0.0,30,21.686136150997008,0,0,1,0.5
0.0,30,26.686136150963144,0,0,1,0.5
0.0,30,31.686136150929958,0,0,1,0.5
0.0,30,36.68613615089743,0,0,1,0.5
0.0,30,41.68613615086556,0,0,1,0.5
0.0,30,46.68613615083432,0,0,1,0.5
0.0,30,51.68613615080371,0,0,1,0.5
0.0,30,56.68613615077371,0,0,1,0.5
0.0,30,61.68613615074432,0,0,1,0.5
0.0,30,66.68613615071551,0,0,1,0.5
0.0,31,1.0003014449169285,0,0,1,0.5
0.0,31,6.000301444889259,0,0,1,0.5
0.0,31,11.000301444862142,0,0,1,0.5
0.0,31,16.000301444835568,0,0,1,0.5
0.0,31,21.000301444809526,0,0,1,0.5
0.0,31,26.000301444784004,0,0,1,0.5
0.0,31,31.000301444758993,0,0,1,0.5
0.0,31,36.00030144473448,0,0,1,0.5
0.0,31,41.00030144471046,0,0,1,0.5
0.0,31,46.00030144468692,0,0,1,0.5
0.0,31,51.00030144466385,0,0,1,0.5
0.0,31,56.00030144464124,0,0,1,0.5
0.0,31,61.00030144461908,0,0,1,0.5
0.0,31,66.00030144459737,0,0,1,0.5
0.0,31,71.0003014445761,0,0,1,0.5
0.0,31,76.00030144455525,0,0,1,0.5
0.0,31,81.00030144453481,0,0,1,0.5
0.0,31,86.00030144451479,0,0,1,0.5
0.0,32,4.6065034707758485,0,0,1,0.5
0.0,32,9.606503470756614,0,0,1,0.5
0.0,32,14.606503470737763,0,0,1,0.5
0.0,32,19.60650347071929,0,0,1,0.5
0.0,32,24.606503470701185,0,0,1,0.5
0.0,32,29.606503470683442,0,0,1,0.5
0.0,32,34.606503470666055,0,0,1,0.5
0.0,32,39.60650347064902,0,0,1,0.5
0.0,32,44.60650347063232,0,0,1,0.5
0.0,32,49.606503470615955,0,0,1,0.5
0.0,32,54.60650347059992,0,0,1,0.5
0.0,32,59.6065034705842,0,0,1,0.5
0.0,32,64.6065034705688,0,0,1,0.5
0.0,32,69.6065034705537,0,0,1,0.5
0.0,32,74.60650347053891,0,0,1,0.5
0.0,32,79.60650347052442,0,0,1,0.5
0.0,32,84.6065034705102,0,0,1,0.5
0.0,33,3.2127054967769624,0,0,1,0.5
0.0,33,8.212705496763318,0,0,1,0.5
0.0,33,13.212705496749948,0,0,1,0.5
0.0,33,18.212705496736845,0,0,1,0.5
0.0,33,23.212705496724002,0,0,1,0.5
0.0,33,28.212705496711415,0,0,1,0.5
0.0,33,33.21270549669908,0,0,1,0.5
0.0,33,38.21270549668699,0,0,1,0.5
0.0,33,43.21270549667515,0,0,1,0.5
0.0,33,48.21270549666354,0,0,1,0.5
0.0,33,53.21270549665216,0,0,1,0.5
0.0,33,58.212705496641014,0,0,1,0.5
0.0,33,63.212705496630086,0,0,1,0.5
0.0,33,68.21270549661938,0,0,1,0.5
0.0,33,73.21270549660889,0,0,1,0.5
0.0,33,78.2127054965986,0,0,1,0.5
0.0,33,83.21270549658853,0,0,1,0.5
0.0,34,1.8189075228593339,0,0,1,0.5
0.0,34,6.8189075228496545,0,0,1,0.5
0.0,34,11.818907522840169,0,0,1,0.5
0.0,34,16.818907522830873,0,0,1,0.5
0.0,34,21.818907522821764,0,0,1,0.5
0.0,34,26.818907522812836,0,0,1,0.5
0.0,34,31.818907522804086,0,0,1,0.5
0.0,34,36.81890752279551,0,0,1,0.5
0.0,34,41.81890752278711,0,0,1,0.5
0.0,34,46.81890752277887,0,0,1,0.5
0.0,34,51.8189075227708,0,0,1,0.5
0.0,34,56.81890752276289,0,0,1,0.5
0.0,34,61.81890752275514,0,0,1,0.5
0.0,34,66.81890752274754,0,0,1,0.5
0.0,34,71.81890752274009,0,0,1,0.5
0.0,34,76.8189075227328,0,0,1,0.5
0.0,34,81.81890752272565,0,0,1,0.5
0.0,35,0.4251095489993304,0,0,1,0.5
0.0,35,5.425109548992465,0,0,1,0.5
0.0,35,10.425109548985738,0,0,1,0.5
0.0,35,15.425109548979144,0,0,1,0.5
0.0,35,20.42510954897268,0,0,1,0.5
0.0,35,25.425109548966347,0,0,1,0.5
0.0,35,30.42510954896014,0,0,1,0.5
0.0,35,35.42510954895406,0,0,1,0.5
0.0,35,40.4251095489481,0,0,1,0.5
0.0,35,45.42510954894226,0,0,1,0.5
0.0,35,50.42510954893653,0,0,1,0.5
0.0,35,55.42510954893093,0,0,1,0.5
0.0,35,60.42510954892543,0,0,1,0.5
0.0,35,65.42510954892003,0,0,1,0.5
0.0,35,70.42510954891475,0,0,1,0.5
0.0,35,75.42510954890957,0,0,1,0.5
0.0,35,80.4251095489045,0,0,1,0.5
0.0,35,85.42510954889953,0,0,1,0.5
0.0,35,90.42510954889465,0,0,1,0.5
0.0,35,95.42510954888988,0,0,1,0.5
0.0,36,0.425109548885203,0,0,1,0.5
0.0,36,5.42510954888062,0,0,1,0.5
0.0,36,10.42510954887613,0,0,1,0.5
0.0,36,15.425109548871728,0,0,1,0.5
0.0,36,20.425109548867415,0,0,1,0.5
0.0,36,25.425109548863187,0,0,1,0.5
0.0,36,30.425109548859044,0,0,1,0.5
0.0,36,35.425109548854984,0,0,1,0.5
0.0,36,40.425109548851005,0,0,1,0.5
0.0,36,45.425109548847104,0,0,1,0.5
0.0,36,50.42510954884328,0,0,1,0.5
0.0,36,55.425109548839536,0,0,1,0.5
0.0,36,60.42510954883586,0,0,1,0.5
0.0,36,65.42510954883227,0,0,1,0.5
0.0,36,70.42510954882874,0,0,1,0.5
0.0,36,75.42510954882529,0,0,1,0.5
0.0,36,80.42510954882191,0,0,1,0.5
0.0,36,85.4251095488186,0,0,1,0.5
0.0,36,90.42510954881534,0,0,1,0.5
0.0,36,95.42510954881216,0,0,1,0.5
0.0,37,0.42510954880903284,0,0,1,0.5
0.0,37,5.425109548805972,0,0,1,0.5
0.0,37,10.425109548802972,0,0,1,0.5
0.0,37,15.425109548800034,0,0,1,0.5
0.0,37,20.425109548797153,0,0,1,0.5
0.0,37,25.42510954879433,0,0,1,0.5
0.0,37,30.425109548791568,0,0,1,0.5
0.0,37,35.42510954878885,0,0,1,0.5
0.0,37,40.425109548786196,0,0,1,0.5
0.0,37,45.425109548783595,0,0,1,0.5
0.0,37,50.425109548781045,0,0,1,0.5
0.0,37,55.42510954877854,0,0,1,0.5
0.0,37,60.42510954877609,0,0,1,0.5
0.0,37,65.42510954877369,0,0,1,0.5
0.0,37,70.42510954877133,0,0,1,0.5
0.0,37,75.42510954876903,0,0,1,0.5
0.0,37,80.42510954876677,0,0,1,0.5
0.0,37,85.42510954876455,0,0,1,0.5
0.0,37,90.42510954876238,0,0,1,0.5
0.0,37,95.42510954876025,0,0,1,0.5
0.0,38,0.425109548758158,0,0,1,0.5
0.0,38,5.425109548756115,0,0,1,0.5
0.0,38,10.425109548754113,0,0,1,0.5
0.0,38,15.42510954875215,0,0,1,0.5
0.0,38,20.42510954875023,0,0,1,0.5
0.0,38,25.425109548748345,0,0,1,0.5
0.0,38,30.425109548746498,0,0,1,0.5
0.0,38,35.425109548744686,0,0,1,0.5
0.0,38,40.42510954874291,0,0,1,0.5
0.0,38,45.42510954874117,0,0,1,0.5
0.0,38,50.425109548739464,0,0,1,0.5
0.0,38,55.425109548737794,0,0,1,0.5
0.0,38,60.42510954873616,0,0,1,0.5
0.0,38,65.42510954873455,0,0,1,0.5
0.0,38,70.42510954873298,0,0,1,0.5
0.0,38,75.42510954873144,0,0,1,0.5
0.0,38,80.42510954872994,0,0,1,0.5
0.0,38,85.42510954872846,0,0,1,0.5
0.0,38,90.42510954872701,0,0,1,0.5
0.0,38,95.42510954872559,0,0,1,0.5
0.0,39,0.42510954872419404,0,0,1,0.5
0.0,39,5.42510954872283,0,0,1,0.5
0.0,39,10.425109548721494,0,0,1,0.5
0.0,39,15.425109548720183,0,0,1,0.5
0.0,39,20.4251095487189,0,0,1,0.5
0.0,39,25.425109548717643,0,0,1,0.5
0.0,39,30.42510954871641,0,0,1,0.5
0.0,39,35.4251095487152,0,0,1,0.5
0.0,39,40.42510954871401,0,0,1,0.5
0.0,39,45.425109548712854,0,0,1,0.5
0.0,39,50.42510954871172,0,0,1,0.5
0.0,39,55.4251095487106,0,0,1,0.5
0.0,39,60.42510954870951,0,0,1,0.5
0.0,39,65.42510954870843,0,0,1,0.5
0.0,39,70.42510954870738,0,0,1,0.5
0.0,39,75.42510954870636,0,0,1,0.5
0.0,39,80.42510954870535,0,0,1,0.5
0.0,39,85.42510954870437,0,0,1,0.5
0.0,0,0.42510954870340356,0,0,2,0.5
0.0,0,5.425109548702456,0,0,2,0.5
0.0,0,10.425109548701528,0,0,2,0.5
0.0,0,15.425109548700618,0,0,2,0.5
0.0,0,20.425109548699727,0,0,2,0.5
0.0,0,25.425109548698853,0,0,2,0.5
0.0,0,30.425109548697996,0,0,2,0.5
0.0,0,35.42510954869716,0,0,2,0.5
0.0,0,40.425109548696334,0,0,2,0.5
0.0,0,45.42510954869553,0,0,2,0.5
0.0,0,50.42510954869474,0,0,2,0.5
0.0,0,55.42510954869397,0,0,2,0.5
0.0,0,60.42510954869321,0,0,2,0.5
0.0,0,65.42510954869246,0,0,2,0.5
0.0,0,70.42510954869174,0,0,2,0.5
0.0,0,75.42510954869103,0,0,2,0.5
0.0,0,80.42510954869033,0,0,2,0.5
0.0,0,85.42510954868965,0,0,2,0.5
0.0,0,90.42510954868898,0,0,2,0.5
0.0,0,95.42510954868833,0,0,2,0.5
0.0,1,0.42510954868768636,0,0,2,0.5
0.0,1,5.425109548687054,0,0,2,0.5
0.0,1,10.425109548686434,0,0,2,0.5
0.0,1,15.425109548685827,0,0,2,0.5
0.0,1,20.42510954868523,0,0,2,0.5
0.0,1,25.42510954868465,0,0,2,0.5
0.0,1,30.425109548684077,0,0,2,0.5
0.0,1,35.425109548683515,0,0,2,0.5
0.0,1,40.42510954868297,0,0,2,0.5
0.0,1,45.42510954868243,0,0,2,0.5
0.0,1,50.4251095486819,0,0,2,0.5
0.0,1,55.425109548681384,0,0,2,0.5
0.0,1,60.42510954868088,0,0,2,0.5
0.0,1,65.42510954868038,0,0,2,0.5
0.0,1,70.4251095486799,0,0,2,0.5
0.0,1,75.42510954867942,0,0,2,0.5
0.0,1,80.42510954867895,0,0,2,0.5
0.0,1,85.42510954867849,0,0,2,0.5
0.0,1,90.42510954867804,0,0,2,0.5
0.0,1,95.4251095486776,0,0,2,0.5
0.0,2,0.4251095486771703,0,0,2,0.5
0.0,2,5.425109548676748,0,0,2,0.5
0.0,2,10.425109548676335,0,0,2,0.5
0.0,2,15.42510954867593,0,0,2,0.5
0.0,2,20.425109548675533,0,0,2,0.5
0.0,2,25.42510954867514,0,0,2,0.5
0.0,2,30.42510954867476,0,0,2,0.5
0.0,2,35.425109548674385,0,0,2,0.5
0.0,2,40.425109548674016,0,0,2,0.5
0.0,2,45.42510954867365,0,0,2,0.5
0.0,2,50.4251095486733,0,0,2,0.5
0.0,2,55.42510954867295,0,0,2,0.5
0.0,2,60.42510954867261,0,0,2,0.5
0.0,2,65.42510954867228,0,0,2,0.5
0.0,2,70.42510954867195,0,0,2,0.5
0.0,2,75.42510954867164,0,0,2,0.5
0.0,2,80.42510954867133,0,0,2,0.5
0.0,2,85.42510954867102,0,0,2,0.5
0.0,2,90.42510954867072,0,0,2,0.5
0.0,2,95.42510954867042,0,0,2,0.5
0.0,3,0.42510954867013595,0,0,2,0.5
0.0,3,5.4251095486698535,0,0,2,0.5
0.0,3,10.425109548669576,0,0,2,0.5
0.0,3,15.425109548669305,0,0,2,0.5
0.0,3,20.425109548669038,0,0,2,0.5
0.0,3,25.42510954866878,0,0,2,0.5
0.0,3,30.425109548668523,0,0,2,0.5
0.0,3,35.425109548668274,0,0,2,0.5
0.0,3,40.42510954866803,0,0,2,0.5
0.0,3,45.42510954866779,0,0,2,0.5
0.0,3,50.42510954866756,0,0,2,0.5
0.0,3,55.42510954866732,0,0,2,0.5
0.0,3,60.425109548667095,0,0,2,0.5
0.0,3,65.42510954866687,0,0,2,0.5
0.0,3,70.42510954866665,0,0,2,0.5
0.0,3,75.42510954866644,0,0,2,0.5
0.0,3,80.42510954866623,0,0,2,0.5
0.0,3,85.42510954866603,0,0,2,0.5
0.0,3,90.42510954866583,0,0,2,0.5
0.0,3,95.42510954866563,0,0,2,0.5
0.0,4,0.42510954866543216,0,0,2,0.5
0.0,4,5.425109548665244,0,0,2,0.5
0.0,4,10.42510954866506,0,0,2,0.5
0.0,4,15.425109548664878,0,0,2,0.5
0.0,4,20.4251095486647,0,0,2,0.5
0.0,4,25.425109548664526,0,0,2,0.5
0.0,4,30.425109548664356,0,0,2,0.5
0.0,4,35.42510954866419,0,0,2,0.5
0.0,4,40.425109548664025,0,0,2,0.5
0.0,4,45.42510954866387,0,0,2,0.5
0.0,4,50.42510954866371,0,0,2,0.5
0.0,4,55.425109548663556,0,0,2,0.5
0.0,4,60.42510954866341,0,0,2,0.5
0.0,4,65.42510954866326,0,0,2,0.5
0.0,4,70.42510954866312,0,0,2,0.5
0.0,4,75.42510954866297,0,0,2,0.5
0.0,4,80.42510954866283,0,0,2,0.5
0.0,4,85.42510954866269,0,0,2,0.5
0.0,5,4.0313115749432455,0,0,2,0.5
0.0,5,9.031311574943114,0,0,2,0.5
0.0,5,14.031311574942986,0,0,2,0.5
0.0,5,19.031311574942862,0,0,2,0.5
0.0,5,24.031311574942738,0,0,2,0.5
0.0,5,29.031311574942617,0,0,2,0.5
0.0,5,34.0313115749425,0,0,2,0.5
0.0,5,39.031311574942386,0,0,2,0.5
0.0,5,44.03131157494227,0,0,2,0.5
0.0,5,49.031311574942166,0,0,2,0.5
0.0,5,54.03131157494206,0,0,2,0.5
0.0,5,59.03131157494195,0,0,2,0.5
0.0,5,64.03131157494185,0,0,2,0.5
0.0,5,69.03131157494175,0,0,2,0.5
0.0,5,74.03131157494165,0,0,2,0.5
0.0,5,79.03131157494155,0,0,2,0.5
0.0,5,84.03131157494145,0,0,2,0.5
0.0,6,2.6375136012220395,0,0,2,0.5
0.0,6,7.637513601221945,0,0,2,0.5
0.0,6,12.637513601221853,0,0,2,0.5
0.0,6,17.637513601221762,0,0,2,0.5
0.0,6,22.637513601221674,0,0,2,0.5
0.0,6,27.637513601221585,0,0,2,0.5
0.0,6,32.6375136012215,0,0,2,0.5
0.0,6,37.637513601221414,0,0,2,0.5
0.0,6,42.63751360122133,0,0,2,0.5
0.0,6,47.63751360122125,0,0,2,0.5
0.0,6,52.63751360122117,0,0,2,0.5
0.0,6,57.637513601221094,0,0,2,0.5
0.0,6,62.637513601221016,0,0,2,0.5
0.0,6,67.63751360122095,0,0,2,0.5
0.0,6,72.63751360122087,0,0,2,0.5
0.0,6,77.6375136012208,0,0,2,0.5
0.0,6,82.63751360122073,0,0,2,0.5
0.0,7,1.243715627501345,0,0,2,0.5
0.0,7,6.24371562750128,0,0,2,0.5
0.0,7,11.243715627501217,0,0,2,0.5
0.0,7,16.243715627501153,0,0,2,0.5
0.0,7,21.24371562750109,0,0,2,0.5
0.0,7,26.24371562750103,0,0,2,0.5
0.0,7,31.24371562750097,0,0,2,0.5
0.0,7,36.24371562750091,0,0,2,0.5
0.0,7,41.243715627500855,0,0,2,0.5
0.0,7,46.2437156275008,0,0,2,0.5
0.0,7,51.24371562750074,0,0,2,0.5
0.0,7,56.243715627500684,0,0,2,0.5
0.0,7,61.24371562750063,0,0,2,0.5
0.0,7,66.24371562750058,0,0,2,0.5
0.0,7,71.24371562750052,0,0,2,0.5
0.0,7,76.24371562750046,0,0,2,0.5
0.0,7,81.2437156275004,0,0,2,0.5
0.0,7,86.24371562750035,0,0,2,0.5
0.0,8,4.849917653780992,0,0,2,0.5
0.0,8,9.849917653780942,0,0,2,0.5
0.0,8,14.849917653780894,0,0,2,0.5
0.0,8,19.849917653780846,0,0,2,0.5
0.0,8,24.8499176537808,0,0,2,0.5
0.0,8,29.849917653780754,0,0,2,0.5
0.0,8,34.84991765378071,0,0,2,0.5
0.0,8,39.849917653780665,0,0,2,0.5
0.0,8,44.84991765378062,0,0,2,0.5
0.0,8,49.84991765378058,0,0,2,0.5
0.0,8,54.84991765378054,0,0,2,0.5
0.0,8,59.849917653780494,0,0,2,0.5
0.0,8,64.84991765378045,0,0,2,0.5
0.0,8,69.84991765378041,0,0,2,0.5
0.0,8,74.84991765378037,0,0,2,0.5
0.0,8,79.84991765378032,0,0,2,0.5
0.0,9,2.3831104970482215,0,0,2,0.5
0.0,9,7.383110497048187,0,0,2,0.5
0.0,9,12.383110497048154,0,0,2,0.5
0.0,9,17.383110497048122,0,0,2,0.5
0.0,9,22.38311049704809,0,0,2,0.5
0.0,9,27.383110497048058,0,0,2,0.5
0.0,9,32.38311049704803,0,0,2,0.5
0.0,9,37.383110497048,0,0,2,0.5
0.0,9,42.38311049704797,0,0,2,0.5
0.0,9,47.383110497047944,0,0,2,0.5
0.0,9,52.383110497047916,0,0,2,0.5
0.0,9,57.38311049704789,0,0,2,0.5
0.0,9,62.383110497047866,0,0,2,0.5
0.0,9,67.38311049704784,0,0,2,0.5
0.0,9,72.38311049704781,0,0,2,0.5
0.0,9,77.38311049704778,0,0,2,0.5
0.0,9,82.38311049704777,0,0,2,0.5
0.0,9,87.38311049704774,0,0,2,0.5
0.0,9,92.38311049704771,0,0,2,0.5
0.0,9,97.38311049704768,0,0,2,0.5
0.0,10,2.383110497047653,0,0,2,0.5
0.0,10,7.383110497047632,0,0,2,0.5
0.0,10,12.38311049704761,0,0,2,0.5
0.0,10,17.38311049704759,0,0,2,0.5
0.0,10,22.383110497047568,0,0,2,0.5
0.0,10,27.383110497047547,0,0,2,0.5
0.0,10,32.383110497047525,0,0,2,0.5
0.0,10,37.383110497047504,0,0,2,0.5
0.0,10,42.38311049704748,0,0,2,0.5
0.0,10,47.38311049704746,0,0,2,0.5
0.0,10,52.38311049704744,0,0,2,0.5
0.0,10,57.38311049704742,0,0,2,0.5
0.0,10,62.3831104970474,0,0,2,0.5
0.0,10,67.38311049704737,0,0,2,0.5
0.0,10,72.38311049704734,0,0,2,0.5
0.0,10,77.38311049704731,0,0,2,0.5
0.0,10,82.38311049704728,0,0,2,0.5
0.0,10,87.38311049704726,0,0,2,0.5
0.0,10,92.38311049704723,0,0,2,0.5
0.0,10,97.3831104970472,0,0,2,0.5
0.0,11,2.38311049704717,0,0,2,0.5
0.0,11,7.383110497047149,0,0,2,0.5
0.0,11,12.383110497047127,0,0,2,0.5
0.0,11,17.383110497047106,0,0,2,0.5
0.0,11,22.383110497047085,0,0,2,0.5
0.0,11,27.383110497047063,0,0,2,0.5
0.0,11,32.38311049704704,0,0,2,0.5
0.0,11,37.38311049704702,0,0,2,0.5
0.0,11,42.383110497047,0,0,2,0.5
0.0,11,47.38311049704698,0,0,2,0.5
0.0,11,52.38311049704696,0,0,2,0.5
0.0,11,57.383110497046935,0,0,2,0.5
0.0,11,62.383110497046914,0,0,2,0.5
0.0,11,67.38311049704689,0,0,2,0.5
0.0,11,72.38311049704686,0,0,2,0.5
0.0,12,2.7702849742892397,0,0,2,0.5
0.0,12,7.770284974289218,0,0,2,0.5
0.0,12,12.770284974289197,0,0,2,0.5
0.0,12,17.770284974289176,0,0,2,0.5
0.0,12,22.770284974289154,0,0,2,0.5
0.0,12,27.770284974289133,0,0,2,0.5
0.0,12,32.77028497428911,0,0,2,0.5
0.0,12,37.77028497428909,0,0,2,0.5
0.0,12,42.77028497428907,0,0,2,0.5
0.0,12,47.77028497428905,0,0,2,0.5
0.0,12,52.77028497428903,0,0,2,0.5
0.0,12,57.770284974289005,0,0,2,0.5
0.0,12,62.770284974288984,0,0,2,0.5
0.0,12,67.77028497428896,0,0,2,0.5
0.0,12,72.77028497428893,0,0,2,0.5
0.0,12,77.7702849742889,0,0,2,0.5
0.0,12,82.77028497428887,0,0,2,0.5
0.0,12,87.77028497428884,0,0,2,0.5
0.0,12,92.77028497428881,0,0,2,0.5
0.0,12,97.77028497428878,0,0,2,0.5
0.0,13,2.7702849742887565,0,0,2,0.5
0.0,13,7.770284974288735,0,0,2,0.5
0.0,13,12.770284974288714,0,0,2,0.5
0.0,13,17.770284974288693,0,0,2,0.5
0.0,13,22.77028497428867,0,0,2,0.5
0.0,13,27.77028497428865,0,0,2,0.5
0.0,13,32.77028497428863,0,0,2,0.5
0.0,13,37.77028497428861,0,0,2,0.5
0.0,13,42.770284974288586,0,0,2,0.5
0.0,13,47.770284974288565,0,0,2,0.5
0.0,13,52.77028497428854,0,0,2,0.5
0.0,13,57.77028497428852,0,0,2,0.5
0.0,13,62.7702849742885,0,0,2,0.5
0.0,13,67.77028497428847,0,0,2,0.5
0.0,13,72.77028497428844,0,0,2,0.5
0.0,13,77.77028497428842,0,0,2,0.5
0.0,13,82.77028497428839,0,0,2,0.5
0.0,13,87.77028497428836,0,0,2,0.5
0.0,13,92.77028497428833,0,0,2,0.5
0.0,13,97.7702849742883,0,0,2,0.5
0.0,14,2.7702849742882734,0,0,2,0.5
0.0,14,7.770284974288252,0,0,2,0.5
0.0,14,12.77028497428823,0,0,2,0.5
0.0,14,17.77028497428821,0,0,2,0.5
0.0,14,22.770284974288188,0,0,2,0.5
0.0,14,27.770284974288167,0,0,2,0.5
0.0,14,32.770284974288145,0,0,2,0.5
0.0,14,37.770284974288124,0,0,2,0.5
0.0,14,42.7702849742881,0,0,2,0.5
0.0,14,47.77028497428808,0,0,2,0.5
0.0,14,52.77028497428806,0,0,2,0.5
0.0,14,57.77028497428804,0,0,2,0.5
0.0,14,62.77028497428802,0,0,2,0.5
0.0,14,67.77028497428799,0,0,2,0.5
0.0,15,2.084450268517614,0,0,2,0.5
0.0,15,7.0844502685175925,0,0,2,0.5
0.0,15,12.084450268517571,0,0,2,0.5
0.0,15,17.08445026851755,0,0,2,0.5
0.0,15,22.08445026851753,0,0,2,0.5
0.0,15,27.084450268517507,0,0,2,0.5
0.0,15,32.084450268517486,0,0,2,0.5
0.0,15,37.084450268517465,0,0,2,0.5
0.0,15,42.08445026851744,0,0,2,0.5
0.0,15,47.08445026851742,0,0,2,0.5
0.0,15,52.0844502685174,0,0,2,0.5
0.0,15,57.08445026851738,0,0,2,0.5
0.0,15,62.08445026851736,0,0,2,0.5
0.0,15,67.08445026851734,0,0,2,0.5
0.0,16,1.3986155627469685,0,0,2,0.5
0.0,16,6.398615562746947,0,0,2,0.5
0.0,16,11.398615562746926,0,0,2,0.5
0.0,16,16.398615562746905,0,0,2,0.5
0.0,16,21.398615562746883,0,0,2,0.5
0.0,16,26.398615562746862,0,0,2,0.5
0.0,16,31.39861556274684,0,0,2,0.5
0.0,16,36.39861556274682,0,0,2,0.5
0.0,16,41.3986155627468,0,0,2,0.5
0.0,16,46.39861556274678,0,0,2,0.5
0.0,16,51.398615562746755,0,0,2,0.5
0.0,16,56.398615562746734,0,0,2,0.5
0.0,16,61.39861556274671,0,0,2,0.5
0.0,16,66.3986155627467,0,0,2,0.5
0.0,17,0.7127808569763232,0,0,2,0.5
0.0,17,5.712780856976302,0,0,2,0.5
0.0,17,10.71278085697628,0,0,2,0.5
0.0,17,15.71278085697626,0,0,2,0.5
0.0,17,20.712780856976238,0,0,2,0.5
0.0,17,25.712780856976217,0,0,2,0.5
0.0,17,30.712780856976195,0,0,2,0.5
0.0,17,35.712780856976174,0,0,2,0.5
0.0,17,40.71278085697615,0,0,2,0.5
0.0,17,45.71278085697613,0,0,2,0.5
0.0,17,50.71278085697611,0,0,2,0.5
0.0,17,55.71278085697609,0,0,2,0.5
0.0,17,60.71278085697607,0,0,2,0.5
0.0,17,65.71278085697605,0,0,2,0.5
0.0,18,0.026946151205677893,0,0,2,0.5
0.0,18,5.026946151205657,0,0,2,0.5
0.0,18,10.026946151205635,0,0,2,0.5
0.0,18,15.026946151205614,0,0,2,0.5
0.0,18,20.026946151205593,0,0,2,0.5
0.0,18,25.02694615120557,0,0,2,0.5
0.0,18,30.02694615120555,0,0,2,0.5
0.0,18,35.02694615120553,0,0,2,0.5
0.0,18,40.02694615120551,0,0,2,0.5
0.0,18,45.026946151205486,0,0,2,0.5
0.0,18,50.026946151205465,0,0,2,0.5
0.0,18,55.02694615120544,0,0,2,0.5
0.0,18,60.02694615120542,0,0,2,0.5
0.0,18,65.02694615120541,0,0,2,0.5
0.0,18,70.02694615120538,0,0,2,0.5
0.0,18,75.02694615120535,0,0,2,0.5
0.0,18,80.02694615120532,0,0,2,0.5
0.0,18,85.0269461512053,0,0,2,0.5
0.0,18,90.02694615120527,0,0,2,0.5
0.0,18,95.02694615120524,0,0,2,0.5
0.0,19,0.026946151205208935,0,0,2,0.5
0.0,19,5.026946151205188,0,0,2,0.5
0.0,19,10.026946151205166,0,0,2,0.5
0.0,19,15.026946151205145,0,0,2,0.5
0.0,19,20.026946151205124,0,0,2,0.5
0.0,19,25.026946151205102,0,0,2,0.5
0.0,19,30.02694615120508,0,0,2,0.5
0.0,19,35.02694615120506,0,0,2,0.5
0.0,19,40.02694615120504,0,0,2,0.5
0.0,19,45.02694615120502,0,0,2,0.5
0.0,19,50.026946151204996,0,0,2,0.5
0.0,19,55.026946151204974,0,0,2,0.5
0.0,19,60.02694615120495,0,0,2,0.5
0.0,19,65.02694615120492,0,0,2,0.5
0.0,19,70.0269461512049,0,0,2,0.5
0.0,19,75.02694615120487,0,0,2,0.5
0.0,19,80.02694615120484,0,0,2,0.5
0.0,19,85.02694615120481,0,0,2,0.5
0.0,20,3.6331481774854666,0,0,2,0.5
0.0,20,8.633148177485445,0,0,2,0.5
0.0,20,13.633148177485424,0,0,2,0.5
0.0,20,18.633148177485403,0,0,2,0.5
0.0,20,23.63314817748538,0,0,2,0.5
0.0,20,28.63314817748536,0,0,2,0.5
0.0,20,33.63314817748534,0,0,2,0.5
0.0,20,38.63314817748532,0,0,2,0.5
0.0,20,43.633148177485296,0,0,2,0.5
0.0,20,48.633148177485275,0,0,2,0.5
0.0,20,53.63314817748525,0,0,2,0.5
0.0,20,58.63314817748523,0,0,2,0.5
0.0,20,63.63314817748521,0,0,2,0.5
0.0,20,68.6331481774852,0,0,2,0.5
0.0,20,73.63314817748517,0,0,2,0.5
0.0,20,78.63314817748514,0,0,2,0.5
0.0,20,83.63314817748511,0,0,2,0.5
0.0,21,2.239350203765767,0,0,2,0.5
0.0,21,7.239350203765746,0,0,2,0.5
0.0,21,12.239350203765724,0,0,2,0.5
0.0,21,17.239350203765703,0,0,2,0.5
0.0,21,22.23935020376568,0,0,2,0.5
0.0,21,27.23935020376566,0,0,2,0.5
0.0,21,32.23935020376564,0,0,2,0.5
0.0,21,37.23935020376562,0,0,2,0.5
0.0,21,42.239350203765596,0,0,2,0.5
0.0,21,47.239350203765575,0,0,2,0.5
0.0,21,52.239350203765554,0,0,2,0.5
0.0,21,57.23935020376553,0,0,2,0.5
0.0,21,62.23935020376551,0,0,2,0.5
0.0,21,67.2393502037655,0,0,2,0.5
0.0,21,72.23935020376547,0,0,2,0.5
0.0,21,77.23935020376544,0,0,2,0.5
0.0,21,82.23935020376541,0,0,2,0.5
0.0,22,0.8455522300460672,0,0,2,0.5
0.0,22,5.845552230046046,0,0,2,0.5
0.0,22,10.845552230046025,0,0,2,0.5
0.0,22,15.845552230046003,0,0,2,0.5
0.0,22,20.845552230045982,0,0,2,0.5
0.0,22,25.84555223004596,0,0,2,0.5
0.0,22,30.84555223004594,0,0,2,0.5
0.0,22,35.84555223004592,0,0,2,0.5
0.0,22,40.8455522300459,0,0,2,0.5
0.0,22,45.845552230045875,0,0,2,0.5
0.0,22,50.845552230045854,0,0,2,0.5
0.0,22,55.84555223004583,0,0,2,0.5
0.0,22,60.84555223004581,0,0,2,0.5
0.0,22,65.8455522300458,0,0,2,0.5
0.0,22,70.84555223004577,0,0,2,0.5
0.0,22,75.84555223004574,0,0,2,0.5
0.0,22,80.84555223004571,0,0,2,0.5
0.0,22,85.84555223004568,0,0,2,0.5
0.0,23,4.451754256326339,0,0,2,0.5
0.0,23,9.451754256326318,0,0,2,0.5
0.0,23,14.451754256326296,0,0,2,0.5
0.0,23,19.451754256326275,0,0,2,0.5
0.0,23,24.451754256326254,0,0,2,0.5
0.0,23,29.451754256326232,0,0,2,0.5
0.0,23,34.45175425632621,0,0,2,0.5
0.0,23,39.45175425632619,0,0,2,0.5
0.0,23,44.45175425632617,0,0,2,0.5
0.0,23,49.45175425632615,0,0,2,0.5
0.0,23,54.451754256326126,0,0,2,0.5
0.0,23,59.451754256326105,0,0,2,0.5
0.0,23,64.45175425632608,0,0,2,0.5
0.0,23,69.45175425632607,0,0,2,0.5
0.0,23,74.45175425632604,0,0,2,0.5
0.0,23,79.45175425632601,0,0,2,0.5
0.0,24,1.98494709959391,0,0,2,0.5
0.0,24,6.984947099593889,0,0,2,0.5
0.0,24,11.984947099593867,0,0,2,0.5
0.0,24,16.984947099593846,0,0,2,0.5
0.0,24,21.984947099593825,0,0,2,0.5
0.0,24,26.984947099593803,0,0,2,0.5
0.0,24,31.984947099593782,0,0,2,0.5
0.0,24,36.98494709959376,0,0,2,0.5
0.0,24,41.98494709959374,0,0,2,0.5
0.0,24,46.98494709959372,0,0,2,0.5
0.0,24,51.9849470995937,0,0,2,0.5
0.0,24,56.984947099593676,0,0,2,0.5
0.0,24,61.984947099593654,0,0,2,0.5
0.0,24,66.98494709959363,0,0,2,0.5
0.0,24,71.9849470995936,0,0,2,0.5
0.0,25,2.37212157683598,0,0,2,0.5
0.0,25,7.3721215768359585,0,0,2,0.5
0.0,25,12.372121576835937,0,0,2,0.5
0.0,25,17.372121576835916,0,0,2,0.5
0.0,25,22.372121576835895,0,0,2,0.5
0.0,25,27.372121576835873,0,0,2,0.5
0.0,25,32.37212157683585,0,0,2,0.5
0.0,25,37.37212157683583,0,0,2,0.5
0.0,25,42.37212157683581,0,0,2,0.5
0.0,25,47.37212157683579,0,0,2,0.5
0.0,25,52.37212157683577,0,0,2,0.5
0.0,25,57.372121576835745,0,0,2,0.5
0.0,25,62.372121576835724,0,0,2,0.5
0.0,25,67.3721215768357,0,0,2,0.5
0.0,25,72.37212157683567,0,0,2,0.5
0.0,25,77.37212157683564,0,0,2,0.5
0.0,25,82.37212157683561,0,0,2,0.5
0.0,25,87.37212157683558,0,0,2,0.5
0.0,25,92.37212157683555,0,0,2,0.5
0.0,25,97.37212157683553,0,0,2,0.5
0.0,26,2.3721215768354966,0,0,2,0.5
0.0,26,7.372121576835475,0,0,2,0.5
0.0,26,12.372121576835454,0,0,2,0.5
0.0,26,17.372121576835433,0,0,2,0.5
0.0,26,22.37212157683541,0,0,2,0.5
0.0,26,27.37212157683539,0,0,2,0.5
0.0,26,32.37212157683537,0,0,2,0.5
0.0,26,37.37212157683535,0,0,2,0.5
0.0,26,42.372121576835326,0,0,2,0.5
0.0,26,47.372121576835305,0,0,2,0.5
0.0,26,52.37212157683528,0,0,2,0.5
0.0,26,57.37212157683526,0,0,2,0.5
0.0,26,62.37212157683524,0,0,2,0.5
0.0,26,67.37212157683521,0,0,2,0.5
0.0,26,72.37212157683518,0,0,2,0.5
0.0,26,77.37212157683516,0,0,2,0.5
0.0,26,82.37212157683513,0,0,2,0.5
0.0,27,0.9783236031157827,0,0,2,0.5
0.0,27,5.978323603115761,0,0,2,0.5
0.0,27,10.97832360311574,0,0,2,0.5
0.0,27,15.978323603115719,0,0,2,0.5
0.0,27,20.978323603115697,0,0,2,0.5
0.0,27,25.978323603115676,0,0,2,0.5
0.0,27,30.978323603115655,0,0,2,0.5
0.0,27,35.97832360311563,0,0,2,0.5
0.0,27,40.97832360311561,0,0,2,0.5
0.0,27,45.97832360311559,0,0,2,0.5
0.0,27,50.97832360311557,0,0,2,0.5
0.0,27,55.97832360311555,0,0,2,0.5
0.0,27,60.97832360311553,0,0,2,0.5
0.0,27,65.97832360311551,0,0,2,0.5
0.0,27,70.97832360311548,0,0,2,0.5
0.0,27,75.97832360311546,0,0,2,0.5
0.0,27,80.97832360311543,0,0,2,0.5
0.0,27,85.9783236031154,0,0,2,0.5
0.0,28,4.584525629396055,0,0,2,0.5
0.0,28,9.584525629396033,0,0,2,0.5
0.0,28,14.584525629396012,0,0,2,0.5
0.0,28,19.58452562939599,0,0,2,0.5
0.0,28,24.58452562939597,0,0,2,0.5
0.0,28,29.584525629395948,0,0,2,0.5
0.0,28,34.58452562939593,0,0,2,0.5
0.0,28,39.584525629395905,0,0,2,0.5
0.0,28,44.584525629395884,0,0,2,0.5
0.0,28,49.58452562939586,0,0,2,0.5
0.0,28,54.58452562939584,0,0,2,0.5
0.0,28,59.58452562939582,0,0,2,0.5
0.0,29,2.5845256293957988,0,0,2,0.5
0.0,29,7.5845256293957775,0,0,2,0.5
0.0,29,12.584525629395756,0,0,2,0.5
0.0,29,17.584525629395735,0,0,2,0.5
0.0,29,22.584525629395714,0,0,2,0.5
0.0,29,27.584525629395692,0,0,2,0.5
0.0,29,32.58452562939567,0,0,2,0.5
0.0,29,37.58452562939565,0,0,2,0.5
0.0,29,42.58452562939563,0,0,2,0.5
0.0,29,47.58452562939561,0,0,2,0.5
0.0,29,52.584525629395586,0,0,2,0.5
0.0,29,57.584525629395564,0,0,2,0.5
0.0,29,62.58452562939554,0,0,2,0.5
0.0,29,67.58452562939553,0,0,2,0.5
0.0,30,1.8986909236251535,0,0,2,0.5
0.0,30,6.898690923625132,0,0,2,0.5
0.0,30,11.89869092362511,0,0,2,0.5
0.0,30,16.89869092362509,0,0,2,0.5
0.0,30,21.898690923625068,0,0,2,0.5
0.0,30,26.898690923625047,0,0,2,0.5
0.0,30,31.898690923625026,0,0,2,0.5
0.0,30,36.898690923625004,0,0,2,0.5
0.0,30,41.89869092362498,0,0,2,0.5
0.0,30,46.89869092362496,0,0,2,0.5
0.0,30,51.89869092362494,0,0,2,0.5
0.0,30,56.89869092362492,0,0,2,0.5
0.0,30,61.8986909236249,0,0,2,0.5
0.0,30,66.89869092362488,0,0,2,0.5
0.0,31,1.2128562178545081,0,0,2,0.5
0.0,31,6.212856217854487,0,0,2,0.5
0.0,31,11.212856217854466,0,0,2,0.5
0.0,31,16.212856217854444,0,0,2,0.5
0.0,31,21.212856217854423,0,0,2,0.5
0.0,31,26.2128562178544,0,0,2,0.5
0.0,31,31.21285621785438,0,0,2,0.5
0.0,31,36.21285621785436,0,0,2,0.5
0.0,31,41.21285621785434,0,0,2,0.5
0.0,31,46.212856217854316,0,0,2,0.5
0.0,31,51.212856217854295,0,0,2,0.5
0.0,31,56.212856217854274,0,0,2,0.5
0.0,31,61.21285621785425,0,0,2,0.5
0.0,31,66.21285621785424,0,0,2,0.5
0.0,31,71.21285621785421,0,0,2,0.5
0.0,31,76.21285621785418,0,0,2,0.5
0.0,31,81.21285621785415,0,0,2,0.5
0.0,31,86.21285621785412,0,0,2,0.5
0.0,32,4.81905824413478,0,0,2,0.5
0.0,32,9.819058244134759,0,0,2,0.5
0.0,32,14.819058244134737,0,0,2,0.5
0.0,32,19.819058244134716,0,0,2,0.5
0.0,32,24.819058244134695,0,0,2,0.5
0.0,32,29.819058244134673,0,0,2,0.5
0.0,32,34.81905824413465,0,0,2,0.5
0.0,32,39.81905824413463,0,0,2,0.5
0.0,32,44.81905824413461,0,0,2,0.5
0.0,32,49.81905824413459,0,0,2,0.5
0.0,32,54.81905824413457,0,0,2,0.5
0.0,32,59.819058244134546,0,0,2,0.5
0.0,32,64.81905824413452,0,0,2,0.5
0.0,32,69.81905824413451,0,0,2,0.5
0.0,32,74.81905824413448,0,0,2,0.5
0.0,32,79.81905824413445,0,0,2,0.5
0.0,32,84.81905824413442,0,0,2,0.5
0.0,33,3.4252602704150803,0,0,2,0.5
0.0,33,8.425260270415059,0,0,2,0.5
0.0,33,13.425260270415038,0,0,2,0.5
0.0,33,18.425260270415016,0,0,2,0.5
0.0,33,23.425260270414995,0,0,2,0.5
0.0,33,28.425260270414974,0,0,2,0.5
0.0,33,33.42526027041495,0,0,2,0.5
0.0,33,38.42526027041493,0,0,2,0.5
0.0,33,43.42526027041491,0,0,2,0.5
0.0,33,48.42526027041489,0,0,2,0.5
0.0,33,53.42526027041487,0,0,2,0.5
0.0,33,58.425260270414846,0,0,2,0.5
0.0,33,63.425260270414825,0,0,2,0.5
0.0,33,68.42526027041481,0,0,2,0.5
0.0,33,73.42526027041478,0,0,2,0.5
0.0,33,78.42526027041475,0,0,2,0.5
0.0,33,83.42526027041473,0,0,2,0.5
0.0,34,2.0314622966953806,0,0,2,0.5
0.0,34,7.031462296695359,0,0,2,0.5
0.0,34,12.031462296695338,0,0,2,0.5
0.0,34,17.031462296695317,0,0,2,0.5
0.0,34,22.031462296695295,0,0,2,0.5
0.0,34,27.031462296695274,0,0,2,0.5
0.0,34,32.03146229669525,0,0,2,0.5
0.0,34,37.03146229669523,0,0,2,0.5
0.0,34,42.03146229669521,0,0,2,0.5
0.0,34,47.03146229669519,0,0,2,0.5
0.0,34,52.03146229669517,0,0,2,0.5
0.0,34,57.031462296695146,0,0,2,0.5
0.0,34,62.031462296695125,0,0,2,0.5
0.0,34,67.03146229669511,0,0,2,0.5
0.0,34,72.03146229669508,0,0,2,0.5
0.0,34,77.03146229669505,0,0,2,0.5
0.0,34,82.03146229669503,0,0,2,0.5
0.0,35,0.6376643229756809,0,0,2,0.5
0.0,35,5.63766432297566,0,0,2,0.5
0.0,35,10.637664322975638,0,0,2,0.5
0.0,35,15.637664322975617,0,0,2,0.5
0.0,35,20.637664322975596,0,0,2,0.5
0.0,35,25.637664322975574,0,0,2,0.5
0.0,35,30.637664322975553,0,0,2,0.5
0.0,35,35.63766432297553,0,0,2,0.5
0.0,35,40.63766432297551,0,0,2,0.5
0.0,35,45.63766432297549,0,0,2,0.5
0.0,35,50.63766432297547,0,0,2,0.5
0.0,35,55.637664322975446,0,0,2,0.5
0.0,35,60.637664322975425,0,0,2,0.5
0.0,35,65.63766432297541,0,0,2,0.5
0.0,35,70.63766432297538,0,0,2,0.5
0.0,35,75.63766432297535,0,0,2,0.5
0.0,35,80.63766432297533,0,0,2,0.5
0.0,35,85.6376643229753,0,0,2,0.5
0.0,35,90.63766432297527,0,0,2,0.5
0.0,35,95.63766432297524,0,0,2,0.5
0.0,36,0.6376643229752119,0,0,2,0.5
0.0,36,5.637664322975191,0,0,2,0.5
0.0,36,10.63766432297517,0,0,2,0.5
0.0,36,15.637664322975148,0,0,2,0.5
0.0,36,20.637664322975127,0,0,2,0.5
0.0,36,25.637664322975105,0,0,2,0.5
0.0,36,30.637664322975084,0,0,2,0.5
0.0,36,35.63766432297506,0,0,2,0.5
0.0,36,40.63766432297504,0,0,2,0.5
0.0,36,45.63766432297502,0,0,2,0.5
0.0,36,50.637664322975,0,0,2,0.5
0.0,36,55.63766432297498,0,0,2,0.5
0.0,36,60.637664322974956,0,0,2,0.5
0.0,36,65.63766432297493,0,0,2,0.5
0.0,36,70.6376643229749,0,0,2,0.5
0.0,36,75.63766432297487,0,0,2,0.5
0.0,36,80.63766432297484,0,0,2,0.5
0.0,36,85.63766432297481,0,0,2,0.5
0.0,36,90.63766432297479,0,0,2,0.5
0.0,36,95.63766432297476,0,0,2,0.5
0.0,37,0.6376643229747287,0,0,2,0.5
0.0,37,5.637664322974707,0,0,2,0.5
0.0,37,10.637664322974686,0,0,2,0.5
0.0,37,15.637664322974665,0,0,2,0.5
0.0,37,20.637664322974643,0,0,2,0.5
0.0,37,25.637664322974622,0,0,2,0.5
0.0,37,30.6376643229746,0,0,2,0.5
0.0,37,35.63766432297458,0,0,2,0.5
0.0,37,40.63766432297456,0,0,2,0.5
0.0,37,45.63766432297454,0,0,2,0.5
0.0,37,50.637664322974516,0,0,2,0.5
0.0,37,55.637664322974494,0,0,2,0.5
0.0,37,60.63766432297447,0,0,2,0.5
0.0,37,65.63766432297444,0,0,2,0.5
0.0,37,70.63766432297442,0,0,2,0.5
0.0,37,75.63766432297439,0,0,2,0.5
0.0,37,80.63766432297436,0,0,2,0.5
0.0,37,85.63766432297433,0,0,2,0.5
0.0,37,90.6376643229743,0,0,2,0.5
0.0,37,95.63766432297427,0,0,2,0.5
0.0,38,0.6376643229742456,0,0,2,0.5
0.0,38,5.637664322974224,0,0,2,0.5
0.0,38,10.637664322974203,0,0,2,0.5
0.0,38,15.637664322974182,0,0,2,0.5
0.0,38,20.63766432297416,0,0,2,0.5
0.0,38,25.63766432297414,0,0,2,0.5
0.0,38,30.637664322974118,0,0,2,0.5
0.0,38,35.637664322974096,0,0,2,0.5
0.0,38,40.637664322974075,0,0,2,0.5
0.0,38,45.637664322974054,0,0,2,0.5
0.0,38,50.63766432297403,0,0,2,0.5
0.0,38,55.63766432297401,0,0,2,0.5
0.0,38,60.63766432297399,0,0,2,0.5
0.0,38,65.63766432297396,0,0,2,0.5
0.0,38,70.63766432297393,0,0,2,0.5
0.0,38,75.6376643229739,0,0,2,0.5
0.0,38,80.63766432297388,0,0,2,0.5
0.0,38,85.63766432297385,0,0,2,0.5
0.0,38,90.63766432297382,0,0,2,0.5
0.0,38,95.63766432297379,0,0,2,0.5
0.0,39,0.6376643229737624,0,0,2,0.5
0.0,39,5.637664322973741,0,0,2,0.5
0.0,39,10.63766432297372,0,0,2,0.5
0.0,39,15.637664322973698,0,0,2,0.5
0.0,39,20.637664322973677,0,0,2,0.5
0.0,39,25.637664322973656,0,0,2,0.5
0.0,39,30.637664322973635,0,0,2,0.5
0.0,39,35.63766432297361,0,0,2,0.5
0.0,39,40.63766432297359,0,0,2,0.5
0.0,39,45.63766432297357,0,0,2,0.5
0.0,39,50.63766432297355,0,0,2,0.5
0.0,39,55.63766432297353,0,0,2,0.5
0.0,39,60.63766432297351,0,0,2,0.5
0.0,39,65.63766432297348,0,0,2,0.5
0.0,39,70.63766432297345,0,0,2,0.5
0.0,39,75.63766432297342,0,0,2,0.5
0.0,39,80.6376643229734,0,0,2,0.5
0.0,39,85.63766432297336,0,0,2,0.5
0.0,0,0.6376643229733361,0,0,3,0.5
