{
   "race":{
      "track":{
         "pieces":[
            {
               "length":100.0
            },
            {
               "length":100.0
            },
            {
               "length":100.0
            },
            {
               "length":100.0,
               "switch":true
            },
            {
               "angle":45.0,
               "radius":100
            },
            {
               "angle":45.0,
               "radius":100
            },
            {
               "angle":45.0,
               "radius":100
            },
            {
               "angle":45.0,
               "radius":100
            },
            {
               "angle":22.5,
               "switch":true,
               "radius":200
            },
            {
               "length":100.0
            },
            {
               "length":100.0
            },
            {
               "angle":-22.5,
               "radius":200
            },
            {
               "length":100.0
            },
            {
               "length":100.0,
               "switch":true
            },
            {
               "angle":-45.0,
               "radius":100
            },
            {
               "angle":-45.0,
               "radius":100
            },
            {
               "angle":-45.0,
               "radius":100
            },
            {
               "angle":-45.0,
               "radius":100
            },
            {
               "length":100.0,
               "switch":true
            },
            {
               "angle":45.0,
               "radius":100
            },
            {
               "angle":45.0,
               "radius":100
            },
            {
               "angle":45.0,
               "radius":100
            },
            {
               "angle":45.0,
               "radius":100
            },
            {
               "angle":22.5,
               "radius":200
            },
            {
               "angle":-22.5,
               "radius":200
            },
            {
               "length":100.0,
               "switch":true
            },
            {
               "angle":45.0,
               "radius":100
            },
            {
               "angle":45.0,
               "radius":100
            },
            {
               "length":62.0
            },
            {
               "angle":-45.0,
               "switch":true,
               "radius":100
            },
            {
               "angle":-45.0,
               "radius":100
            },
            {
               "angle":45.0,
               "radius":100
            },
            {
               "angle":45.0,
               "radius":100
            },
            {
               "angle":45.0,
               "radius":100
            },
            {
               "angle":45.0,
               "radius":100
            },
            {
               "length":100.0,
               "switch":true
            },
            {
               "length":100.0
            },
            {
               "length":100.0
            },
            {
               "length":100.0
            },
            {
               "length":90.0
            }
         ],
         "lanes":[
            {
               "index":0,
               "distanceFromCenter":-10
            },
            {
               "index":1,
               "distanceFromCenter":10
            }
         ],
         "id":"keimola",
         "startingPoint":{
            "position":{
               "y":-44.0,
               "x":-300.0
            },
            "angle":90.0
         },
         "name":"Keimola"
      },
      "cars":[
         {
            "id":{
               "color":"red",
               "name":"Barton Fan Clubj"
            },
            "dimensions":{
               "width":20.0,
               "length":40.0,
               "guideFlagPosition":10.0
            }
         }
      ],
      "raceSession":{
         "laps":3,
         "maxLapTimeMs":60000,
         "quickRace":true
      }
   }
}